[
    {
        "%vlocity_namespace%__FloorPrice__c": "",
        "%vlocity_namespace%__OverageCharge__c": "",
        "%vlocity_namespace%__OverageUOM__c": "",
        "%vlocity_namespace%__RecurringPrice__c": "",
        "%vlocity_namespace%__RecurringUOM__c": "Monthly",
        "IsActive": true,
        "IsArchived": false,
        "Name": "Offre Mobile 10€ (mobile de 500€ et +)",
        "Pricebook2.Name": "Standard Price Book",
        "Pricebook2Id": {
            "Name": "Standard Price Book",
            "VlocityDataPackType": "VlocityLookupMatchingKeyObject",
            "VlocityLookupRecordSourceKey": "Pricebook2/Standard Price Book",
            "VlocityRecordSObjectType": "Pricebook2"
        },
        "Product2.%vlocity_namespace%__GlobalKey__c": "274007ac-0626-b91e-f642-67327a3eaf0c",
        "Product2Id": {
            "%vlocity_namespace%__GlobalKey__c": "274007ac-0626-b91e-f642-67327a3eaf0c",
            "VlocityDataPackType": "VlocityMatchingKeyObject",
            "VlocityMatchingRecordSourceKey": "Product2/274007ac-0626-b91e-f642-67327a3eaf0c",
            "VlocityRecordSObjectType": "Product2"
        },
        "ProductCode": "ED_COV_CASSEVOLMOB10",
        "UnitPrice": 1,
        "UseStandardPrice": false,
        "VlocityDataPackType": "SObject",
        "VlocityRecordSObjectType": "PricebookEntry",
        "VlocityRecordSourceKey": "PricebookEntry/Pricebook2/Standard Price Book/Product2/274007ac-0626-b91e-f642-67327a3eaf0c"
    }
]