{
    "%vlocity_namespace%__ApprovedBy__c": "",
    "%vlocity_namespace%__ApprovedOn__c": "",
    "%vlocity_namespace%__AttributeAssignment__c": "Offre-Mobile-10EU-mobile-de-500EU-et_AttributeAssignments.json",
    "%vlocity_namespace%__AttributeDefaultValues__c": {
        "ATT_MobLimite": "1500"
    },
    "%vlocity_namespace%__AttributeMetadata__c": {
        "records": [
            {
                "Code__c": "ATT_CAT_CASSEVOL",
                "Name": "CasseVol",
                "displaySequence": 50,
                "id": "a0U9E00000Cr1VVUAZ",
                "productAttributes": {
                    "records": [
                        {
                            "attributeId": "a0V9E0000085rTVUAY",
                            "cloneable": true,
                            "code": "ATT_MobLimite",
                            "dataType": "text",
                            "disabled": false,
                            "displaySequence": 0,
                            "filterable": true,
                            "hasRules": false,
                            "hidden": false,
                            "inputType": "radio",
                            "isNotTranslatable": false,
                            "label": "Limite",
                            "multiselect": false,
                            "readonly": false,
                            "required": false,
                            "userValues": null,
                            "values": [
                                {
                                    "disabled": false,
                                    "id": "0",
                                    "label": "0",
                                    "readonly": false,
                                    "value": "0"
                                },
                                {
                                    "disabled": false,
                                    "id": "1",
                                    "label": "1500",
                                    "readonly": false,
                                    "value": "1500"
                                }
                            ]
                        }
                    ],
                    "totalSize": 1
                }
            }
        ],
        "totalSize": 1
    },
    "%vlocity_namespace%__AttributeRules__c": "",
    "%vlocity_namespace%__Availability__c": "",
    "%vlocity_namespace%__CarrierId__c": {
        "Name": "SEYNA",
        "RecordType.DeveloperName": "Carrier",
        "RecordType.SobjectType": "Account",
        "VlocityDataPackType": "VlocityLookupMatchingKeyObject",
        "VlocityLookupRecordSourceKey": "Account/SEYNA",
        "VlocityRecordSObjectType": "Account"
    },
    "%vlocity_namespace%__ChangeDetectorImplementation__c": "",
    "%vlocity_namespace%__ClassId__c": "",
    "%vlocity_namespace%__CoverageCalculationFormula__c": "",
    "%vlocity_namespace%__DefaultImageId__c": "",
    "%vlocity_namespace%__EffectiveDate__c": "2021-03-01",
    "%vlocity_namespace%__EligibilityCriteriaComments__c": "",
    "%vlocity_namespace%__EligibilityCriteria__c": "",
    "%vlocity_namespace%__EndDate__c": "",
    "%vlocity_namespace%__EndOfLifeDate__c": "",
    "%vlocity_namespace%__EnrollmentStatus__c": "",
    "%vlocity_namespace%__FormularyId__c": "",
    "%vlocity_namespace%__FulfilmentStartDate__c": "2021-02-28T23:00:00.000Z",
    "%vlocity_namespace%__GlobalGroupKey__c": "34b48d48-8446-c778-7139-90e6ce3652c9",
    "%vlocity_namespace%__GlobalKey__c": "274007ac-0626-b91e-f642-67327a3eaf0c",
    "%vlocity_namespace%__HasCustomAttributesProcess__c": false,
    "%vlocity_namespace%__HeaderData__c": "",
    "%vlocity_namespace%__HelpText__c": "",
    "%vlocity_namespace%__InstanceKeyFormula__c": "",
    "%vlocity_namespace%__IsConfigurable__c": true,
    "%vlocity_namespace%__IsLocationDependent__c": false,
    "%vlocity_namespace%__IsNotAssetizable__c": false,
    "%vlocity_namespace%__IsOrderable__c": true,
    "%vlocity_namespace%__IsRecommended__c": false,
    "%vlocity_namespace%__LastPublishDate__c": "",
    "%vlocity_namespace%__LastSimulationInput__c": "",
    "%vlocity_namespace%__LifecycleStatus__c": "",
    "%vlocity_namespace%__LineOfBusiness__c": "",
    "%vlocity_namespace%__MarketSegment__c": "",
    "%vlocity_namespace%__ObjectTypeId__c": "",
    "%vlocity_namespace%__ParentClassId__c": "",
    "%vlocity_namespace%__PricingFormula__c": "",
    "%vlocity_namespace%__PricingSource__c": "",
    "%vlocity_namespace%__ProductSpecId__c": "",
    "%vlocity_namespace%__ProductTemplateId__c": "",
    "%vlocity_namespace%__ProductTemplateProductId__c": "",
    "%vlocity_namespace%__ProviderNetworkId__c": "",
    "%vlocity_namespace%__RateBandId__c": "",
    "%vlocity_namespace%__RatingCalcProcedureName__c": "",
    "%vlocity_namespace%__RatingProcedureType__c": "",
    "%vlocity_namespace%__RecordTypeName__c": "CoverageSpec",
    "%vlocity_namespace%__ReplacementProductId__c": "",
    "%vlocity_namespace%__ReserveProcessingMode__c": "CoverageReserve",
    "%vlocity_namespace%__Scope__c": "Order Item",
    "%vlocity_namespace%__SellingEndDate__c": "",
    "%vlocity_namespace%__SellingStartDate__c": "2021-02-28T23:00:00.000Z",
    "%vlocity_namespace%__SpecificationSubType__c": "",
    "%vlocity_namespace%__SpecificationType__c": "",
    "%vlocity_namespace%__StandardPremium__c": "",
    "%vlocity_namespace%__Status__c": "",
    "%vlocity_namespace%__SubType__c": "",
    "%vlocity_namespace%__Term__c": "Annual",
    "%vlocity_namespace%__Tier__c": "",
    "%vlocity_namespace%__TimeToLive__c": "",
    "%vlocity_namespace%__TotalCoverageCalculationFormula__c": "",
    "%vlocity_namespace%__TotalInsuredFormula__c": "",
    "%vlocity_namespace%__TrackAsAgreement__c": false,
    "%vlocity_namespace%__Type__c": "",
    "%vlocity_namespace%__VersionEndDateTime__c": "",
    "%vlocity_namespace%__VersionLabel__c": "",
    "%vlocity_namespace%__VersionStartDateTime__c": "",
    "CanUseQuantitySchedule": false,
    "CanUseRevenueSchedule": false,
    "CarrierContract__c": {
        "PolicyCodeNumber__c": "CV7WKV",
        "RecordType.DeveloperName": "Contract",
        "RecordType.SobjectType": "Contract",
        "VlocityDataPackType": "VlocityLookupMatchingKeyObject",
        "VlocityLookupRecordSourceKey": "Contract/Generated1483775483",
        "VlocityRecordSObjectType": "Contract"
    },
    "Description": "",
    "DisplayUrl": "",
    "ExternalDataSourceId": "",
    "ExternalId": "",
    "Family": "ElectroDepot",
    "IsActive": true,
    "IsArchived": false,
    "Name": "Offre Mobile 10€ (mobile de 500€ et +)",
    "NumberOfQuantityInstallments": "",
    "NumberOfRevenueInstallments": "",
    "PricebookEntry": "Offre-Mobile-10EU-mobile-de-500EU-et_PricebookEntries.json",
    "ProductCode": "ED_COV_CASSEVOLMOB10",
    "QuantityInstallmentPeriod": "",
    "QuantityScheduleType": "",
    "QuantityUnitOfMeasure": "",
    "RecordTypeId": {
        "DeveloperName": "CoverageSpec",
        "SobjectType": "Product2",
        "VlocityDataPackType": "VlocityLookupMatchingKeyObject",
        "VlocityLookupRecordSourceKey": "RecordType/Product2/CoverageSpec",
        "VlocityRecordSObjectType": "RecordType"
    },
    "RevenueInstallmentPeriod": "",
    "RevenueScheduleType": "",
    "StockKeepingUnit": "",
    "VlocityDataPackType": "SObject",
    "VlocityRecordSObjectType": "Product2",
    "VlocityRecordSourceKey": "Product2/274007ac-0626-b91e-f642-67327a3eaf0c"
}