{
    "%vlocity_namespace%__CustomJavaScript__c": "{}",
    "%vlocity_namespace%__DisableMetadataCache__c": false,
    "%vlocity_namespace%__ElementTypeToHTMLTemplateList__c": "{\"ElementTypeToHTMLTemplateList\":[]}",
    "%vlocity_namespace%__Element__c": [
        "VSPCLM_IP04GetParties_Element_DREGetPartyRelationShipType.json",
        "VSPCLM_IP04GetParties_Element_DREGetRepairerAndPartnaireParty.json"
    ],
    "%vlocity_namespace%__IsLwcEnabled__c": false,
    "%vlocity_namespace%__IsProcedure__c": true,
    "%vlocity_namespace%__IsReusable__c": false,
    "%vlocity_namespace%__IsTest__c": false,
    "%vlocity_namespace%__Language__c": "Procedure",
    "%vlocity_namespace%__OmniProcessType__c": "Integration Procedure",
    "%vlocity_namespace%__ProcedureKey__c": "VSPCLM_IP04GetParties",
    "%vlocity_namespace%__PropertySet__c": "VSPCLM_IP04GetParties_PropertySet.json",
    "%vlocity_namespace%__SubType__c": "IP04GetParties",
    "%vlocity_namespace%__Type__c": "VSPCLM",
    "Name": "IP04GetParties",
    "VlocityDataPackType": "SObject",
    "VlocityRecordSObjectType": "%vlocity_namespace%__OmniScript__c",
    "VlocityRecordSourceKey": "%vlocity_namespace%__OmniScript__c/VSPCLM/IP04GetParties/Procedure"
}