{
    "%vlocity_namespace%__Author__c": "vsp",
    "%vlocity_namespace%__CardType__c": "flex",
    "%vlocity_namespace%__Datasource__c": {
        "contextVariables": [
        ],
        "orderBy": {
        },
        "type": null,
        "value": {
        }
    },
    "%vlocity_namespace%__Definition__c": "vspStatementRecord.json",
    "%vlocity_namespace%__Description__c": "",
    "%vlocity_namespace%__GlobalKey__c": "vspStatementRecord/vsp/2/1619629265175",
    "%vlocity_namespace%__IsChildCard__c": true,
    "%vlocity_namespace%__ParentID__c": "",
    "%vlocity_namespace%__SampleData__c": "",
    "%vlocity_namespace%__Styles__c": "",
    "%vlocity_namespace%__Type__c": "",
    "%vlocity_namespace%__Version__c": 2,
    "Name": "vspStatementRecord",
    "VlocityDataPackType": "SObject",
    "VlocityRecordSObjectType": "%vlocity_namespace%__VlocityCard__c",
    "VlocityRecordSourceKey": "%vlocity_namespace%__VlocityCard__c/vspStatementRecord"
}