{
    "dataSource": {
        "contextVariables": [
        ],
        "orderBy": {
        },
        "type": null,
        "value": {
        }
    },
    "enableLwc": true,
    "isFlex": true,
    "lwc": {
        "DeveloperName": "cfVspStatementRecord_2_vsp",
        "Id": "0Rb7R000000bo4nSAA",
        "ManageableState": "unmanaged",
        "MasterLabel": "cfVspStatementRecord_2_vsp",
        "NamespacePrefix": "c"
    },
    "states": [
        {
            "actions": [
            ],
            "childCards": [
            ],
            "components": {
                "layer-0": {
                    "children": [
                        {
                            "class": "slds-col ",
                            "element": "flexIcon",
                            "elementLabel": "Icon-0",
                            "name": "Icon",
                            "property": {
                                "extraclass": "",
                                "iconName": "custom:custom17",
                                "iconType": "Salesforce SVG",
                                "imgsrc": "",
                                "record": "{record}",
                                "size": "small",
                                "variant": "error"
                            },
                            "size": {
                                "default": "1",
                                "isResponsive": false
                            },
                            "stateIndex": 0,
                            "styleObject": {
                                "background": {
                                    "color": "",
                                    "image": "",
                                    "position": "",
                                    "repeat": "",
                                    "size": ""
                                },
                                "border": {
                                    "color": "",
                                    "radius": "",
                                    "style": "",
                                    "type": "",
                                    "width": ""
                                },
                                "class": "slds-text-align_center ",
                                "container": {
                                    "class": ""
                                },
                                "elementStyleProperties": {
                                },
                                "inlineStyle": "",
                                "margin": [
                                ],
                                "padding": [
                                ],
                                "size": {
                                    "default": "1",
                                    "isResponsive": false
                                },
                                "sizeClass": "slds-size_1-of-12 ",
                                "style": "     : #ccc 1px solid; \n         ",
                                "text": {
                                    "align": "center",
                                    "color": ""
                                }
                            },
                            "type": "element"
                        },
                        {
                            "class": "slds-col ",
                            "element": "outputField",
                            "elementLabel": "DetaitStatement",
                            "name": "Text",
                            "property": {
                                "card": "{card}",
                                "mergeField": "%3Cdiv%20class=%22slds-text-align_left%22%3E%3Cspan%20style=%22font-family:%20'Salesforce%20Sans',%20Arial,%20sans-serif;%20font-size:%2011pt;%20background-color:%20initial;%22%3E%3Cspan%20class=%22slds-text-body_regular%22%20style=%22background-color:%20initial;%20font-size:%200.8125rem;%22%3E%20N&deg;%20Quittance%20:%20%3Cstrong%3E%7BQuittanceNumber%7D%3C/strong%3E%20%3C/span%3E%3C/span%3E%3C/div%3E",
                                "record": "{record}"
                            },
                            "size": {
                                "default": "4",
                                "isResponsive": false
                            },
                            "stateIndex": 0,
                            "styleObject": {
                                "background": {
                                    "color": "",
                                    "image": "",
                                    "position": "",
                                    "repeat": "",
                                    "size": ""
                                },
                                "border": {
                                    "color": "",
                                    "radius": "",
                                    "style": "",
                                    "type": "",
                                    "width": ""
                                },
                                "class": "",
                                "container": {
                                    "class": ""
                                },
                                "elementStyleProperties": {
                                },
                                "inlineStyle": "",
                                "margin": [
                                ],
                                "padding": [
                                ],
                                "size": {
                                    "default": "4",
                                    "isResponsive": false
                                },
                                "sizeClass": "slds-size_4-of-12 ",
                                "style": "     : #ccc 1px solid; \n         ",
                                "text": {
                                    "align": "",
                                    "color": ""
                                }
                            },
                            "type": "text",
                            "userUpdatedElementLabel": true
                        },
                        {
                            "class": "slds-col ",
                            "element": "outputField",
                            "elementLabel": "Text-2",
                            "name": "Text",
                            "property": {
                                "card": "{card}",
                                "mergeField": "%3Cdiv%20class=%22slds-text-align_left%22%3EDate%20dernier%20Ev&egrave;nement:%20%7BLastDateEvt%7D%3C/div%3E%0A%3Cdiv%20class=%22slds-text-align_left%22%3EEtat%20dernier%20Ev&egrave;nement:&nbsp;%20%7BLastEvtState%7D%3Cspan%20style=%22font-family:%20Calibri;%20font-size:%2011pt;%20background-color:%20initial;%22%3E&nbsp;%3C/span%3E%3C/div%3E",
                                "record": "{record}"
                            },
                            "size": {
                                "default": "4",
                                "isResponsive": false
                            },
                            "stateIndex": 0,
                            "styleObject": {
                                "background": {
                                    "color": "",
                                    "image": "",
                                    "position": "",
                                    "repeat": "",
                                    "size": ""
                                },
                                "border": {
                                    "color": "",
                                    "radius": "",
                                    "style": "",
                                    "type": "",
                                    "width": ""
                                },
                                "class": "",
                                "container": {
                                    "class": ""
                                },
                                "elementStyleProperties": {
                                },
                                "inlineStyle": "",
                                "margin": [
                                ],
                                "padding": [
                                ],
                                "size": {
                                    "default": "4",
                                    "isResponsive": false
                                },
                                "sizeClass": "slds-size_4-of-12 ",
                                "style": "     : #ccc 1px solid; \n         ",
                                "text": {
                                    "align": "",
                                    "color": ""
                                }
                            },
                            "type": "text"
                        },
                        {
                            "class": "slds-col ",
                            "element": "outputField",
                            "elementLabel": "Text-3",
                            "name": "Text",
                            "property": {
                                "card": "{card}",
                                "mergeField": "%3Cdiv%20class=%22slds-text-align_right%22%3E%3Cspan%20style=%22font-family:%20'Salesforce%20Sans',%20Arial,%20sans-serif;%20font-size:%2011pt;%20background-color:%20initial;%22%3E%3Cspan%20class=%22slds-text-body_regular%22%20style=%22background-color:%20initial;%20font-size:%200.8125rem;%22%3EDate%20comptable:%20%7BAccountingDate%7D%20%3C/span%3E%3C/span%3E%3C/div%3E%0A%3Cdiv%20class=%22slds-text-align_right%22%3E%3Cspan%20style=%22font-family:%20'Salesforce%20Sans',%20Arial,%20sans-serif;%20font-size:%2011pt;%20background-color:%20initial;%22%3E%3Cspan%20class=%22slds-text-body_regular%22%20style=%22background-color:%20initial;%20font-size:%200.8125rem;%22%3ERestant%20&agrave;%20payer:%20%3Cspan%20style=%22color:%20#f1c40f;%22%3E%3Cstrong%3E%3Cspan%20style=%22color:%20#e67e23;%22%3E%7BRemainingToPay%7D%3C/span%3E&nbsp;%3C/strong%3E%3C/span%3E%3C/span%3E%3C/span%3E%3C/div%3E",
                                "record": "{record}"
                            },
                            "size": {
                                "default": "3",
                                "isResponsive": false
                            },
                            "stateIndex": 0,
                            "styleObject": {
                                "background": {
                                    "color": "",
                                    "image": "",
                                    "position": "",
                                    "repeat": "",
                                    "size": ""
                                },
                                "border": {
                                    "color": "",
                                    "radius": "",
                                    "style": "",
                                    "type": "",
                                    "width": ""
                                },
                                "class": "",
                                "container": {
                                    "class": ""
                                },
                                "elementStyleProperties": {
                                },
                                "inlineStyle": "",
                                "margin": [
                                ],
                                "padding": [
                                ],
                                "size": {
                                    "default": "3",
                                    "isResponsive": false
                                },
                                "sizeClass": "slds-size_3-of-12 ",
                                "style": "     : #ccc 1px solid; \n         ",
                                "text": {
                                    "align": "",
                                    "color": ""
                                }
                            },
                            "type": "text"
                        }
                    ]
                }
            },
            "conditions": {
                "group": [
                ],
                "id": "state-condition-object",
                "isParent": true
            },
            "definedActions": {
                "actions": [
                ]
            },
            "documents": [
            ],
            "fields": [
            ],
            "isSmartAction": false,
            "name": "Active",
            "omniscripts": [
            ],
            "smartAction": {
            },
            "styleObject": {
                "class": "slds-card slds-p-around_x-small slds-m-bottom_x-small",
                "container": {
                    "class": "slds-card"
                },
                "margin": [
                    {
                        "size": "none",
                        "type": "around"
                    }
                ],
                "padding": [
                    {
                        "size": "x-small",
                        "type": "around"
                    }
                ],
                "size": {
                    "default": "12",
                    "isResponsive": false
                },
                "sizeClass": "slds-size_12-of-12"
            }
        }
    ],
    "theme": "slds",
    "title": "vspStatementRecord"
}