{
    "%vlocity_namespace%__Active__c": true,
    "%vlocity_namespace%__OmniScriptId__c": {
        "Name": "IP03CreateClientContractOGIRatrappage",
        "VlocityDataPackType": "VlocityMatchingKeyObject",
        "VlocityMatchingRecordSourceKey": "%vlocity_namespace%__OmniScript__c/VSP/IP03CreateClientContractOGIRatrappage/Procedure",
        "VlocityRecordSObjectType": "%vlocity_namespace%__OmniScript__c"
    },
    "%vlocity_namespace%__PropertySet__c": {
        "additionalOutput": {
            "Cof_Ext_OGICustomerID": "%DRESelectInfoShopsIP03:Cof_OGI_code%",
            "ED_Ext_OGIDistributorID": "%DRESelectInfoShopsIP03:ED_OGI_code%",
            "EternalContributorCode": "%DRESelectInfoShopsIP03:EternalContributorCode%",
            "SalesChannel": "%DRESelectInfoShopsIP03:SalesChannel%",
            "code_message": "%RtActContratOGIIP03:response:code_message%",
            "contrat_mere": "%DRESelectInfoShopsIP03:contrat_mere%",
            "identifiant_procedure": "%RtActSignatureElectroniqueIP03:response:identifiant_procedure%",
            "libelle_long_erreur": "%RtActContratOGIIP03:response:clibelle_long_erreur%",
            "libelle_technique": "%RtActContratOGIIP03:response:libelle_technique%",
            "storeCodeNumber": "%DRESelectInfoShopsIP03:storeCodeNumber%",
            "storeName": "%DRESelectInfoShopsIP03:storeName%",
            "url_signature": "%RtActSignatureElectroniqueIP03:response:url_signature%"
        },
        "disOnTplt": false,
        "executionConditionalFormula": "",
        "label": "ResponseAction1",
        "responseDefaultData": {
        },
        "responseFormat": "JSON",
        "responseJSONNode": "",
        "responseJSONPath": "",
        "returnFullDataJSON": false,
        "returnOnlyAdditionalOutput": true,
        "sendJSONNode": "",
        "sendJSONPath": "",
        "show": null,
        "useFormulas": true,
        "vlcResponseHeaders": {
        }
    },
    "%vlocity_namespace%__ReusableOmniScript__c": false,
    "%vlocity_namespace%__Type__c": "Response Action",
    "Name": "ResponseActionIP03",
    "VlocityDataPackType": "SObject",
    "VlocityRecordSObjectType": "%vlocity_namespace%__Element__c",
    "VlocityRecordSourceKey": "%vlocity_namespace%__Element__c/%vlocity_namespace%__OmniScript__c/VSP/IP03CreateClientContractOGIRatrappage/Procedure/ResponseActionIP03"
}