{
    "%vlocity_namespace%__Active__c": false,
    "%vlocity_namespace%__OmniScriptId__c": {
        "Name": "IP03CreateClientContractOGIRatrappage",
        "VlocityDataPackType": "VlocityMatchingKeyObject",
        "VlocityMatchingRecordSourceKey": "%vlocity_namespace%__OmniScript__c/VSP/IP03CreateClientContractOGIRatrappage/Procedure",
        "VlocityRecordSObjectType": "%vlocity_namespace%__OmniScript__c"
    },
    "%vlocity_namespace%__PropertySet__c": {
        "actionMessage": "",
        "additionalChainableResponse": {
        },
        "additionalInput": {
            "apporteurs": "%DRTPrepareInputOGIIP03:apporteurs%",
            "contrat": "%DRTPrepareInputOGIIP03:contrat%",
            "detail_garanties_prime_annuelle": "%DRTPrepareInputOGIIP03:detail_garanties_prime_annuelle%",
            "detail_garanties_prime_periode": "%DRTPrepareInputOGIIP03:detail_garanties_prime_periode%",
            "garantie_produit": "%DRTPrepareInputOGIIP03:garantie_produit%",
            "general": "%DRTPrepareInputOGIIP03:general%"
        },
        "additionalOutput": {
        },
        "chainOnStep": false,
        "disOnTplt": false,
        "executionConditionalFormula": "",
        "failOnStepError": true,
        "failureConditionalFormula": "",
        "failureResponse": {
        },
        "label": "RemoteAction1",
        "remoteClass": "CallApexFromOmniScript_UTL",
        "remoteMethod": "CreerDevis",
        "remoteOptions": {
        },
        "responseJSONNode": "",
        "responseJSONPath": "",
        "returnOnlyAdditionalOutput": false,
        "returnOnlyFailureResponse": false,
        "sendJSONNode": "",
        "sendJSONPath": "",
        "sendOnlyAdditionalInput": true,
        "show": null,
        "useFormulas": true
    },
    "%vlocity_namespace%__ReusableOmniScript__c": false,
    "%vlocity_namespace%__Type__c": "Remote Action",
    "Name": "RtActContratOGIIP03",
    "VlocityDataPackType": "SObject",
    "VlocityRecordSObjectType": "%vlocity_namespace%__Element__c",
    "VlocityRecordSourceKey": "%vlocity_namespace%__Element__c/%vlocity_namespace%__OmniScript__c/VSP/IP03CreateClientContractOGIRatrappage/Procedure/RtActContratOGIIP03"
}