{
    "%vlocity_namespace%__CustomJavaScript__c": "VSP_IP03CreateClientContractOGIRatrappage_SampleInput.json",
    "%vlocity_namespace%__DisableMetadataCache__c": true,
    "%vlocity_namespace%__ElementTypeToHTMLTemplateList__c": "{\"ElementTypeToHTMLTemplateList\":[]}",
    "%vlocity_namespace%__Element__c": [
        "VSP_IP03CreateClientContractOGIRatrappage_Element_DRESelectInfoShopsIP03.json",
        "VSP_IP03CreateClientContractOGIRatrappage_Element_DRTPrepareInputOGIIP03.json",
        "VSP_IP03CreateClientContractOGIRatrappage_Element_RtActContratOGIIP03.json",
        "VSP_IP03CreateClientContractOGIRatrappage_Element_RtActSignatureElectroniqueIP03.json",
        "VSP_IP03CreateClientContractOGIRatrappage_Element_ResponseActionIP03.json"
    ],
    "%vlocity_namespace%__IsLwcEnabled__c": false,
    "%vlocity_namespace%__IsProcedure__c": true,
    "%vlocity_namespace%__IsReusable__c": false,
    "%vlocity_namespace%__IsTest__c": false,
    "%vlocity_namespace%__Language__c": "Procedure",
    "%vlocity_namespace%__OmniProcessType__c": "Integration Procedure",
    "%vlocity_namespace%__ProcedureKey__c": "VSP_IP03CreateClientContractOGIRatrappage",
    "%vlocity_namespace%__PropertySet__c": "VSP_IP03CreateClientContractOGIRatrappage_PropertySet.json",
    "%vlocity_namespace%__SubType__c": "IP03CreateClientContractOGIRatrappage",
    "%vlocity_namespace%__Type__c": "VSP",
    "Name": "IP03CreateClientContractOGIRatrappage",
    "VlocityDataPackType": "SObject",
    "VlocityRecordSObjectType": "%vlocity_namespace%__OmniScript__c",
    "VlocityRecordSourceKey": "%vlocity_namespace%__OmniScript__c/VSP/IP03CreateClientContractOGIRatrappage/Procedure"
}