[
    {
        "%vlocity_namespace%__DomainObjectAPIName__c": "Formula",
        "%vlocity_namespace%__DomainObjectCreationOrder__c": 0,
        "%vlocity_namespace%__DomainObjectFieldAPIName__c": "Formula",
        "%vlocity_namespace%__FormulaOrder__c": 1,
        "%vlocity_namespace%__FormulaResultPath__c": "currentdate",
        "%vlocity_namespace%__Formula__c": "TODAY()",
        "%vlocity_namespace%__IsDisabled__c": false,
        "%vlocity_namespace%__IsRequiredForUpsert__c": false,
        "%vlocity_namespace%__MapId__c": "insClaim_TransCreateFinancialTransaction_PostPaymentTransactionsIP28867977635518205",
        "%vlocity_namespace%__UpsertKey__c": false,
        "Name": "insClaim_TransCreateFinancialTransaction_PostPaymentTransactionsIP",
        "VlocityDataPackType": "SObject",
        "VlocityRecordSObjectType": "%vlocity_namespace%__DRMapItem__c"
    },
    {
        "%vlocity_namespace%__DomainObjectAPIName__c": "json",
        "%vlocity_namespace%__DomainObjectCreationOrder__c": 1,
        "%vlocity_namespace%__DomainObjectFieldAPIName__c": "claimLineItems:amount",
        "%vlocity_namespace%__InterfaceFieldAPIName__c": "claimLineItems:amount",
        "%vlocity_namespace%__IsDisabled__c": false,
        "%vlocity_namespace%__IsRequiredForUpsert__c": false,
        "%vlocity_namespace%__MapId__c": "insClaim_TransCreateFinancialTransaction_PostPaymentTransactionsIP025102782379699873",
        "%vlocity_namespace%__UpsertKey__c": false,
        "Name": "insClaim_TransCreateFinancialTransaction_PostPaymentTransactionsIP",
        "VlocityDataPackType": "SObject",
        "VlocityRecordSObjectType": "%vlocity_namespace%__DRMapItem__c"
    },
    {
        "%vlocity_namespace%__DomainObjectAPIName__c": "json",
        "%vlocity_namespace%__DomainObjectCreationOrder__c": 1,
        "%vlocity_namespace%__DomainObjectFieldAPIName__c": "claimLineItems:claimId",
        "%vlocity_namespace%__InterfaceFieldAPIName__c": "claimLineItems:claimId",
        "%vlocity_namespace%__IsDisabled__c": false,
        "%vlocity_namespace%__IsRequiredForUpsert__c": false,
        "%vlocity_namespace%__MapId__c": "insClaim_TransCreateFinancialTransaction_PostPaymentTransactionsIP713291285678807",
        "%vlocity_namespace%__UpsertKey__c": false,
        "Name": "insClaim_TransCreateFinancialTransaction_PostPaymentTransactionsIP",
        "VlocityDataPackType": "SObject",
        "VlocityRecordSObjectType": "%vlocity_namespace%__DRMapItem__c"
    },
    {
        "%vlocity_namespace%__DomainObjectAPIName__c": "json",
        "%vlocity_namespace%__DomainObjectCreationOrder__c": 1,
        "%vlocity_namespace%__DomainObjectFieldAPIName__c": "claimLineItems:lineItemId",
        "%vlocity_namespace%__InterfaceFieldAPIName__c": "claimLineItems:lineItemId",
        "%vlocity_namespace%__IsDisabled__c": false,
        "%vlocity_namespace%__IsRequiredForUpsert__c": false,
        "%vlocity_namespace%__MapId__c": "insClaim_TransCreateFinancialTransaction_PostPaymentTransactionsIP7860675425263506",
        "%vlocity_namespace%__UpsertKey__c": false,
        "Name": "insClaim_TransCreateFinancialTransaction_PostPaymentTransactionsIP",
        "VlocityDataPackType": "SObject",
        "VlocityRecordSObjectType": "%vlocity_namespace%__DRMapItem__c"
    },
    {
        "%vlocity_namespace%__DefaultValue__c": "Payment",
        "%vlocity_namespace%__DomainObjectAPIName__c": "json",
        "%vlocity_namespace%__DomainObjectCreationOrder__c": 1,
        "%vlocity_namespace%__DomainObjectFieldAPIName__c": "claimLineItems:name",
        "%vlocity_namespace%__IsDisabled__c": false,
        "%vlocity_namespace%__IsRequiredForUpsert__c": false,
        "%vlocity_namespace%__MapId__c": "insClaim_TransCreateFinancialTransaction_PostPaymentTransactionsIP17367218065320023",
        "%vlocity_namespace%__UpsertKey__c": false,
        "Name": "insClaim_TransCreateFinancialTransaction_PostPaymentTransactionsIP",
        "VlocityDataPackType": "SObject",
        "VlocityRecordSObjectType": "%vlocity_namespace%__DRMapItem__c"
    },
    {
        "%vlocity_namespace%__DomainObjectAPIName__c": "json",
        "%vlocity_namespace%__DomainObjectCreationOrder__c": 1,
        "%vlocity_namespace%__DomainObjectFieldAPIName__c": "claimLineItems:postDate",
        "%vlocity_namespace%__InterfaceFieldAPIName__c": "currentdate",
        "%vlocity_namespace%__IsDisabled__c": false,
        "%vlocity_namespace%__IsRequiredForUpsert__c": false,
        "%vlocity_namespace%__MapId__c": "insClaim_TransCreateFinancialTransaction_PostPaymentTransactionsIP8647875092580015",
        "%vlocity_namespace%__UpsertKey__c": false,
        "Name": "insClaim_TransCreateFinancialTransaction_PostPaymentTransactionsIP",
        "VlocityDataPackType": "SObject",
        "VlocityRecordSObjectType": "%vlocity_namespace%__DRMapItem__c"
    },
    {
        "%vlocity_namespace%__DomainObjectAPIName__c": "json",
        "%vlocity_namespace%__DomainObjectCreationOrder__c": 1,
        "%vlocity_namespace%__DomainObjectFieldAPIName__c": "claimLineItems:relatedItemId",
        "%vlocity_namespace%__InterfaceFieldAPIName__c": "claimLineItems:relatedItemId",
        "%vlocity_namespace%__IsDisabled__c": false,
        "%vlocity_namespace%__IsRequiredForUpsert__c": false,
        "%vlocity_namespace%__MapId__c": "insClaim_TransCreateFinancialTransaction_PostPaymentTransactionsIP497941613591798",
        "%vlocity_namespace%__UpsertKey__c": false,
        "Name": "insClaim_TransCreateFinancialTransaction_PostPaymentTransactionsIP",
        "VlocityDataPackType": "SObject",
        "VlocityRecordSObjectType": "%vlocity_namespace%__DRMapItem__c"
    },
    {
        "%vlocity_namespace%__DomainObjectAPIName__c": "json",
        "%vlocity_namespace%__DomainObjectCreationOrder__c": 1,
        "%vlocity_namespace%__DomainObjectFieldAPIName__c": "claimLineItems:transactionDate",
        "%vlocity_namespace%__InterfaceFieldAPIName__c": "currentdate",
        "%vlocity_namespace%__IsDisabled__c": false,
        "%vlocity_namespace%__IsRequiredForUpsert__c": false,
        "%vlocity_namespace%__MapId__c": "insClaim_TransCreateFinancialTransaction_PostPaymentTransactionsIP41548940924711864",
        "%vlocity_namespace%__UpsertKey__c": false,
        "Name": "insClaim_TransCreateFinancialTransaction_PostPaymentTransactionsIP",
        "VlocityDataPackType": "SObject",
        "VlocityRecordSObjectType": "%vlocity_namespace%__DRMapItem__c"
    },
    {
        "%vlocity_namespace%__DefaultValue__c": "Payment",
        "%vlocity_namespace%__DomainObjectAPIName__c": "json",
        "%vlocity_namespace%__DomainObjectCreationOrder__c": 1,
        "%vlocity_namespace%__DomainObjectFieldAPIName__c": "claimLineItems:type",
        "%vlocity_namespace%__IsDisabled__c": false,
        "%vlocity_namespace%__IsRequiredForUpsert__c": false,
        "%vlocity_namespace%__MapId__c": "insClaim_TransCreateFinancialTransaction_PostPaymentTransactionsIP29966475495493095",
        "%vlocity_namespace%__UpsertKey__c": false,
        "Name": "insClaim_TransCreateFinancialTransaction_PostPaymentTransactionsIP",
        "VlocityDataPackType": "SObject",
        "VlocityRecordSObjectType": "%vlocity_namespace%__DRMapItem__c"
    }
]