{
    "AccountCity": "jkjxkjkx",
    "AccountCountry": "France",
    "AccountFirstName": "Achraf",
    "AccountId": "0010E00001GU6obQAD",
    "AccountLastName": "LAMZABI",
    "AccountPostalCode": "99999",
    "AccountSalutation": "MME",
    "AccountStreet": "jxjxkjxkkxj",
    "AssetInsuredItemId": "a0H0E00000Aq5c9UAB",
    "AssetInsuredItemName": "Equipment",
    "AssetProductCode": "ED_ELECTROSUR",
    "AssetSerialNumber": "ED_ELECTROSUR-000004-2022-",
    "Case": [
        {
            "AccountId": "0010E00001GU6obQAD",
            "AssetId": "02i0E000007Lm3BQAS",
            "CaseNumber": "00001014",
            "ClaimantLink__c": "Enfant​",
            "Contact": {
                "FirstName": "Achraf",
                "Id": "0030E000016bInuQAE",
                "LastName": "LAMZABI",
                "attributes": {
                    "type": "Contact",
                    "url": "/services/data/v53.0/sobjects/Contact/0030E000016bInuQAE"
                }
            },
            "ContactId": "0030E000016bInuQAE",
            "DeviceBrand__c": "BEKO​",
            "DeviceFamily__c": "ELECTRO-MÉNAGER",
            "DeviceInvoiceDate__c": "2021-10-05",
            "DevicePurchasePos__c": "AMAZON​",
            "DeviceSubFamily__c": "Cuisson",
            "DeviceType__c": "cuisinière",
            "Id": "5000E00000HMwMwQAL",
            "IsRefurbishedDevice__c": false,
            "LossDate__c": "2021-10-07",
            "ManufacturerSWarrantyExpired__c": false,
            "ProductOffer__c": "ED foyer",
            "ReportedDate__c": "2021-10-07",
            "TypeOfResidency__c": "Principale"
        }
    ],
    "CaseID": "5000E00000HMwMwQAL",
    "ContextId": "5000E00000HMwMwQAL",
    "PolicyID": "02i0E000007Lm3BQAS",
    "StepInsuredIdentificationOS04": {
        "CheckboxSecondryResidencyOS04": false,
        "ChkboxPrincipalResidencyOS04": true,
        "EmailInsuredEmailOS04": "lamzabi.achraf@gmail.com",
        "NumberPostalCodeOS04": 92800,
        "PhoneInsuredPhoneNumberOS04": "336191091",
        "SelectClaimantLinkOS04": "Enfant​",
        "TxtCityOS04": "PUTEAUX",
        "TxtFirstNameOS04": "Achraf",
        "TxtLastNameOS04": "LAMZABI",
        "TxtStreetOS04": "aclamzabiass@ss.com"
    },
    "timeStamp": "2021-10-12T12:36:36.379Z",
    "userCurrencyCode": "EUR",
    "userId": "0050E00000AH6MtQAL",
    "userName": "test-9gujdustdvdv@example.com",
    "userProfile": "System Administrator",
    "userTimeZone": "120"
}