{
    "%vlocity_namespace%__Active__c": true,
    "%vlocity_namespace%__OmniScriptId__c": {
        "Name": "IP03CreateClientContractOGI",
        "VlocityDataPackType": "VlocityMatchingKeyObject",
        "VlocityMatchingRecordSourceKey": "%vlocity_namespace%__OmniScript__c/VSP/IP03CreateClientContractOGI/Procedure",
        "VlocityRecordSObjectType": "%vlocity_namespace%__OmniScript__c"
    },
    "%vlocity_namespace%__PropertySet__c": {
        "actionMessage": "",
        "additionalChainableResponse": {
        },
        "additionalInput": {
            "accountId": "%CreatedAccount%",
            "email": "%StepCustomerIdentificationOS02:BlckIdentityPersonOS02:EmailCustomerEmailOS02%",
            "iban": "%StepPaymentIBANOS02:TxtBankAccountNumberOS02%",
            "num contrat ogi": "%RtActContratOGIIP03:response:num_contrat%",
            "rum": "%RtActContratOGIIP03:response:rum%",
            "telephone": "%StepCustomerIdentificationOS02:BlckIdentityPersonOS02:PhoneCustomerPhoneNumberOS02%"
        },
        "additionalOutput": {
        },
        "chainOnStep": false,
        "disOnTplt": false,
        "executionConditionalFormula": "%StepCustomerIdentificationOS02:BlckIdentityPersonOS02:BlckPaymentMethod:SelectPaymentMethod% == 'IBAN' && %StepPaymentIBANOS02:CheckboxProcessPapierOS02% != true",
        "failOnStepError": true,
        "failureConditionalFormula": "",
        "failureResponse": {
        },
        "label": "RemoteAction2",
        "remoteClass": "CallApexFromOmniScript_UTL",
        "remoteMethod": "SignatureElectronique",
        "remoteOptions": {
        },
        "responseJSONNode": "",
        "responseJSONPath": "",
        "returnOnlyAdditionalOutput": false,
        "returnOnlyFailureResponse": false,
        "sendJSONNode": "",
        "sendJSONPath": "",
        "sendOnlyAdditionalInput": true,
        "show": null,
        "useFormulas": true
    },
    "%vlocity_namespace%__ReusableOmniScript__c": false,
    "%vlocity_namespace%__Type__c": "Remote Action",
    "Name": "RtActSignatureElectroniqueIP03",
    "VlocityDataPackType": "SObject",
    "VlocityRecordSObjectType": "%vlocity_namespace%__Element__c",
    "VlocityRecordSourceKey": "%vlocity_namespace%__Element__c/%vlocity_namespace%__OmniScript__c/VSP/IP03CreateClientContractOGI/Procedure/RtActSignatureElectroniqueIP03"
}