{
    "%vlocity_namespace%__Active__c": true,
    "%vlocity_namespace%__OmniScriptId__c": {
        "Name": "IP03CreateClaim",
        "VlocityDataPackType": "VlocityMatchingKeyObject",
        "VlocityMatchingRecordSourceKey": "%vlocity_namespace%__OmniScript__c/VSPCLM/IP03CreateClaim/Procedure",
        "VlocityRecordSObjectType": "%vlocity_namespace%__OmniScript__c"
    },
    "%vlocity_namespace%__PropertySet__c": {
        "actionMessage": "",
        "additionalInput": {
            "PartyId": "%%vlocity_namespace%__Party__c_1|1:Id%",
            "PartyRelationId": "%partyRelationTypeId%"
        },
        "additionalOutput": {
        },
        "bundle": "VSPDRTPrepareClaimInputs",
        "chainOnStep": false,
        "disOnTplt": false,
        "executionConditionalFormula": "",
        "failOnStepError": true,
        "failureConditionalFormula": "",
        "failureResponse": {
        },
        "ignoreCache": false,
        "label": "DataRaptorTransformAction1",
        "responseJSONNode": "claimJson",
        "responseJSONPath": "claimJson",
        "returnOnlyAdditionalOutput": false,
        "returnOnlyFailureResponse": false,
        "sendJSONNode": "",
        "sendJSONPath": "",
        "sendOnlyAdditionalInput": false,
        "show": null,
        "useFormulas": true
    },
    "%vlocity_namespace%__ReusableOmniScript__c": false,
    "%vlocity_namespace%__Type__c": "DataRaptor Transform Action",
    "Name": "DRTPrepareClaimInputs",
    "VlocityDataPackType": "SObject",
    "VlocityRecordSObjectType": "%vlocity_namespace%__Element__c",
    "VlocityRecordSourceKey": "%vlocity_namespace%__Element__c/%vlocity_namespace%__OmniScript__c/VSPCLM/IP03CreateClaim/Procedure/DRTPrepareClaimInputs"
}