{
    "%vlocity_namespace%__ApprovedBy__c": "",
    "%vlocity_namespace%__ApprovedOn__c": "",
    "%vlocity_namespace%__AttributeAssignment__c": "Electrosur-Casse-Mobile_AttributeAssignments.json",
    "%vlocity_namespace%__AttributeDefaultValues__c": {
        "ATT_COUT_SINISTRE_AN": 1500,
        "ATT_FormuleMobile": null,
        "ATT_NBR_SINISTRE_AN": 2
    },
    "%vlocity_namespace%__AttributeMetadata__c": {
        "records": [
            {
                "Code__c": "ATT_CAT_OFFER",
                "Name": "Offre",
                "displaySequence": 20,
                "id": "a0U1x000007zSiuEAE",
                "productAttributes": {
                    "records": [
                        {
                            "attributeId": "a0V1x000003Gy87EAC",
                            "cloneable": true,
                            "code": "ATT_FormuleMobile",
                            "dataType": "text",
                            "disabled": false,
                            "displaySequence": 0,
                            "filterable": true,
                            "hasRules": false,
                            "hidden": false,
                            "inputType": "text",
                            "isNotTranslatable": false,
                            "label": "FormuleMobile",
                            "multiselect": false,
                            "readonly": false,
                            "required": false,
                            "userValues": null,
                            "values": [
                                {
                                    "disabled": false,
                                    "readonly": false
                                }
                            ]
                        }
                    ],
                    "totalSize": 1
                }
            },
            {
                "Code__c": "ATT_CAT_LIMITE",
                "Name": "Limite",
                "displaySequence": 80,
                "id": "a0U1x000007zuriEAA",
                "productAttributes": {
                    "records": [
                        {
                            "attributeGroupType": "In-Network",
                            "attributeId": "a0V1x000003HkhvEAC",
                            "cloneable": true,
                            "code": "ATT_NBR_SINISTRE_AN",
                            "dataType": "number",
                            "disabled": false,
                            "displaySequence": 1,
                            "filterable": true,
                            "hasRules": false,
                            "hidden": false,
                            "inputType": "range",
                            "isNotTranslatable": false,
                            "label": "Nombre de sinistres par an",
                            "max": 2,
                            "min": 0,
                            "multiselect": false,
                            "readonly": false,
                            "required": false,
                            "step": -1,
                            "userValues": null,
                            "values": [
                                {
                                    "disabled": false,
                                    "readonly": false
                                }
                            ]
                        },
                        {
                            "attributeGroupType": "In-Network",
                            "attributeId": "a0V1x000003HkiUEAS",
                            "cloneable": true,
                            "code": "ATT_COUT_SINISTRE_AN",
                            "dataType": "currency",
                            "disabled": false,
                            "displaySequence": 2,
                            "filterable": true,
                            "hasRules": false,
                            "hidden": false,
                            "inputType": "dropdown",
                            "isNotTranslatable": false,
                            "label": "Coût sinistres par an",
                            "multiselect": false,
                            "readonly": false,
                            "required": false,
                            "userValues": null,
                            "values": [
                                {
                                    "disabled": false,
                                    "id": "0",
                                    "label": "1500",
                                    "readonly": false,
                                    "value": 1500
                                },
                                {
                                    "disabled": false,
                                    "id": "1",
                                    "label": "0",
                                    "readonly": false,
                                    "value": 0
                                }
                            ]
                        }
                    ],
                    "totalSize": 2
                }
            }
        ],
        "totalSize": 2
    },
    "%vlocity_namespace%__AttributeRules__c": "",
    "%vlocity_namespace%__Availability__c": "",
    "%vlocity_namespace%__CarrierId__c": "",
    "%vlocity_namespace%__ChangeDetectorImplementation__c": "",
    "%vlocity_namespace%__ClassId__c": "",
    "%vlocity_namespace%__CoverageCalculationFormula__c": "",
    "%vlocity_namespace%__DefaultImageId__c": "",
    "%vlocity_namespace%__EffectiveDate__c": "2021-03-01",
    "%vlocity_namespace%__EligibilityCriteriaComments__c": "",
    "%vlocity_namespace%__EligibilityCriteria__c": "",
    "%vlocity_namespace%__EndDate__c": "",
    "%vlocity_namespace%__EndOfLifeDate__c": "",
    "%vlocity_namespace%__EnrollmentStatus__c": "",
    "%vlocity_namespace%__FormularyId__c": "",
    "%vlocity_namespace%__FulfilmentStartDate__c": "2021-02-28T23:00:00.000Z",
    "%vlocity_namespace%__GlobalGroupKey__c": "17e13134-0b22-2d40-4301-dd2ea484f928",
    "%vlocity_namespace%__GlobalKey__c": "4765b160-baf6-7029-9043-0a95b58df31a",
    "%vlocity_namespace%__HasCustomAttributesProcess__c": false,
    "%vlocity_namespace%__HeaderData__c": "",
    "%vlocity_namespace%__HelpText__c": "",
    "%vlocity_namespace%__InstanceKeyFormula__c": "",
    "%vlocity_namespace%__IsConfigurable__c": true,
    "%vlocity_namespace%__IsLocationDependent__c": false,
    "%vlocity_namespace%__IsNotAssetizable__c": false,
    "%vlocity_namespace%__IsOrderable__c": true,
    "%vlocity_namespace%__IsRecommended__c": false,
    "%vlocity_namespace%__LastPublishDate__c": "",
    "%vlocity_namespace%__LastSimulationInput__c": "",
    "%vlocity_namespace%__LifecycleStatus__c": "",
    "%vlocity_namespace%__LineOfBusiness__c": "Property & Casualty",
    "%vlocity_namespace%__MarketSegment__c": "",
    "%vlocity_namespace%__ObjectTypeId__c": "",
    "%vlocity_namespace%__OverrideDefinition__c": "Electrosur-Casse-Mobile_OverrideDefinitions.json",
    "%vlocity_namespace%__ParentClassId__c": "",
    "%vlocity_namespace%__PricingFormula__c": "vspCMEDTarifMobile__montantHT",
    "%vlocity_namespace%__PricingSource__c": "",
    "%vlocity_namespace%__ProductChildItem__c": "Electrosur-Casse-Mobile_ProductChildItems.json",
    "%vlocity_namespace%__ProductSpecId__c": "",
    "%vlocity_namespace%__ProductTemplateId__c": "",
    "%vlocity_namespace%__ProductTemplateProductId__c": "",
    "%vlocity_namespace%__ProviderNetworkId__c": "",
    "%vlocity_namespace%__RateBandId__c": "",
    "%vlocity_namespace%__RatingCalcProcedureName__c": "vspCPEDMOBCalculTarifEtCom",
    "%vlocity_namespace%__RatingProcedureType__c": "Calculation Procedure",
    "%vlocity_namespace%__RecordTypeName__c": "Product",
    "%vlocity_namespace%__ReplacementProductId__c": "",
    "%vlocity_namespace%__ReserveProcessingMode__c": "CoverageReserve",
    "%vlocity_namespace%__Scope__c": "Order Item",
    "%vlocity_namespace%__SellingEndDate__c": "",
    "%vlocity_namespace%__SellingStartDate__c": "2021-02-28T23:00:00.000Z",
    "%vlocity_namespace%__SpecificationSubType__c": "",
    "%vlocity_namespace%__SpecificationType__c": "",
    "%vlocity_namespace%__StandardPremium__c": "",
    "%vlocity_namespace%__Status__c": "",
    "%vlocity_namespace%__SubType__c": "MultiProduct",
    "%vlocity_namespace%__Term__c": "Monthly",
    "%vlocity_namespace%__Tier__c": "",
    "%vlocity_namespace%__TimeToLive__c": "",
    "%vlocity_namespace%__TotalCoverageCalculationFormula__c": "",
    "%vlocity_namespace%__TotalInsuredFormula__c": "vspCMEDTarifMobile__montantHTAnnuel",
    "%vlocity_namespace%__TrackAsAgreement__c": false,
    "%vlocity_namespace%__Type__c": "Affinity",
    "%vlocity_namespace%__VersionEndDateTime__c": "",
    "%vlocity_namespace%__VersionLabel__c": "",
    "%vlocity_namespace%__VersionStartDateTime__c": "",
    "CanUseQuantitySchedule": false,
    "CanUseRevenueSchedule": false,
    "CarrierContract__c": "",
    "Description": "Cette assurance s'applique au mobile neuf ou reconditionné acheté chez Electro dépôt",
    "DisplayUrl": "",
    "ExternalDataSourceId": "",
    "ExternalId": "",
    "Family": "ElectroDepot",
    "IsActive": true,
    "IsArchived": false,
    "Name": "Electrosûr Casse Mobile",
    "NumberOfQuantityInstallments": "",
    "NumberOfRevenueInstallments": "",
    "PricebookEntry": "Electrosur-Casse-Mobile_PricebookEntries.json",
    "ProductCode": "ED_ELECTROSUR_MOB",
    "QuantityInstallmentPeriod": "",
    "QuantityScheduleType": "",
    "QuantityUnitOfMeasure": "",
    "RecordTypeId": {
        "DeveloperName": "Product",
        "SobjectType": "Product2",
        "VlocityDataPackType": "VlocityLookupMatchingKeyObject",
        "VlocityLookupRecordSourceKey": "RecordType/Product2/Product",
        "VlocityRecordSObjectType": "RecordType"
    },
    "RevenueInstallmentPeriod": "",
    "RevenueScheduleType": "",
    "StockKeepingUnit": "",
    "VlocityDataPackType": "SObject",
    "VlocityRecordSObjectType": "Product2",
    "VlocityRecordSourceKey": "Product2/4765b160-baf6-7029-9043-0a95b58df31a"
}