[
    {
        "%vlocity_namespace%__FloorPrice__c": "",
        "%vlocity_namespace%__OverageCharge__c": "",
        "%vlocity_namespace%__OverageUOM__c": "",
        "%vlocity_namespace%__RecurringPrice__c": "",
        "%vlocity_namespace%__RecurringUOM__c": "Monthly",
        "IsActive": true,
        "IsArchived": false,
        "Name": "Offre Mobile 4€ (mobile de 150-300€)",
        "Pricebook2.Name": "Standard Price Book",
        "Pricebook2Id": {
            "Name": "Standard Price Book",
            "VlocityDataPackType": "VlocityLookupMatchingKeyObject",
            "VlocityLookupRecordSourceKey": "Pricebook2/Standard Price Book",
            "VlocityRecordSObjectType": "Pricebook2"
        },
        "Product2.%vlocity_namespace%__GlobalKey__c": "6ccfe73f-374b-1459-74df-ea4dbdc0cae5",
        "Product2Id": {
            "%vlocity_namespace%__GlobalKey__c": "6ccfe73f-374b-1459-74df-ea4dbdc0cae5",
            "VlocityDataPackType": "VlocityMatchingKeyObject",
            "VlocityMatchingRecordSourceKey": "Product2/6ccfe73f-374b-1459-74df-ea4dbdc0cae5",
            "VlocityRecordSObjectType": "Product2"
        },
        "ProductCode": "ED_COV_CASSEVOLMOB4",
        "UnitPrice": 1,
        "UseStandardPrice": false,
        "VlocityDataPackType": "SObject",
        "VlocityRecordSObjectType": "PricebookEntry",
        "VlocityRecordSourceKey": "PricebookEntry/Pricebook2/Standard Price Book/Product2/6ccfe73f-374b-1459-74df-ea4dbdc0cae5"
    }
]