{
    "dataSource": {
        "contextVariables": [
        ],
        "orderBy": {
        },
        "type": null,
        "value": {
        }
    },
    "enableLwc": true,
    "isFlex": true,
    "isRepeatable": false,
    "lwc": {
        "DeveloperName": "cfVspChildTransactionStatements_2_VSP",
        "Id": "0Rb1x000000ACXHCA4",
        "ManageableState": "unmanaged",
        "MasterLabel": "cfVspChildTransactionStatements_2_VSP",
        "NamespacePrefix": "c"
    },
    "sessionVars": [
        {
            "name": "Transaction",
            "val": "{Parent.Transaction}"
        }
    ],
    "states": [
        {
            "actions": [
            ],
            "childCards": [
            ],
            "components": {
                "layer-0": {
                    "children": [
                        {
                            "class": "slds-col ",
                            "element": "outputField",
                            "elementLabel": "Text-0",
                            "name": "Text",
                            "property": {
                                "card": "{card}",
                                "mergeField": "%3Cdiv%3EQuittances%3C/div%3E",
                                "record": "{record}"
                            },
                            "size": {
                                "default": "12",
                                "isResponsive": false
                            },
                            "stateIndex": 0,
                            "styleObject": {
                                "sizeClass": "slds-size_12-of-12"
                            },
                            "type": "text"
                        },
                        {
                            "class": "slds-col ",
                            "element": "dataTable",
                            "elementLabel": "Datatable-1",
                            "name": "Datatable",
                            "property": {
                                "cellLevelEdit": true,
                                "columns": [
                                    {
                                        "fieldName": "Borderau",
                                        "label": "Borderau",
                                        "searchable": false,
                                        "sortable": true,
                                        "type": "text"
                                    },
                                    {
                                        "fieldName": "PrimeTtc",
                                        "label": "PrimeTtc",
                                        "searchable": false,
                                        "sortable": true,
                                        "type": "text"
                                    },
                                    {
                                        "fieldName": "PrimeHt",
                                        "label": "PrimeHt",
                                        "searchable": false,
                                        "sortable": true,
                                        "type": "text"
                                    },
                                    {
                                        "fieldName": "Date Au",
                                        "label": "Date Au",
                                        "searchable": false,
                                        "sortable": true,
                                        "type": "text"
                                    },
                                    {
                                        "fieldName": "DateDu",
                                        "label": "DateDu",
                                        "searchable": false,
                                        "sortable": true,
                                        "type": "text"
                                    }
                                ],
                                "groupOrder": "asc",
                                "issearchavailable": false,
                                "issortavailable": true,
                                "pagelimit": "5",
                                "records": "{records}"
                            },
                            "size": {
                                "default": "12",
                                "isResponsive": false
                            },
                            "stateIndex": 0,
                            "styleObject": {
                                "sizeClass": "slds-size_12-of-12"
                            },
                            "type": "element"
                        }
                    ]
                }
            },
            "conditions": {
                "group": [
                ],
                "id": "state-condition-object",
                "isParent": true
            },
            "definedActions": {
                "actions": [
                ]
            },
            "documents": [
            ],
            "fields": [
            ],
            "isSmartAction": false,
            "name": "Active",
            "omniscripts": [
            ],
            "smartAction": {
            },
            "styleObject": {
                "class": "slds-card slds-p-around_x-small slds-m-bottom_x-small",
                "container": {
                    "class": "slds-card"
                },
                "margin": [
                    {
                        "size": "none",
                        "type": "around"
                    }
                ],
                "padding": [
                    {
                        "size": "x-small",
                        "type": "around"
                    }
                ],
                "size": {
                    "default": "12",
                    "isResponsive": false
                },
                "sizeClass": "slds-size_12-of-12"
            }
        }
    ],
    "theme": "slds",
    "title": "vspChildTransactionStatements",
    "tracking": {
        "businessEvent": "",
        "customFields": [
            {
                "name": "Transaction",
                "val": "{Parent.Transaction}"
            }
        ]
    },
    "xmlObject": {
        "apiVersion": 48,
        "isExplicitImport": false,
        "isExposed": true,
        "masterLabel": "vspChildTransactionStatements",
        "runtimeNamespace": "%vlocity_namespace%",
        "targets": {
            "target": [
                "lightning__AppPage",
                "lightning__HomePage",
                "lightning__RecordPage"
            ]
        }
    }
}