[
    {
        "%vlocity_namespace%__DomainObjectAPIName__c": "Formula",
        "%vlocity_namespace%__DomainObjectCreationOrder__c": 0,
        "%vlocity_namespace%__DomainObjectFieldAPIName__c": "Formula",
        "%vlocity_namespace%__FormulaOrder__c": 1,
        "%vlocity_namespace%__FormulaResultPath__c": "taux_tca",
        "%vlocity_namespace%__Formula__c": "ROUND(StepCustomerIdentificationOS02:BlckOfferOS02:productConfig:records:taxAmount,2)*12",
        "%vlocity_namespace%__IsDisabled__c": false,
        "%vlocity_namespace%__IsRequiredForUpsert__c": false,
        "%vlocity_namespace%__MapId__c": "vspPrepareInputOGICustom6907",
        "%vlocity_namespace%__UpsertKey__c": false,
        "Name": "vspPrepareInputOGI",
        "VlocityDataPackType": "SObject",
        "VlocityRecordSObjectType": "%vlocity_namespace%__DRMapItem__c"
    },
    {
        "%vlocity_namespace%__DomainObjectAPIName__c": "Formula",
        "%vlocity_namespace%__DomainObjectCreationOrder__c": 0,
        "%vlocity_namespace%__DomainObjectFieldAPIName__c": "Formula",
        "%vlocity_namespace%__FormulaOrder__c": 10,
        "%vlocity_namespace%__FormulaResultPath__c": "date_anniversaire",
        "%vlocity_namespace%__Formula__c": "FORMATDATETIME(ADDDAY(ADDYEAR(effectiveDate,1),-1),\"ddMM\")",
        "%vlocity_namespace%__IsDisabled__c": false,
        "%vlocity_namespace%__IsRequiredForUpsert__c": false,
        "%vlocity_namespace%__MapId__c": "vspPrepareInputOGICustom954",
        "%vlocity_namespace%__UpsertKey__c": false,
        "Name": "vspPrepareInputOGI",
        "VlocityDataPackType": "SObject",
        "VlocityRecordSObjectType": "%vlocity_namespace%__DRMapItem__c"
    },
    {
        "%vlocity_namespace%__DomainObjectAPIName__c": "Formula",
        "%vlocity_namespace%__DomainObjectCreationOrder__c": 0,
        "%vlocity_namespace%__DomainObjectFieldAPIName__c": "Formula",
        "%vlocity_namespace%__FormulaOrder__c": 11,
        "%vlocity_namespace%__FormulaResultPath__c": "mnt_garantie_ttc_periode",
        "%vlocity_namespace%__Formula__c": "StepCustomerIdentificationOS02:BlckOfferOS02:productConfig:records:CalculatedPriceData:vspCMEDTarif__montantHT+ ROUND(quoteJson:taxesAndFees:calculatedAmount,2)",
        "%vlocity_namespace%__IsDisabled__c": false,
        "%vlocity_namespace%__IsRequiredForUpsert__c": false,
        "%vlocity_namespace%__MapId__c": "vspPrepareInputOGICustom5149",
        "%vlocity_namespace%__UpsertKey__c": false,
        "Name": "vspPrepareInputOGI",
        "VlocityDataPackType": "SObject",
        "VlocityRecordSObjectType": "%vlocity_namespace%__DRMapItem__c"
    },
    {
        "%vlocity_namespace%__DomainObjectAPIName__c": "Formula",
        "%vlocity_namespace%__DomainObjectCreationOrder__c": 0,
        "%vlocity_namespace%__DomainObjectFieldAPIName__c": "Formula",
        "%vlocity_namespace%__FormulaOrder__c": 12,
        "%vlocity_namespace%__FormulaResultPath__c": "taux_tca_periode",
        "%vlocity_namespace%__Formula__c": "ROUND(StepCustomerIdentificationOS02:BlckOfferOS02:productConfig:records:taxesAndFees:calculatedAmount,2)",
        "%vlocity_namespace%__IsDisabled__c": false,
        "%vlocity_namespace%__IsRequiredForUpsert__c": false,
        "%vlocity_namespace%__MapId__c": "vspPrepareInputOGICustom8148",
        "%vlocity_namespace%__UpsertKey__c": false,
        "Name": "vspPrepareInputOGI",
        "VlocityDataPackType": "SObject",
        "VlocityRecordSObjectType": "%vlocity_namespace%__DRMapItem__c"
    },
    {
        "%vlocity_namespace%__DomainObjectAPIName__c": "Formula",
        "%vlocity_namespace%__DomainObjectCreationOrder__c": 0,
        "%vlocity_namespace%__DomainObjectFieldAPIName__c": "Formula",
        "%vlocity_namespace%__FormulaOrder__c": 13,
        "%vlocity_namespace%__FormulaResultPath__c": "effectiveDate",
        "%vlocity_namespace%__Formula__c": "FORMATDATETIME(effectiveDate,\"YYYY-MM-dd\")",
        "%vlocity_namespace%__IsDisabled__c": false,
        "%vlocity_namespace%__IsRequiredForUpsert__c": false,
        "%vlocity_namespace%__MapId__c": "vspPrepareInputOGICustom8297",
        "%vlocity_namespace%__UpsertKey__c": false,
        "Name": "vspPrepareInputOGI",
        "VlocityDataPackType": "SObject",
        "VlocityRecordSObjectType": "%vlocity_namespace%__DRMapItem__c"
    },
    {
        "%vlocity_namespace%__DomainObjectAPIName__c": "Formula",
        "%vlocity_namespace%__DomainObjectCreationOrder__c": 0,
        "%vlocity_namespace%__DomainObjectFieldAPIName__c": "Formula",
        "%vlocity_namespace%__FormulaOrder__c": 14,
        "%vlocity_namespace%__FormulaResultPath__c": "dateDeNaissance",
        "%vlocity_namespace%__Formula__c": "FORMATDATETIME(StepCustomerIdentificationOS02:BlckIdentityPersonOS02:DateBirthDateOS02,\"YYYY-MM-dd\")",
        "%vlocity_namespace%__IsDisabled__c": false,
        "%vlocity_namespace%__IsRequiredForUpsert__c": false,
        "%vlocity_namespace%__MapId__c": "vspPrepareInputOGICustom4344",
        "%vlocity_namespace%__UpsertKey__c": false,
        "Name": "vspPrepareInputOGI",
        "VlocityDataPackType": "SObject",
        "VlocityRecordSObjectType": "%vlocity_namespace%__DRMapItem__c"
    },
    {
        "%vlocity_namespace%__DomainObjectAPIName__c": "Formula",
        "%vlocity_namespace%__DomainObjectCreationOrder__c": 0,
        "%vlocity_namespace%__DomainObjectFieldAPIName__c": "Formula",
        "%vlocity_namespace%__FormulaOrder__c": 15,
        "%vlocity_namespace%__FormulaResultPath__c": "MntCommissionAnnuel",
        "%vlocity_namespace%__Formula__c": "(StepCustomerIdentificationOS02:BlckOfferOS02:productConfig:records:CalculatedPriceData:vspCMEDTarif__commissionVSPAnnuel)+(StepCustomerIdentificationOS02:BlckOfferOS02:productConfig:records:CalculatedPriceData:vspCMEDTarif__commissionCofidisAnnuel)+(StepCustomerIdentificationOS02:BlckOfferOS02:productConfig:records:CalculatedPriceData:vspCMEDTarif__commissionEDAnnuel)",
        "%vlocity_namespace%__IsDisabled__c": false,
        "%vlocity_namespace%__IsRequiredForUpsert__c": false,
        "%vlocity_namespace%__MapId__c": "vspPrepareInputOGICustom8227",
        "%vlocity_namespace%__UpsertKey__c": false,
        "Name": "vspPrepareInputOGI",
        "VlocityDataPackType": "SObject",
        "VlocityRecordSObjectType": "%vlocity_namespace%__DRMapItem__c"
    },
    {
        "%vlocity_namespace%__DomainObjectAPIName__c": "Formula",
        "%vlocity_namespace%__DomainObjectCreationOrder__c": 0,
        "%vlocity_namespace%__DomainObjectFieldAPIName__c": "Formula",
        "%vlocity_namespace%__FormulaOrder__c": 16,
        "%vlocity_namespace%__FormulaResultPath__c": "MntCommissionPeriode",
        "%vlocity_namespace%__Formula__c": "(StepCustomerIdentificationOS02:BlckOfferOS02:productConfig:records:CalculatedPriceData:vspCMEDTarif__commissionVSP)+(StepCustomerIdentificationOS02:BlckOfferOS02:productConfig:records:CalculatedPriceData:vspCMEDTarif__commissionCofidis)+(StepCustomerIdentificationOS02:BlckOfferOS02:productConfig:records:CalculatedPriceData:vspCMEDTarif__commissionED)",
        "%vlocity_namespace%__IsDisabled__c": false,
        "%vlocity_namespace%__IsRequiredForUpsert__c": false,
        "%vlocity_namespace%__MapId__c": "vspPrepareInputOGICustom5026",
        "%vlocity_namespace%__UpsertKey__c": false,
        "Name": "vspPrepareInputOGI",
        "VlocityDataPackType": "SObject",
        "VlocityRecordSObjectType": "%vlocity_namespace%__DRMapItem__c"
    },
    {
        "%vlocity_namespace%__DomainObjectAPIName__c": "Formula",
        "%vlocity_namespace%__DomainObjectCreationOrder__c": 0,
        "%vlocity_namespace%__DomainObjectFieldAPIName__c": "Formula",
        "%vlocity_namespace%__FormulaOrder__c": 2,
        "%vlocity_namespace%__FormulaResultPath__c": "mnt_garantie_ttc",
        "%vlocity_namespace%__Formula__c": "ROUND(StepCustomerIdentificationOS02:BlckOfferOS02:productConfig:records:totalSumInsured+taux_tca,0)",
        "%vlocity_namespace%__IsDisabled__c": false,
        "%vlocity_namespace%__IsRequiredForUpsert__c": false,
        "%vlocity_namespace%__MapId__c": "vspPrepareInputOGICustom6823",
        "%vlocity_namespace%__UpsertKey__c": false,
        "Name": "vspPrepareInputOGI",
        "VlocityDataPackType": "SObject",
        "VlocityRecordSObjectType": "%vlocity_namespace%__DRMapItem__c"
    },
    {
        "%vlocity_namespace%__DomainObjectAPIName__c": "Formula",
        "%vlocity_namespace%__DomainObjectCreationOrder__c": 0,
        "%vlocity_namespace%__DomainObjectFieldAPIName__c": "Formula",
        "%vlocity_namespace%__FormulaOrder__c": 3,
        "%vlocity_namespace%__FormulaResultPath__c": "coverages",
        "%vlocity_namespace%__Formula__c": "StepCustomerIdentificationOS02:BlckOfferOS02:productConfig:records:childProducts:records",
        "%vlocity_namespace%__IsDisabled__c": false,
        "%vlocity_namespace%__IsRequiredForUpsert__c": false,
        "%vlocity_namespace%__MapId__c": "vspPrepareInputOGICustom5705",
        "%vlocity_namespace%__UpsertKey__c": false,
        "Name": "vspPrepareInputOGI",
        "VlocityDataPackType": "SObject",
        "VlocityRecordSObjectType": "%vlocity_namespace%__DRMapItem__c"
    },
    {
        "%vlocity_namespace%__DomainObjectAPIName__c": "Formula",
        "%vlocity_namespace%__DomainObjectCreationOrder__c": 0,
        "%vlocity_namespace%__DomainObjectFieldAPIName__c": "Formula",
        "%vlocity_namespace%__FormulaOrder__c": 4,
        "%vlocity_namespace%__FormulaResultPath__c": "SelectedCoverages",
        "%vlocity_namespace%__Formula__c": "FILTER(LIST(coverages),'isSelected==true')",
        "%vlocity_namespace%__IsDisabled__c": false,
        "%vlocity_namespace%__IsRequiredForUpsert__c": false,
        "%vlocity_namespace%__MapId__c": "vspPrepareInputOGICustom3137",
        "%vlocity_namespace%__UpsertKey__c": false,
        "Name": "vspPrepareInputOGI",
        "VlocityDataPackType": "SObject",
        "VlocityRecordSObjectType": "%vlocity_namespace%__DRMapItem__c"
    },
    {
        "%vlocity_namespace%__DomainObjectAPIName__c": "Formula",
        "%vlocity_namespace%__DomainObjectCreationOrder__c": 0,
        "%vlocity_namespace%__DomainObjectFieldAPIName__c": "Formula",
        "%vlocity_namespace%__FormulaOrder__c": 5,
        "%vlocity_namespace%__FormulaResultPath__c": "company",
        "%vlocity_namespace%__Formula__c": "QUERY(\"select %vlocity_namespace%__CarrierId__c from Product2 where id='{0}'\",SelectedCoverages|1:Id  )",
        "%vlocity_namespace%__IsDisabled__c": false,
        "%vlocity_namespace%__IsRequiredForUpsert__c": false,
        "%vlocity_namespace%__MapId__c": "vspPrepareInputOGICustom9397",
        "%vlocity_namespace%__UpsertKey__c": false,
        "Name": "vspPrepareInputOGI",
        "VlocityDataPackType": "SObject",
        "VlocityRecordSObjectType": "%vlocity_namespace%__DRMapItem__c"
    },
    {
        "%vlocity_namespace%__DomainObjectAPIName__c": "Formula",
        "%vlocity_namespace%__DomainObjectCreationOrder__c": 0,
        "%vlocity_namespace%__DomainObjectFieldAPIName__c": "Formula",
        "%vlocity_namespace%__FormulaOrder__c": 6,
        "%vlocity_namespace%__FormulaResultPath__c": "codeCompany",
        "%vlocity_namespace%__Formula__c": "QUERY(\"select Ext_OGICompanyCode__c from account where id='{0}'\",company)",
        "%vlocity_namespace%__IsDisabled__c": false,
        "%vlocity_namespace%__IsRequiredForUpsert__c": false,
        "%vlocity_namespace%__MapId__c": "vspPrepareInputOGICustom9012",
        "%vlocity_namespace%__UpsertKey__c": false,
        "Name": "vspPrepareInputOGI",
        "VlocityDataPackType": "SObject",
        "VlocityRecordSObjectType": "%vlocity_namespace%__DRMapItem__c"
    },
    {
        "%vlocity_namespace%__DomainObjectAPIName__c": "Formula",
        "%vlocity_namespace%__DomainObjectCreationOrder__c": 0,
        "%vlocity_namespace%__DomainObjectFieldAPIName__c": "Formula",
        "%vlocity_namespace%__FormulaOrder__c": 7,
        "%vlocity_namespace%__FormulaResultPath__c": "contratAssureur",
        "%vlocity_namespace%__Formula__c": "QUERY(\"select CarrierContract__c  from Product2 where id='{0}'\",SelectedCoverages|1:Id  )",
        "%vlocity_namespace%__IsDisabled__c": false,
        "%vlocity_namespace%__IsRequiredForUpsert__c": false,
        "%vlocity_namespace%__MapId__c": "vspPrepareInputOGICustom9295",
        "%vlocity_namespace%__UpsertKey__c": false,
        "Name": "vspPrepareInputOGI",
        "VlocityDataPackType": "SObject",
        "VlocityRecordSObjectType": "%vlocity_namespace%__DRMapItem__c"
    },
    {
        "%vlocity_namespace%__DomainObjectAPIName__c": "Formula",
        "%vlocity_namespace%__DomainObjectCreationOrder__c": 0,
        "%vlocity_namespace%__DomainObjectFieldAPIName__c": "Formula",
        "%vlocity_namespace%__FormulaOrder__c": 8,
        "%vlocity_namespace%__FormulaResultPath__c": "numConvenion",
        "%vlocity_namespace%__Formula__c": "QUERY(\"select PolicyCodeNumber__c from contract where id='{0}'\",contratAssureur  )",
        "%vlocity_namespace%__IsDisabled__c": false,
        "%vlocity_namespace%__IsRequiredForUpsert__c": false,
        "%vlocity_namespace%__MapId__c": "vspPrepareInputOGICustom367",
        "%vlocity_namespace%__UpsertKey__c": false,
        "Name": "vspPrepareInputOGI",
        "VlocityDataPackType": "SObject",
        "VlocityRecordSObjectType": "%vlocity_namespace%__DRMapItem__c"
    },
    {
        "%vlocity_namespace%__DomainObjectAPIName__c": "Formula",
        "%vlocity_namespace%__DomainObjectCreationOrder__c": 0,
        "%vlocity_namespace%__DomainObjectFieldAPIName__c": "Formula",
        "%vlocity_namespace%__FormulaOrder__c": 9,
        "%vlocity_namespace%__FormulaResultPath__c": "refConvention",
        "%vlocity_namespace%__Formula__c": "QUERY(\"select policyConvetionNumber__c from contract where id='{0}'\",contratAssureur  )",
        "%vlocity_namespace%__IsDisabled__c": false,
        "%vlocity_namespace%__IsRequiredForUpsert__c": false,
        "%vlocity_namespace%__MapId__c": "vspPrepareInputOGICustom8894",
        "%vlocity_namespace%__UpsertKey__c": false,
        "Name": "vspPrepareInputOGI",
        "VlocityDataPackType": "SObject",
        "VlocityRecordSObjectType": "%vlocity_namespace%__DRMapItem__c"
    },
    {
        "%vlocity_namespace%__DefaultValue__c": "\"\"",
        "%vlocity_namespace%__DomainObjectAPIName__c": "json",
        "%vlocity_namespace%__DomainObjectCreationOrder__c": 1,
        "%vlocity_namespace%__DomainObjectFieldAPIName__c": "apporteurs|1:date_fin_retro_commission",
        "%vlocity_namespace%__IsDisabled__c": false,
        "%vlocity_namespace%__IsRequiredForUpsert__c": false,
        "%vlocity_namespace%__MapId__c": "vspPrepareInputOGICustom100",
        "%vlocity_namespace%__UpsertKey__c": false,
        "Name": "vspPrepareInputOGI",
        "VlocityDataPackType": "SObject",
        "VlocityRecordSObjectType": "%vlocity_namespace%__DRMapItem__c"
    },
    {
        "%vlocity_namespace%__DefaultValue__c": "\"\"",
        "%vlocity_namespace%__DomainObjectAPIName__c": "json",
        "%vlocity_namespace%__DomainObjectCreationOrder__c": 1,
        "%vlocity_namespace%__DomainObjectFieldAPIName__c": "apporteurs|1:mnt_commission",
        "%vlocity_namespace%__InterfaceFieldAPIName__c": "StepCustomerIdentificationOS02:BlckOfferOS02:productConfig:records:CalculatedPriceData:vspCMEDTarif__commissionED",
        "%vlocity_namespace%__IsDisabled__c": false,
        "%vlocity_namespace%__IsRequiredForUpsert__c": false,
        "%vlocity_namespace%__MapId__c": "vspPrepareInputOGICustom3425",
        "%vlocity_namespace%__UpsertKey__c": false,
        "Name": "vspPrepareInputOGI",
        "VlocityDataPackType": "SObject",
        "VlocityRecordSObjectType": "%vlocity_namespace%__DRMapItem__c"
    },
    {
        "%vlocity_namespace%__DefaultValue__c": "F",
        "%vlocity_namespace%__DomainObjectAPIName__c": "json",
        "%vlocity_namespace%__DomainObjectCreationOrder__c": 1,
        "%vlocity_namespace%__DomainObjectFieldAPIName__c": "apporteurs|1:mode_calcul_commission",
        "%vlocity_namespace%__IsDisabled__c": false,
        "%vlocity_namespace%__IsRequiredForUpsert__c": false,
        "%vlocity_namespace%__MapId__c": "vspPrepareInputOGICustom4960",
        "%vlocity_namespace%__UpsertKey__c": false,
        "Name": "vspPrepareInputOGI",
        "VlocityDataPackType": "SObject",
        "VlocityRecordSObjectType": "%vlocity_namespace%__DRMapItem__c"
    },
    {
        "%vlocity_namespace%__DefaultValue__c": "\"\"",
        "%vlocity_namespace%__DomainObjectAPIName__c": "json",
        "%vlocity_namespace%__DomainObjectCreationOrder__c": 1,
        "%vlocity_namespace%__DomainObjectFieldAPIName__c": "apporteurs|1:num_apporteur_verspieren",
        "%vlocity_namespace%__InterfaceFieldAPIName__c": "DRESelectInfoShopsIP03:ED_OGI_code",
        "%vlocity_namespace%__IsDisabled__c": false,
        "%vlocity_namespace%__IsRequiredForUpsert__c": false,
        "%vlocity_namespace%__MapId__c": "vspPrepareInputOGICustom8261",
        "%vlocity_namespace%__UpsertKey__c": false,
        "Name": "vspPrepareInputOGI",
        "VlocityDataPackType": "SObject",
        "VlocityRecordSObjectType": "%vlocity_namespace%__DRMapItem__c"
    },
    {
        "%vlocity_namespace%__DefaultValue__c": "0",
        "%vlocity_namespace%__DomainObjectAPIName__c": "json",
        "%vlocity_namespace%__DomainObjectCreationOrder__c": 1,
        "%vlocity_namespace%__DomainObjectFieldAPIName__c": "apporteurs|1:taux_commission_apporteur",
        "%vlocity_namespace%__IsDisabled__c": false,
        "%vlocity_namespace%__IsRequiredForUpsert__c": false,
        "%vlocity_namespace%__MapId__c": "vspPrepareInputOGICustom5553",
        "%vlocity_namespace%__UpsertKey__c": false,
        "Name": "vspPrepareInputOGI",
        "VlocityDataPackType": "SObject",
        "VlocityRecordSObjectType": "%vlocity_namespace%__DRMapItem__c"
    },
    {
        "%vlocity_namespace%__DefaultValue__c": "\"\"",
        "%vlocity_namespace%__DomainObjectAPIName__c": "json",
        "%vlocity_namespace%__DomainObjectCreationOrder__c": 1,
        "%vlocity_namespace%__DomainObjectFieldAPIName__c": "apporteurs|2:date_fin_retro_commission",
        "%vlocity_namespace%__IsDisabled__c": false,
        "%vlocity_namespace%__IsRequiredForUpsert__c": false,
        "%vlocity_namespace%__MapId__c": "vspPrepareInputOGICustom3731",
        "%vlocity_namespace%__UpsertKey__c": false,
        "Name": "vspPrepareInputOGI",
        "VlocityDataPackType": "SObject",
        "VlocityRecordSObjectType": "%vlocity_namespace%__DRMapItem__c"
    },
    {
        "%vlocity_namespace%__DefaultValue__c": "\"\"",
        "%vlocity_namespace%__DomainObjectAPIName__c": "json",
        "%vlocity_namespace%__DomainObjectCreationOrder__c": 1,
        "%vlocity_namespace%__DomainObjectFieldAPIName__c": "apporteurs|2:mnt_commission",
        "%vlocity_namespace%__InterfaceFieldAPIName__c": "StepCustomerIdentificationOS02:BlckOfferOS02:productConfig:records:CalculatedPriceData:vspCMEDTarif__commissionCofidis",
        "%vlocity_namespace%__IsDisabled__c": false,
        "%vlocity_namespace%__IsRequiredForUpsert__c": false,
        "%vlocity_namespace%__MapId__c": "vspPrepareInputOGICustom2488",
        "%vlocity_namespace%__UpsertKey__c": false,
        "Name": "vspPrepareInputOGI",
        "VlocityDataPackType": "SObject",
        "VlocityRecordSObjectType": "%vlocity_namespace%__DRMapItem__c"
    },
    {
        "%vlocity_namespace%__DefaultValue__c": "F",
        "%vlocity_namespace%__DomainObjectAPIName__c": "json",
        "%vlocity_namespace%__DomainObjectCreationOrder__c": 1,
        "%vlocity_namespace%__DomainObjectFieldAPIName__c": "apporteurs|2:mode_calcul_commission",
        "%vlocity_namespace%__IsDisabled__c": false,
        "%vlocity_namespace%__IsRequiredForUpsert__c": false,
        "%vlocity_namespace%__MapId__c": "vspPrepareInputOGICustom8945",
        "%vlocity_namespace%__UpsertKey__c": false,
        "Name": "vspPrepareInputOGI",
        "VlocityDataPackType": "SObject",
        "VlocityRecordSObjectType": "%vlocity_namespace%__DRMapItem__c"
    },
    {
        "%vlocity_namespace%__DefaultValue__c": "\"\"",
        "%vlocity_namespace%__DomainObjectAPIName__c": "json",
        "%vlocity_namespace%__DomainObjectCreationOrder__c": 1,
        "%vlocity_namespace%__DomainObjectFieldAPIName__c": "apporteurs|2:num_apporteur_verspieren",
        "%vlocity_namespace%__InterfaceFieldAPIName__c": "DRESelectInfoShopsIP03:Cof_OGI_code",
        "%vlocity_namespace%__IsDisabled__c": false,
        "%vlocity_namespace%__IsRequiredForUpsert__c": false,
        "%vlocity_namespace%__MapId__c": "vspPrepareInputOGICustom9101",
        "%vlocity_namespace%__UpsertKey__c": false,
        "Name": "vspPrepareInputOGI",
        "VlocityDataPackType": "SObject",
        "VlocityRecordSObjectType": "%vlocity_namespace%__DRMapItem__c"
    },
    {
        "%vlocity_namespace%__DefaultValue__c": "0",
        "%vlocity_namespace%__DomainObjectAPIName__c": "json",
        "%vlocity_namespace%__DomainObjectCreationOrder__c": 1,
        "%vlocity_namespace%__DomainObjectFieldAPIName__c": "apporteurs|2:taux_commission_apporteur",
        "%vlocity_namespace%__IsDisabled__c": false,
        "%vlocity_namespace%__IsRequiredForUpsert__c": false,
        "%vlocity_namespace%__MapId__c": "vspPrepareInputOGICustom2199",
        "%vlocity_namespace%__UpsertKey__c": false,
        "Name": "vspPrepareInputOGI",
        "VlocityDataPackType": "SObject",
        "VlocityRecordSObjectType": "%vlocity_namespace%__DRMapItem__c"
    },
    {
        "%vlocity_namespace%__DefaultValue__c": "\"\"",
        "%vlocity_namespace%__DomainObjectAPIName__c": "json",
        "%vlocity_namespace%__DomainObjectCreationOrder__c": 1,
        "%vlocity_namespace%__DomainObjectFieldAPIName__c": "contrat:code_fractionnement",
        "%vlocity_namespace%__InterfaceFieldAPIName__c": "billingFrequency",
        "%vlocity_namespace%__IsDisabled__c": false,
        "%vlocity_namespace%__IsRequiredForUpsert__c": false,
        "%vlocity_namespace%__MapId__c": "vspPrepareInputOGICustom1704",
        "%vlocity_namespace%__TransformValuesMap__c": "{\"Monthly\":\"4\",\"Annually\":\"1\"}",
        "%vlocity_namespace%__UpsertKey__c": false,
        "Name": "vspPrepareInputOGI",
        "VlocityDataPackType": "SObject",
        "VlocityRecordSObjectType": "%vlocity_namespace%__DRMapItem__c"
    },
    {
        "%vlocity_namespace%__DefaultValue__c": "\"\"",
        "%vlocity_namespace%__DomainObjectAPIName__c": "json",
        "%vlocity_namespace%__DomainObjectCreationOrder__c": 1,
        "%vlocity_namespace%__DomainObjectFieldAPIName__c": "contrat:date_anniversaire_jjmm",
        "%vlocity_namespace%__InterfaceFieldAPIName__c": "date_anniversaire",
        "%vlocity_namespace%__IsDisabled__c": false,
        "%vlocity_namespace%__IsRequiredForUpsert__c": false,
        "%vlocity_namespace%__MapId__c": "vspPrepareInputOGICustom8125",
        "%vlocity_namespace%__UpsertKey__c": false,
        "Name": "vspPrepareInputOGI",
        "VlocityDataPackType": "SObject",
        "VlocityRecordSObjectType": "%vlocity_namespace%__DRMapItem__c"
    },
    {
        "%vlocity_namespace%__DefaultValue__c": "\"\"",
        "%vlocity_namespace%__DomainObjectAPIName__c": "json",
        "%vlocity_namespace%__DomainObjectCreationOrder__c": 1,
        "%vlocity_namespace%__DomainObjectFieldAPIName__c": "contrat:date_effet",
        "%vlocity_namespace%__InterfaceFieldAPIName__c": "effectiveDate",
        "%vlocity_namespace%__IsDisabled__c": false,
        "%vlocity_namespace%__IsRequiredForUpsert__c": false,
        "%vlocity_namespace%__MapId__c": "vspPrepareInputOGICustom7408",
        "%vlocity_namespace%__UpsertKey__c": false,
        "Name": "vspPrepareInputOGI",
        "VlocityDataPackType": "SObject",
        "VlocityRecordSObjectType": "%vlocity_namespace%__DRMapItem__c"
    },
    {
        "%vlocity_namespace%__DefaultValue__c": "\"\"",
        "%vlocity_namespace%__DomainObjectAPIName__c": "json",
        "%vlocity_namespace%__DomainObjectCreationOrder__c": 1,
        "%vlocity_namespace%__DomainObjectFieldAPIName__c": "contrat:date_fin_contrat",
        "%vlocity_namespace%__IsDisabled__c": false,
        "%vlocity_namespace%__IsRequiredForUpsert__c": false,
        "%vlocity_namespace%__MapId__c": "vspPrepareInputOGICustom9705",
        "%vlocity_namespace%__UpsertKey__c": false,
        "Name": "vspPrepareInputOGI",
        "VlocityDataPackType": "SObject",
        "VlocityRecordSObjectType": "%vlocity_namespace%__DRMapItem__c"
    },
    {
        "%vlocity_namespace%__DefaultValue__c": "\"\"",
        "%vlocity_namespace%__DomainObjectAPIName__c": "json",
        "%vlocity_namespace%__DomainObjectCreationOrder__c": 1,
        "%vlocity_namespace%__DomainObjectFieldAPIName__c": "contrat:id_contrat_adherent",
        "%vlocity_namespace%__IsDisabled__c": false,
        "%vlocity_namespace%__IsRequiredForUpsert__c": false,
        "%vlocity_namespace%__MapId__c": "vspPrepareInputOGICustom6156",
        "%vlocity_namespace%__UpsertKey__c": false,
        "Name": "vspPrepareInputOGI",
        "VlocityDataPackType": "SObject",
        "VlocityRecordSObjectType": "%vlocity_namespace%__DRMapItem__c"
    },
    {
        "%vlocity_namespace%__DefaultValue__c": "\"\"",
        "%vlocity_namespace%__DomainObjectAPIName__c": "json",
        "%vlocity_namespace%__DomainObjectCreationOrder__c": 1,
        "%vlocity_namespace%__DomainObjectFieldAPIName__c": "detail_garanties_prime_annuelle|1:code_compagnie_verspieren",
        "%vlocity_namespace%__InterfaceFieldAPIName__c": "codeCompany",
        "%vlocity_namespace%__IsDisabled__c": false,
        "%vlocity_namespace%__IsRequiredForUpsert__c": false,
        "%vlocity_namespace%__MapId__c": "vspPrepareInputOGICustom5388",
        "%vlocity_namespace%__UpsertKey__c": false,
        "Name": "vspPrepareInputOGI",
        "VlocityDataPackType": "SObject",
        "VlocityRecordSObjectType": "%vlocity_namespace%__DRMapItem__c"
    },
    {
        "%vlocity_namespace%__DefaultValue__c": "PANNE",
        "%vlocity_namespace%__DomainObjectAPIName__c": "json",
        "%vlocity_namespace%__DomainObjectCreationOrder__c": 1,
        "%vlocity_namespace%__DomainObjectFieldAPIName__c": "detail_garanties_prime_annuelle|1:code_garantie",
        "%vlocity_namespace%__IsDisabled__c": false,
        "%vlocity_namespace%__IsRequiredForUpsert__c": false,
        "%vlocity_namespace%__MapId__c": "vspPrepareInputOGICustom6961",
        "%vlocity_namespace%__UpsertKey__c": false,
        "Name": "vspPrepareInputOGI",
        "VlocityDataPackType": "SObject",
        "VlocityRecordSObjectType": "%vlocity_namespace%__DRMapItem__c"
    },
    {
        "%vlocity_namespace%__DomainObjectAPIName__c": "json",
        "%vlocity_namespace%__DomainObjectCreationOrder__c": 1,
        "%vlocity_namespace%__DomainObjectFieldAPIName__c": "detail_garanties_prime_annuelle|1:mnt_commission",
        "%vlocity_namespace%__InterfaceFieldAPIName__c": "MntCommissionAnnuel",
        "%vlocity_namespace%__IsDisabled__c": false,
        "%vlocity_namespace%__IsRequiredForUpsert__c": false,
        "%vlocity_namespace%__MapId__c": "vspPrepareInputOGICustom318",
        "%vlocity_namespace%__UpsertKey__c": false,
        "Name": "vspPrepareInputOGI",
        "VlocityDataPackType": "SObject",
        "VlocityRecordSObjectType": "%vlocity_namespace%__DRMapItem__c"
    },
    {
        "%vlocity_namespace%__DomainObjectAPIName__c": "json",
        "%vlocity_namespace%__DomainObjectCreationOrder__c": 1,
        "%vlocity_namespace%__DomainObjectFieldAPIName__c": "detail_garanties_prime_annuelle|1:mnt_commission",
        "%vlocity_namespace%__InterfaceFieldAPIName__c": "StepCustomerIdentificationOS02:BlckOfferOS02:productConfig:records:CalculatedPriceData:vspCMEDTarif__commissionVSPAnnuel",
        "%vlocity_namespace%__IsDisabled__c": true,
        "%vlocity_namespace%__IsRequiredForUpsert__c": false,
        "%vlocity_namespace%__MapId__c": "vspPrepareInputOGICustom4532",
        "%vlocity_namespace%__UpsertKey__c": false,
        "Name": "vspPrepareInputOGI",
        "VlocityDataPackType": "SObject",
        "VlocityRecordSObjectType": "%vlocity_namespace%__DRMapItem__c"
    },
    {
        "%vlocity_namespace%__DomainObjectAPIName__c": "json",
        "%vlocity_namespace%__DomainObjectCreationOrder__c": 1,
        "%vlocity_namespace%__DomainObjectFieldAPIName__c": "detail_garanties_prime_annuelle|1:mnt_commission_company",
        "%vlocity_namespace%__InterfaceFieldAPIName__c": "mnt_commission_assureur",
        "%vlocity_namespace%__IsDisabled__c": true,
        "%vlocity_namespace%__IsRequiredForUpsert__c": false,
        "%vlocity_namespace%__MapId__c": "vspPrepareInputOGICustom3102",
        "%vlocity_namespace%__UpsertKey__c": false,
        "Name": "vspPrepareInputOGI",
        "VlocityDataPackType": "SObject",
        "VlocityRecordSObjectType": "%vlocity_namespace%__DRMapItem__c"
    },
    {
        "%vlocity_namespace%__DefaultValue__c": "\"\"",
        "%vlocity_namespace%__DomainObjectAPIName__c": "json",
        "%vlocity_namespace%__DomainObjectCreationOrder__c": 1,
        "%vlocity_namespace%__DomainObjectFieldAPIName__c": "detail_garanties_prime_annuelle|1:mnt_garantie_ht",
        "%vlocity_namespace%__InterfaceFieldAPIName__c": "StepCustomerIdentificationOS02:BlckOfferOS02:productConfig:records:totalSumInsured",
        "%vlocity_namespace%__IsDisabled__c": false,
        "%vlocity_namespace%__IsRequiredForUpsert__c": false,
        "%vlocity_namespace%__MapId__c": "vspPrepareInputOGICustom592",
        "%vlocity_namespace%__UpsertKey__c": false,
        "Name": "vspPrepareInputOGI",
        "VlocityDataPackType": "SObject",
        "VlocityRecordSObjectType": "%vlocity_namespace%__DRMapItem__c"
    },
    {
        "%vlocity_namespace%__DefaultValue__c": "\"\"",
        "%vlocity_namespace%__DomainObjectAPIName__c": "json",
        "%vlocity_namespace%__DomainObjectCreationOrder__c": 1,
        "%vlocity_namespace%__DomainObjectFieldAPIName__c": "detail_garanties_prime_annuelle|1:mnt_garantie_ttc",
        "%vlocity_namespace%__InterfaceFieldAPIName__c": "mnt_garantie_ttc",
        "%vlocity_namespace%__IsDisabled__c": false,
        "%vlocity_namespace%__IsRequiredForUpsert__c": false,
        "%vlocity_namespace%__MapId__c": "vspPrepareInputOGICustom3359",
        "%vlocity_namespace%__UpsertKey__c": false,
        "Name": "vspPrepareInputOGI",
        "VlocityDataPackType": "SObject",
        "VlocityRecordSObjectType": "%vlocity_namespace%__DRMapItem__c"
    },
    {
        "%vlocity_namespace%__DefaultValue__c": "\"\"",
        "%vlocity_namespace%__DomainObjectAPIName__c": "json",
        "%vlocity_namespace%__DomainObjectCreationOrder__c": 1,
        "%vlocity_namespace%__DomainObjectFieldAPIName__c": "detail_garanties_prime_annuelle|1:num_convention",
        "%vlocity_namespace%__InterfaceFieldAPIName__c": "numConvenion",
        "%vlocity_namespace%__IsDisabled__c": false,
        "%vlocity_namespace%__IsRequiredForUpsert__c": false,
        "%vlocity_namespace%__MapId__c": "vspPrepareInputOGICustom2816",
        "%vlocity_namespace%__UpsertKey__c": false,
        "Name": "vspPrepareInputOGI",
        "VlocityDataPackType": "SObject",
        "VlocityRecordSObjectType": "%vlocity_namespace%__DRMapItem__c"
    },
    {
        "%vlocity_namespace%__DefaultValue__c": "\"\"",
        "%vlocity_namespace%__DomainObjectAPIName__c": "json",
        "%vlocity_namespace%__DomainObjectCreationOrder__c": 1,
        "%vlocity_namespace%__DomainObjectFieldAPIName__c": "detail_garanties_prime_annuelle|1:ref_convention",
        "%vlocity_namespace%__InterfaceFieldAPIName__c": "refConvention",
        "%vlocity_namespace%__IsDisabled__c": false,
        "%vlocity_namespace%__IsRequiredForUpsert__c": false,
        "%vlocity_namespace%__MapId__c": "vspPrepareInputOGICustom4621",
        "%vlocity_namespace%__UpsertKey__c": false,
        "Name": "vspPrepareInputOGI",
        "VlocityDataPackType": "SObject",
        "VlocityRecordSObjectType": "%vlocity_namespace%__DRMapItem__c"
    },
    {
        "%vlocity_namespace%__DefaultValue__c": "\"\"",
        "%vlocity_namespace%__DomainObjectAPIName__c": "json",
        "%vlocity_namespace%__DomainObjectCreationOrder__c": 1,
        "%vlocity_namespace%__DomainObjectFieldAPIName__c": "detail_garanties_prime_annuelle|1:taux_taxe",
        "%vlocity_namespace%__InterfaceFieldAPIName__c": "StepCustomerIdentificationOS02:BlckOfferOS02:productConfig:records:taxesAndFees:Percent__c",
        "%vlocity_namespace%__IsDisabled__c": false,
        "%vlocity_namespace%__IsRequiredForUpsert__c": false,
        "%vlocity_namespace%__MapId__c": "vspPrepareInputOGICustom9390",
        "%vlocity_namespace%__UpsertKey__c": false,
        "Name": "vspPrepareInputOGI",
        "VlocityDataPackType": "SObject",
        "VlocityRecordSObjectType": "%vlocity_namespace%__DRMapItem__c"
    },
    {
        "%vlocity_namespace%__DomainObjectAPIName__c": "json",
        "%vlocity_namespace%__DomainObjectCreationOrder__c": 1,
        "%vlocity_namespace%__DomainObjectFieldAPIName__c": "detail_garanties_prime_periode|1:code_compagnie_verspieren",
        "%vlocity_namespace%__InterfaceFieldAPIName__c": "codeCompany",
        "%vlocity_namespace%__IsDisabled__c": false,
        "%vlocity_namespace%__IsRequiredForUpsert__c": false,
        "%vlocity_namespace%__MapId__c": "vspPrepareInputOGICustom1618",
        "%vlocity_namespace%__UpsertKey__c": false,
        "Name": "vspPrepareInputOGI",
        "VlocityDataPackType": "SObject",
        "VlocityRecordSObjectType": "%vlocity_namespace%__DRMapItem__c"
    },
    {
        "%vlocity_namespace%__DefaultValue__c": "PANNE",
        "%vlocity_namespace%__DomainObjectAPIName__c": "json",
        "%vlocity_namespace%__DomainObjectCreationOrder__c": 1,
        "%vlocity_namespace%__DomainObjectFieldAPIName__c": "detail_garanties_prime_periode|1:code_garantie",
        "%vlocity_namespace%__IsDisabled__c": false,
        "%vlocity_namespace%__IsRequiredForUpsert__c": false,
        "%vlocity_namespace%__MapId__c": "vspPrepareInputOGICustom8474",
        "%vlocity_namespace%__UpsertKey__c": false,
        "Name": "vspPrepareInputOGI",
        "VlocityDataPackType": "SObject",
        "VlocityRecordSObjectType": "%vlocity_namespace%__DRMapItem__c"
    },
    {
        "%vlocity_namespace%__DomainObjectAPIName__c": "json",
        "%vlocity_namespace%__DomainObjectCreationOrder__c": 1,
        "%vlocity_namespace%__DomainObjectFieldAPIName__c": "detail_garanties_prime_periode|1:mnt_commission",
        "%vlocity_namespace%__InterfaceFieldAPIName__c": "MntCommissionPeriode",
        "%vlocity_namespace%__IsDisabled__c": false,
        "%vlocity_namespace%__IsRequiredForUpsert__c": false,
        "%vlocity_namespace%__MapId__c": "vspPrepareInputOGICustom6504",
        "%vlocity_namespace%__UpsertKey__c": false,
        "Name": "vspPrepareInputOGI",
        "VlocityDataPackType": "SObject",
        "VlocityRecordSObjectType": "%vlocity_namespace%__DRMapItem__c"
    },
    {
        "%vlocity_namespace%__DomainObjectAPIName__c": "json",
        "%vlocity_namespace%__DomainObjectCreationOrder__c": 1,
        "%vlocity_namespace%__DomainObjectFieldAPIName__c": "detail_garanties_prime_periode|1:mnt_commission",
        "%vlocity_namespace%__InterfaceFieldAPIName__c": "StepCustomerIdentificationOS02:BlckOfferOS02:productConfig:records:CalculatedPriceData:vspCMEDTarif__commissionVSP",
        "%vlocity_namespace%__IsDisabled__c": true,
        "%vlocity_namespace%__IsRequiredForUpsert__c": false,
        "%vlocity_namespace%__MapId__c": "vspPrepareInputOGICustom4090",
        "%vlocity_namespace%__UpsertKey__c": false,
        "Name": "vspPrepareInputOGI",
        "VlocityDataPackType": "SObject",
        "VlocityRecordSObjectType": "%vlocity_namespace%__DRMapItem__c"
    },
    {
        "%vlocity_namespace%__DomainObjectAPIName__c": "json",
        "%vlocity_namespace%__DomainObjectCreationOrder__c": 1,
        "%vlocity_namespace%__DomainObjectFieldAPIName__c": "detail_garanties_prime_periode|1:mnt_commission_company",
        "%vlocity_namespace%__InterfaceFieldAPIName__c": "quoteJson:CalculatedPriceData:vspCMEDTarif__partSeyna",
        "%vlocity_namespace%__IsDisabled__c": true,
        "%vlocity_namespace%__IsRequiredForUpsert__c": false,
        "%vlocity_namespace%__MapId__c": "vspPrepareInputOGICustom8824",
        "%vlocity_namespace%__UpsertKey__c": false,
        "Name": "vspPrepareInputOGI",
        "VlocityDataPackType": "SObject",
        "VlocityRecordSObjectType": "%vlocity_namespace%__DRMapItem__c"
    },
    {
        "%vlocity_namespace%__DefaultValue__c": "\"\"",
        "%vlocity_namespace%__DomainObjectAPIName__c": "json",
        "%vlocity_namespace%__DomainObjectCreationOrder__c": 1,
        "%vlocity_namespace%__DomainObjectFieldAPIName__c": "detail_garanties_prime_periode|1:mnt_garantie_ht",
        "%vlocity_namespace%__InterfaceFieldAPIName__c": "StepCustomerIdentificationOS02:BlckOfferOS02:productConfig:records:CalculatedPriceData:vspCMEDTarif__montantHT",
        "%vlocity_namespace%__IsDisabled__c": false,
        "%vlocity_namespace%__IsRequiredForUpsert__c": false,
        "%vlocity_namespace%__MapId__c": "vspPrepareInputOGICustom33",
        "%vlocity_namespace%__UpsertKey__c": false,
        "Name": "vspPrepareInputOGI",
        "VlocityDataPackType": "SObject",
        "VlocityRecordSObjectType": "%vlocity_namespace%__DRMapItem__c"
    },
    {
        "%vlocity_namespace%__DomainObjectAPIName__c": "json",
        "%vlocity_namespace%__DomainObjectCreationOrder__c": 1,
        "%vlocity_namespace%__DomainObjectFieldAPIName__c": "detail_garanties_prime_periode|1:mnt_garantie_ttc",
        "%vlocity_namespace%__InterfaceFieldAPIName__c": "mnt_garantie_ttc_periode",
        "%vlocity_namespace%__IsDisabled__c": false,
        "%vlocity_namespace%__IsRequiredForUpsert__c": false,
        "%vlocity_namespace%__MapId__c": "vspPrepareInputOGICustom1300",
        "%vlocity_namespace%__UpsertKey__c": false,
        "Name": "vspPrepareInputOGI",
        "VlocityDataPackType": "SObject",
        "VlocityRecordSObjectType": "%vlocity_namespace%__DRMapItem__c"
    },
    {
        "%vlocity_namespace%__DefaultValue__c": "\"\"",
        "%vlocity_namespace%__DomainObjectAPIName__c": "json",
        "%vlocity_namespace%__DomainObjectCreationOrder__c": 1,
        "%vlocity_namespace%__DomainObjectFieldAPIName__c": "detail_garanties_prime_periode|1:num_convention",
        "%vlocity_namespace%__InterfaceFieldAPIName__c": "numConvenion",
        "%vlocity_namespace%__IsDisabled__c": false,
        "%vlocity_namespace%__IsRequiredForUpsert__c": false,
        "%vlocity_namespace%__MapId__c": "vspPrepareInputOGICustom9357",
        "%vlocity_namespace%__UpsertKey__c": false,
        "Name": "vspPrepareInputOGI",
        "VlocityDataPackType": "SObject",
        "VlocityRecordSObjectType": "%vlocity_namespace%__DRMapItem__c"
    },
    {
        "%vlocity_namespace%__DefaultValue__c": "\"\"",
        "%vlocity_namespace%__DomainObjectAPIName__c": "json",
        "%vlocity_namespace%__DomainObjectCreationOrder__c": 1,
        "%vlocity_namespace%__DomainObjectFieldAPIName__c": "detail_garanties_prime_periode|1:ref_convention",
        "%vlocity_namespace%__InterfaceFieldAPIName__c": "refConvention",
        "%vlocity_namespace%__IsDisabled__c": false,
        "%vlocity_namespace%__IsRequiredForUpsert__c": false,
        "%vlocity_namespace%__MapId__c": "vspPrepareInputOGICustom78",
        "%vlocity_namespace%__UpsertKey__c": false,
        "Name": "vspPrepareInputOGI",
        "VlocityDataPackType": "SObject",
        "VlocityRecordSObjectType": "%vlocity_namespace%__DRMapItem__c"
    },
    {
        "%vlocity_namespace%__DefaultValue__c": "\"\"",
        "%vlocity_namespace%__DomainObjectAPIName__c": "json",
        "%vlocity_namespace%__DomainObjectCreationOrder__c": 1,
        "%vlocity_namespace%__DomainObjectFieldAPIName__c": "detail_garanties_prime_periode|1:taux_taxe",
        "%vlocity_namespace%__InterfaceFieldAPIName__c": "StepCustomerIdentificationOS02:BlckOfferOS02:productConfig:records:taxesAndFees:Percent__c",
        "%vlocity_namespace%__IsDisabled__c": false,
        "%vlocity_namespace%__IsRequiredForUpsert__c": false,
        "%vlocity_namespace%__MapId__c": "vspPrepareInputOGICustom9113",
        "%vlocity_namespace%__UpsertKey__c": false,
        "Name": "vspPrepareInputOGI",
        "VlocityDataPackType": "SObject",
        "VlocityRecordSObjectType": "%vlocity_namespace%__DRMapItem__c"
    },
    {
        "%vlocity_namespace%__DefaultValue__c": "\"\"",
        "%vlocity_namespace%__DomainObjectAPIName__c": "json",
        "%vlocity_namespace%__DomainObjectCreationOrder__c": 1,
        "%vlocity_namespace%__DomainObjectFieldAPIName__c": "garantie_produit:code_produit_verspieren",
        "%vlocity_namespace%__InterfaceFieldAPIName__c": "StepCustomerIdentificationOS02:BlckOfferOS02:productConfig:records:CalculatedPriceData:vspCMFormuleWeb__CodeproduitsOGI",
        "%vlocity_namespace%__IsDisabled__c": false,
        "%vlocity_namespace%__IsRequiredForUpsert__c": false,
        "%vlocity_namespace%__MapId__c": "vspPrepareInputOGICustom7455",
        "%vlocity_namespace%__UpsertKey__c": false,
        "Name": "vspPrepareInputOGI",
        "VlocityDataPackType": "SObject",
        "VlocityRecordSObjectType": "%vlocity_namespace%__DRMapItem__c"
    },
    {
        "%vlocity_namespace%__DefaultValue__c": "\"\"",
        "%vlocity_namespace%__DomainObjectAPIName__c": "json",
        "%vlocity_namespace%__DomainObjectCreationOrder__c": 1,
        "%vlocity_namespace%__DomainObjectFieldAPIName__c": "garantie_produit:id_garantie_rattachee",
        "%vlocity_namespace%__IsDisabled__c": false,
        "%vlocity_namespace%__IsRequiredForUpsert__c": false,
        "%vlocity_namespace%__MapId__c": "vspPrepareInputOGICustom4298",
        "%vlocity_namespace%__UpsertKey__c": false,
        "Name": "vspPrepareInputOGI",
        "VlocityDataPackType": "SObject",
        "VlocityRecordSObjectType": "%vlocity_namespace%__DRMapItem__c"
    },
    {
        "%vlocity_namespace%__DefaultValue__c": "\"\"",
        "%vlocity_namespace%__DomainObjectAPIName__c": "json",
        "%vlocity_namespace%__DomainObjectCreationOrder__c": 1,
        "%vlocity_namespace%__DomainObjectFieldAPIName__c": "general:canal_de_vente",
        "%vlocity_namespace%__InterfaceFieldAPIName__c": "storeCodeNumber",
        "%vlocity_namespace%__IsDisabled__c": false,
        "%vlocity_namespace%__IsRequiredForUpsert__c": false,
        "%vlocity_namespace%__MapId__c": "vspPrepareInputOGICustom3563",
        "%vlocity_namespace%__TransformValuesMap__c": "{\"Magasin\":\"MAGA\",\"Web\":\"WEB\"}",
        "%vlocity_namespace%__UpsertKey__c": false,
        "Name": "vspPrepareInputOGI",
        "VlocityDataPackType": "SObject",
        "VlocityRecordSObjectType": "%vlocity_namespace%__DRMapItem__c"
    },
    {
        "%vlocity_namespace%__DefaultValue__c": "01",
        "%vlocity_namespace%__DomainObjectAPIName__c": "json",
        "%vlocity_namespace%__DomainObjectCreationOrder__c": 1,
        "%vlocity_namespace%__DomainObjectFieldAPIName__c": "general:code_action",
        "%vlocity_namespace%__IsDisabled__c": false,
        "%vlocity_namespace%__IsRequiredForUpsert__c": false,
        "%vlocity_namespace%__MapId__c": "vspPrepareInputOGICustom1441",
        "%vlocity_namespace%__UpsertKey__c": false,
        "Name": "vspPrepareInputOGI",
        "VlocityDataPackType": "SObject",
        "VlocityRecordSObjectType": "%vlocity_namespace%__DRMapItem__c"
    },
    {
        "%vlocity_namespace%__DefaultValue__c": "01",
        "%vlocity_namespace%__DomainObjectAPIName__c": "json",
        "%vlocity_namespace%__DomainObjectCreationOrder__c": 1,
        "%vlocity_namespace%__DomainObjectFieldAPIName__c": "general:code_motif",
        "%vlocity_namespace%__IsDisabled__c": false,
        "%vlocity_namespace%__IsRequiredForUpsert__c": false,
        "%vlocity_namespace%__MapId__c": "vspPrepareInputOGICustom3970",
        "%vlocity_namespace%__UpsertKey__c": false,
        "Name": "vspPrepareInputOGI",
        "VlocityDataPackType": "SObject",
        "VlocityRecordSObjectType": "%vlocity_namespace%__DRMapItem__c"
    },
    {
        "%vlocity_namespace%__DefaultValue__c": "\"\"",
        "%vlocity_namespace%__DomainObjectAPIName__c": "json",
        "%vlocity_namespace%__DomainObjectCreationOrder__c": 1,
        "%vlocity_namespace%__DomainObjectFieldAPIName__c": "general:detail_souscription:bic",
        "%vlocity_namespace%__IsDisabled__c": false,
        "%vlocity_namespace%__IsRequiredForUpsert__c": false,
        "%vlocity_namespace%__MapId__c": "vspPrepareInputOGICustom4587",
        "%vlocity_namespace%__UpsertKey__c": false,
        "Name": "vspPrepareInputOGI",
        "VlocityDataPackType": "SObject",
        "VlocityRecordSObjectType": "%vlocity_namespace%__DRMapItem__c"
    },
    {
        "%vlocity_namespace%__DefaultValue__c": "\"\"",
        "%vlocity_namespace%__DomainObjectAPIName__c": "json",
        "%vlocity_namespace%__DomainObjectCreationOrder__c": 1,
        "%vlocity_namespace%__DomainObjectFieldAPIName__c": "general:detail_souscription:bic",
        "%vlocity_namespace%__IsDisabled__c": false,
        "%vlocity_namespace%__IsRequiredForUpsert__c": false,
        "%vlocity_namespace%__MapId__c": "vspPrepareInputOGICustom6095",
        "%vlocity_namespace%__UpsertKey__c": false,
        "Name": "vspPrepareInputOGI",
        "VlocityDataPackType": "SObject",
        "VlocityRecordSObjectType": "%vlocity_namespace%__DRMapItem__c"
    },
    {
        "%vlocity_namespace%__DefaultValue__c": "\"\"",
        "%vlocity_namespace%__DomainObjectAPIName__c": "json",
        "%vlocity_namespace%__DomainObjectCreationOrder__c": 1,
        "%vlocity_namespace%__DomainObjectFieldAPIName__c": "general:detail_souscription:bureau_distributeur",
        "%vlocity_namespace%__IsDisabled__c": false,
        "%vlocity_namespace%__IsRequiredForUpsert__c": false,
        "%vlocity_namespace%__MapId__c": "vspPrepareInputOGICustom3827",
        "%vlocity_namespace%__UpsertKey__c": false,
        "Name": "vspPrepareInputOGI",
        "VlocityDataPackType": "SObject",
        "VlocityRecordSObjectType": "%vlocity_namespace%__DRMapItem__c"
    },
    {
        "%vlocity_namespace%__DefaultValue__c": "\"\"",
        "%vlocity_namespace%__DomainObjectAPIName__c": "json",
        "%vlocity_namespace%__DomainObjectCreationOrder__c": 1,
        "%vlocity_namespace%__DomainObjectFieldAPIName__c": "general:detail_souscription:civilite",
        "%vlocity_namespace%__InterfaceFieldAPIName__c": "StepCustomerIdentificationOS02:BlckIdentityPersonOS02:SelectSalutationOS02",
        "%vlocity_namespace%__IsDisabled__c": false,
        "%vlocity_namespace%__IsRequiredForUpsert__c": false,
        "%vlocity_namespace%__MapId__c": "vspPrepareInputOGICustom8617",
        "%vlocity_namespace%__TransformValuesMap__c": "{\"1\":\"MME\",\"2\":\"MLLE\",\"3\":\"M\"}",
        "%vlocity_namespace%__UpsertKey__c": false,
        "Name": "vspPrepareInputOGI",
        "VlocityDataPackType": "SObject",
        "VlocityRecordSObjectType": "%vlocity_namespace%__DRMapItem__c"
    },
    {
        "%vlocity_namespace%__DefaultValue__c": "FRA",
        "%vlocity_namespace%__DomainObjectAPIName__c": "json",
        "%vlocity_namespace%__DomainObjectCreationOrder__c": 1,
        "%vlocity_namespace%__DomainObjectFieldAPIName__c": "general:detail_souscription:code_pays",
        "%vlocity_namespace%__IsDisabled__c": false,
        "%vlocity_namespace%__IsRequiredForUpsert__c": false,
        "%vlocity_namespace%__MapId__c": "vspPrepareInputOGICustom1944",
        "%vlocity_namespace%__UpsertKey__c": false,
        "Name": "vspPrepareInputOGI",
        "VlocityDataPackType": "SObject",
        "VlocityRecordSObjectType": "%vlocity_namespace%__DRMapItem__c"
    },
    {
        "%vlocity_namespace%__DefaultValue__c": "59390",
        "%vlocity_namespace%__DomainObjectAPIName__c": "json",
        "%vlocity_namespace%__DomainObjectCreationOrder__c": 1,
        "%vlocity_namespace%__DomainObjectFieldAPIName__c": "general:detail_souscription:code_postal",
        "%vlocity_namespace%__InterfaceFieldAPIName__c": "StepCustomerIdentificationOS02:BlckIdentityPersonOS02:BlckAddress:TxtPostalCodeOS02",
        "%vlocity_namespace%__IsDisabled__c": false,
        "%vlocity_namespace%__IsRequiredForUpsert__c": false,
        "%vlocity_namespace%__MapId__c": "vspPrepareInputOGICustom557",
        "%vlocity_namespace%__UpsertKey__c": false,
        "Name": "vspPrepareInputOGI",
        "VlocityDataPackType": "SObject",
        "VlocityRecordSObjectType": "%vlocity_namespace%__DRMapItem__c"
    },
    {
        "%vlocity_namespace%__DefaultValue__c": "LANNOY",
        "%vlocity_namespace%__DomainObjectAPIName__c": "json",
        "%vlocity_namespace%__DomainObjectCreationOrder__c": 1,
        "%vlocity_namespace%__DomainObjectFieldAPIName__c": "general:detail_souscription:commune",
        "%vlocity_namespace%__InterfaceFieldAPIName__c": "StepCustomerIdentificationOS02:BlckIdentityPersonOS02:BlckAddress:TxtCityOS02",
        "%vlocity_namespace%__IsDisabled__c": false,
        "%vlocity_namespace%__IsRequiredForUpsert__c": false,
        "%vlocity_namespace%__MapId__c": "vspPrepareInputOGICustom6981",
        "%vlocity_namespace%__UpsertKey__c": false,
        "Name": "vspPrepareInputOGI",
        "VlocityDataPackType": "SObject",
        "VlocityRecordSObjectType": "%vlocity_namespace%__DRMapItem__c"
    },
    {
        "%vlocity_namespace%__DefaultValue__c": "\"\"",
        "%vlocity_namespace%__DomainObjectAPIName__c": "json",
        "%vlocity_namespace%__DomainObjectCreationOrder__c": 1,
        "%vlocity_namespace%__DomainObjectFieldAPIName__c": "general:detail_souscription:complement_identitie",
        "%vlocity_namespace%__IsDisabled__c": false,
        "%vlocity_namespace%__IsRequiredForUpsert__c": false,
        "%vlocity_namespace%__MapId__c": "vspPrepareInputOGICustom3646",
        "%vlocity_namespace%__UpsertKey__c": false,
        "Name": "vspPrepareInputOGI",
        "VlocityDataPackType": "SObject",
        "VlocityRecordSObjectType": "%vlocity_namespace%__DRMapItem__c"
    },
    {
        "%vlocity_namespace%__DefaultValue__c": "\"\"",
        "%vlocity_namespace%__DomainObjectAPIName__c": "json",
        "%vlocity_namespace%__DomainObjectCreationOrder__c": 1,
        "%vlocity_namespace%__DomainObjectFieldAPIName__c": "general:detail_souscription:complement_voie",
        "%vlocity_namespace%__InterfaceFieldAPIName__c": "StepCustomerIdentificationOS02:BlckIdentityPersonOS02:BlckAddress:TxtComplementAdresse",
        "%vlocity_namespace%__IsDisabled__c": false,
        "%vlocity_namespace%__IsRequiredForUpsert__c": false,
        "%vlocity_namespace%__MapId__c": "vspPrepareInputOGICustom1804",
        "%vlocity_namespace%__UpsertKey__c": false,
        "Name": "vspPrepareInputOGI",
        "VlocityDataPackType": "SObject",
        "VlocityRecordSObjectType": "%vlocity_namespace%__DRMapItem__c"
    },
    {
        "%vlocity_namespace%__DefaultValue__c": "\"\"",
        "%vlocity_namespace%__DomainObjectAPIName__c": "json",
        "%vlocity_namespace%__DomainObjectCreationOrder__c": 1,
        "%vlocity_namespace%__DomainObjectFieldAPIName__c": "general:detail_souscription:date_naissance",
        "%vlocity_namespace%__InterfaceFieldAPIName__c": "dateDeNaissance",
        "%vlocity_namespace%__IsDisabled__c": false,
        "%vlocity_namespace%__IsRequiredForUpsert__c": false,
        "%vlocity_namespace%__MapId__c": "vspPrepareInputOGICustom8754",
        "%vlocity_namespace%__UpsertKey__c": false,
        "Name": "vspPrepareInputOGI",
        "VlocityDataPackType": "SObject",
        "VlocityRecordSObjectType": "%vlocity_namespace%__DRMapItem__c"
    },
    {
        "%vlocity_namespace%__DefaultValue__c": "\"\"",
        "%vlocity_namespace%__DomainObjectAPIName__c": "json",
        "%vlocity_namespace%__DomainObjectCreationOrder__c": 1,
        "%vlocity_namespace%__DomainObjectFieldAPIName__c": "general:detail_souscription:email",
        "%vlocity_namespace%__InterfaceFieldAPIName__c": "StepCustomerIdentificationOS02:BlckIdentityPersonOS02:EmailCustomerEmailOS02",
        "%vlocity_namespace%__IsDisabled__c": false,
        "%vlocity_namespace%__IsRequiredForUpsert__c": false,
        "%vlocity_namespace%__MapId__c": "vspPrepareInputOGICustom3575",
        "%vlocity_namespace%__UpsertKey__c": false,
        "Name": "vspPrepareInputOGI",
        "VlocityDataPackType": "SObject",
        "VlocityRecordSObjectType": "%vlocity_namespace%__DRMapItem__c"
    },
    {
        "%vlocity_namespace%__DefaultValue__c": "\"\"",
        "%vlocity_namespace%__DomainObjectAPIName__c": "json",
        "%vlocity_namespace%__DomainObjectCreationOrder__c": 1,
        "%vlocity_namespace%__DomainObjectFieldAPIName__c": "general:detail_souscription:iban",
        "%vlocity_namespace%__InterfaceFieldAPIName__c": "StepPaymentIBANOS02:TxtBankAccountNumberOS02",
        "%vlocity_namespace%__IsDisabled__c": false,
        "%vlocity_namespace%__IsRequiredForUpsert__c": false,
        "%vlocity_namespace%__MapId__c": "vspPrepareInputOGICustom6958",
        "%vlocity_namespace%__UpsertKey__c": false,
        "Name": "vspPrepareInputOGI",
        "VlocityDataPackType": "SObject",
        "VlocityRecordSObjectType": "%vlocity_namespace%__DRMapItem__c"
    },
    {
        "%vlocity_namespace%__DefaultValue__c": "\"\"",
        "%vlocity_namespace%__DomainObjectAPIName__c": "json",
        "%vlocity_namespace%__DomainObjectCreationOrder__c": 1,
        "%vlocity_namespace%__DomainObjectFieldAPIName__c": "general:detail_souscription:nom",
        "%vlocity_namespace%__InterfaceFieldAPIName__c": "StepCustomerIdentificationOS02:BlckIdentityPersonOS02:TxtLastNameOS02",
        "%vlocity_namespace%__IsDisabled__c": false,
        "%vlocity_namespace%__IsRequiredForUpsert__c": false,
        "%vlocity_namespace%__MapId__c": "vspPrepareInputOGICustom8225",
        "%vlocity_namespace%__UpsertKey__c": false,
        "Name": "vspPrepareInputOGI",
        "VlocityDataPackType": "SObject",
        "VlocityRecordSObjectType": "%vlocity_namespace%__DRMapItem__c"
    },
    {
        "%vlocity_namespace%__DefaultValue__c": "FRANCE",
        "%vlocity_namespace%__DomainObjectAPIName__c": "json",
        "%vlocity_namespace%__DomainObjectCreationOrder__c": 1,
        "%vlocity_namespace%__DomainObjectFieldAPIName__c": "general:detail_souscription:nom_pays",
        "%vlocity_namespace%__InterfaceFieldAPIName__c": "StepCustomerIdentificationOS02:BlckIdentityPersonOS02:BlckAddress:TxtCountryOS02",
        "%vlocity_namespace%__IsDisabled__c": false,
        "%vlocity_namespace%__IsRequiredForUpsert__c": false,
        "%vlocity_namespace%__MapId__c": "vspPrepareInputOGICustom2453",
        "%vlocity_namespace%__UpsertKey__c": false,
        "Name": "vspPrepareInputOGI",
        "VlocityDataPackType": "SObject",
        "VlocityRecordSObjectType": "%vlocity_namespace%__DRMapItem__c"
    },
    {
        "%vlocity_namespace%__DomainObjectAPIName__c": "json",
        "%vlocity_namespace%__DomainObjectCreationOrder__c": 1,
        "%vlocity_namespace%__DomainObjectFieldAPIName__c": "general:detail_souscription:num_adherent",
        "%vlocity_namespace%__InterfaceFieldAPIName__c": "customerOGIId",
        "%vlocity_namespace%__IsDisabled__c": false,
        "%vlocity_namespace%__IsRequiredForUpsert__c": false,
        "%vlocity_namespace%__MapId__c": "vspPrepareInputOGICustom7919",
        "%vlocity_namespace%__UpsertKey__c": false,
        "Name": "vspPrepareInputOGI",
        "VlocityDataPackType": "SObject",
        "VlocityRecordSObjectType": "%vlocity_namespace%__DRMapItem__c"
    },
    {
        "%vlocity_namespace%__DefaultValue__c": "\"\"",
        "%vlocity_namespace%__DomainObjectAPIName__c": "json",
        "%vlocity_namespace%__DomainObjectCreationOrder__c": 1,
        "%vlocity_namespace%__DomainObjectFieldAPIName__c": "general:detail_souscription:prenom",
        "%vlocity_namespace%__InterfaceFieldAPIName__c": "StepCustomerIdentificationOS02:BlckIdentityPersonOS02:TxtFistNameOS02",
        "%vlocity_namespace%__IsDisabled__c": false,
        "%vlocity_namespace%__IsRequiredForUpsert__c": false,
        "%vlocity_namespace%__MapId__c": "vspPrepareInputOGICustom9368",
        "%vlocity_namespace%__UpsertKey__c": false,
        "Name": "vspPrepareInputOGI",
        "VlocityDataPackType": "SObject",
        "VlocityRecordSObjectType": "%vlocity_namespace%__DRMapItem__c"
    },
    {
        "%vlocity_namespace%__DefaultValue__c": "\"\"",
        "%vlocity_namespace%__DomainObjectAPIName__c": "json",
        "%vlocity_namespace%__DomainObjectCreationOrder__c": 1,
        "%vlocity_namespace%__DomainObjectFieldAPIName__c": "general:detail_souscription:raison_sociale",
        "%vlocity_namespace%__IsDisabled__c": false,
        "%vlocity_namespace%__IsRequiredForUpsert__c": false,
        "%vlocity_namespace%__MapId__c": "vspPrepareInputOGICustom1863",
        "%vlocity_namespace%__UpsertKey__c": false,
        "Name": "vspPrepareInputOGI",
        "VlocityDataPackType": "SObject",
        "VlocityRecordSObjectType": "%vlocity_namespace%__DRMapItem__c"
    },
    {
        "%vlocity_namespace%__DefaultValue__c": "\"\"",
        "%vlocity_namespace%__DomainObjectAPIName__c": "json",
        "%vlocity_namespace%__DomainObjectCreationOrder__c": 1,
        "%vlocity_namespace%__DomainObjectFieldAPIName__c": "general:detail_souscription:telephone_domicile",
        "%vlocity_namespace%__InterfaceFieldAPIName__c": "StepCustomerIdentificationOS02:BlckIdentityPersonOS02:LandPhoneCustomerPhoneNumberOS02",
        "%vlocity_namespace%__IsDisabled__c": false,
        "%vlocity_namespace%__IsRequiredForUpsert__c": false,
        "%vlocity_namespace%__MapId__c": "vspPrepareInputOGICustom946",
        "%vlocity_namespace%__UpsertKey__c": false,
        "Name": "vspPrepareInputOGI",
        "VlocityDataPackType": "SObject",
        "VlocityRecordSObjectType": "%vlocity_namespace%__DRMapItem__c"
    },
    {
        "%vlocity_namespace%__DefaultValue__c": "\"\"",
        "%vlocity_namespace%__DomainObjectAPIName__c": "json",
        "%vlocity_namespace%__DomainObjectCreationOrder__c": 1,
        "%vlocity_namespace%__DomainObjectFieldAPIName__c": "general:detail_souscription:telephone_mobile",
        "%vlocity_namespace%__InterfaceFieldAPIName__c": "StepCustomerIdentificationOS02:BlckIdentityPersonOS02:PhoneCustomerPhoneNumberOS02",
        "%vlocity_namespace%__IsDisabled__c": false,
        "%vlocity_namespace%__IsRequiredForUpsert__c": false,
        "%vlocity_namespace%__MapId__c": "vspPrepareInputOGICustom9058",
        "%vlocity_namespace%__UpsertKey__c": false,
        "Name": "vspPrepareInputOGI",
        "VlocityDataPackType": "SObject",
        "VlocityRecordSObjectType": "%vlocity_namespace%__DRMapItem__c"
    },
    {
        "%vlocity_namespace%__DefaultValue__c": "rue tst",
        "%vlocity_namespace%__DomainObjectAPIName__c": "json",
        "%vlocity_namespace%__DomainObjectCreationOrder__c": 1,
        "%vlocity_namespace%__DomainObjectFieldAPIName__c": "general:detail_souscription:voie",
        "%vlocity_namespace%__InterfaceFieldAPIName__c": "StepCustomerIdentificationOS02:BlckIdentityPersonOS02:BlckAddress:TxtStreetOS02",
        "%vlocity_namespace%__IsDisabled__c": false,
        "%vlocity_namespace%__IsRequiredForUpsert__c": false,
        "%vlocity_namespace%__MapId__c": "vspPrepareInputOGICustom4755",
        "%vlocity_namespace%__UpsertKey__c": false,
        "Name": "vspPrepareInputOGI",
        "VlocityDataPackType": "SObject",
        "VlocityRecordSObjectType": "%vlocity_namespace%__DRMapItem__c"
    },
    {
        "%vlocity_namespace%__DefaultValue__c": "\"\"",
        "%vlocity_namespace%__DomainObjectAPIName__c": "json",
        "%vlocity_namespace%__DomainObjectCreationOrder__c": 1,
        "%vlocity_namespace%__DomainObjectFieldAPIName__c": "general:id_contrat_mere",
        "%vlocity_namespace%__InterfaceFieldAPIName__c": "DRESelectInfoShopsIP03:contrat_mere",
        "%vlocity_namespace%__IsDisabled__c": false,
        "%vlocity_namespace%__IsRequiredForUpsert__c": false,
        "%vlocity_namespace%__MapId__c": "vspPrepareInputOGICustom5027",
        "%vlocity_namespace%__UpsertKey__c": false,
        "Name": "vspPrepareInputOGI",
        "VlocityDataPackType": "SObject",
        "VlocityRecordSObjectType": "%vlocity_namespace%__DRMapItem__c"
    },
    {
        "%vlocity_namespace%__DefaultValue__c": "\"\"",
        "%vlocity_namespace%__DomainObjectAPIName__c": "json",
        "%vlocity_namespace%__DomainObjectCreationOrder__c": 1,
        "%vlocity_namespace%__DomainObjectFieldAPIName__c": "general:id_externe_client_001",
        "%vlocity_namespace%__InterfaceFieldAPIName__c": "Account_1:Id",
        "%vlocity_namespace%__IsDisabled__c": false,
        "%vlocity_namespace%__IsRequiredForUpsert__c": false,
        "%vlocity_namespace%__MapId__c": "vspPrepareInputOGICustom1174",
        "%vlocity_namespace%__UpsertKey__c": false,
        "Name": "vspPrepareInputOGI",
        "VlocityDataPackType": "SObject",
        "VlocityRecordSObjectType": "%vlocity_namespace%__DRMapItem__c"
    },
    {
        "%vlocity_namespace%__DefaultValue__c": "REFCTED",
        "%vlocity_namespace%__DomainObjectAPIName__c": "json",
        "%vlocity_namespace%__DomainObjectCreationOrder__c": 1,
        "%vlocity_namespace%__DomainObjectFieldAPIName__c": "general:id_externe_client_002",
        "%vlocity_namespace%__IsDisabled__c": false,
        "%vlocity_namespace%__IsRequiredForUpsert__c": false,
        "%vlocity_namespace%__MapId__c": "vspPrepareInputOGICustom5852",
        "%vlocity_namespace%__UpsertKey__c": false,
        "Name": "vspPrepareInputOGI",
        "VlocityDataPackType": "SObject",
        "VlocityRecordSObjectType": "%vlocity_namespace%__DRMapItem__c"
    },
    {
        "%vlocity_namespace%__DefaultValue__c": "\"\"",
        "%vlocity_namespace%__DomainObjectAPIName__c": "json",
        "%vlocity_namespace%__DomainObjectCreationOrder__c": 1,
        "%vlocity_namespace%__DomainObjectFieldAPIName__c": "general:id_externe_contrat_001",
        "%vlocity_namespace%__InterfaceFieldAPIName__c": "quoteId",
        "%vlocity_namespace%__IsDisabled__c": false,
        "%vlocity_namespace%__IsRequiredForUpsert__c": false,
        "%vlocity_namespace%__MapId__c": "vspPrepareInputOGICustom8673",
        "%vlocity_namespace%__UpsertKey__c": false,
        "Name": "vspPrepareInputOGI",
        "VlocityDataPackType": "SObject",
        "VlocityRecordSObjectType": "%vlocity_namespace%__DRMapItem__c"
    },
    {
        "%vlocity_namespace%__DefaultValue__c": "REFCTED",
        "%vlocity_namespace%__DomainObjectAPIName__c": "json",
        "%vlocity_namespace%__DomainObjectCreationOrder__c": 1,
        "%vlocity_namespace%__DomainObjectFieldAPIName__c": "general:id_externe_contrat_002",
        "%vlocity_namespace%__InterfaceFieldAPIName__c": "ExtDistributorOrderId",
        "%vlocity_namespace%__IsDisabled__c": false,
        "%vlocity_namespace%__IsRequiredForUpsert__c": false,
        "%vlocity_namespace%__MapId__c": "vspPrepareInputOGICustom1297",
        "%vlocity_namespace%__UpsertKey__c": false,
        "Name": "vspPrepareInputOGI",
        "VlocityDataPackType": "SObject",
        "VlocityRecordSObjectType": "%vlocity_namespace%__DRMapItem__c"
    },
    {
        "%vlocity_namespace%__DefaultValue__c": "\"\"",
        "%vlocity_namespace%__DomainObjectAPIName__c": "json",
        "%vlocity_namespace%__DomainObjectCreationOrder__c": 1,
        "%vlocity_namespace%__DomainObjectFieldAPIName__c": "general:mode_paiement",
        "%vlocity_namespace%__InterfaceFieldAPIName__c": "StepCustomerIdentificationOS02:BlckIdentityPersonOS02:BlckPaymentMethod:SelectPaymentMethod",
        "%vlocity_namespace%__IsDisabled__c": false,
        "%vlocity_namespace%__IsRequiredForUpsert__c": false,
        "%vlocity_namespace%__MapId__c": "vspPrepareInputOGICustom933",
        "%vlocity_namespace%__TransformValuesMap__c": "{\"IBAN\":\"02\",\"CB\":\"06\"}",
        "%vlocity_namespace%__UpsertKey__c": false,
        "Name": "vspPrepareInputOGI",
        "VlocityDataPackType": "SObject",
        "VlocityRecordSObjectType": "%vlocity_namespace%__DRMapItem__c"
    },
    {
        "%vlocity_namespace%__DefaultValue__c": "0",
        "%vlocity_namespace%__DomainObjectAPIName__c": "json",
        "%vlocity_namespace%__DomainObjectCreationOrder__c": 1,
        "%vlocity_namespace%__DomainObjectFieldAPIName__c": "prime_annuelle:mnt_frais_gestion",
        "%vlocity_namespace%__IsDisabled__c": false,
        "%vlocity_namespace%__IsRequiredForUpsert__c": false,
        "%vlocity_namespace%__MapId__c": "vspPrepareInputOGICustom1167",
        "%vlocity_namespace%__UpsertKey__c": false,
        "Name": "vspPrepareInputOGI",
        "VlocityDataPackType": "SObject",
        "VlocityRecordSObjectType": "%vlocity_namespace%__DRMapItem__c"
    },
    {
        "%vlocity_namespace%__DefaultValue__c": "0",
        "%vlocity_namespace%__DomainObjectAPIName__c": "json",
        "%vlocity_namespace%__DomainObjectCreationOrder__c": 1,
        "%vlocity_namespace%__DomainObjectFieldAPIName__c": "prime_annuelle:mnt_taxe_attentats",
        "%vlocity_namespace%__IsDisabled__c": false,
        "%vlocity_namespace%__IsRequiredForUpsert__c": false,
        "%vlocity_namespace%__MapId__c": "vspPrepareInputOGICustom1047",
        "%vlocity_namespace%__UpsertKey__c": false,
        "Name": "vspPrepareInputOGI",
        "VlocityDataPackType": "SObject",
        "VlocityRecordSObjectType": "%vlocity_namespace%__DRMapItem__c"
    }
]