{
    "ExtDistributorOrderId": "cmd123456",
    "ExtDistributorSellerId_C": "ED-AB123",
    "ExtMerchantTransactionId": "FAC126944",
    "Ext_DistributorCustomerID": "33ESJD",
    "StepContolIsNotNexClientOS02": null,
    "StepCustomerIdentificationOS02": {
        "BlckIdentityPersonOS02": {
            "BlckAddress": {
                "TxtCountryOS02": "France"
            },
            "BlckPaymentMethod": {
                "SelectPaymentMethod": "IBAN"
            },
            "CheckboxOptInMarketingOS02": false,
            "CheckboxOptInRGPDOS02": true,
            "SelectSalutationOS02": "Mme"
        },
        "BlckOfferOS02": {
            "productConfig": {
                "records": [
                    {
                        "CalculatedPriceData": {
                            "ID": "0",
                            "vspCMEDTarif__commissionCofidis": 0.24,
                            "vspCMEDTarif__commissionCofidisAnnuel": 2.88,
                            "vspCMEDTarif__commissionED": 2.75,
                            "vspCMEDTarif__commissionEDAnnuel": 33,
                            "vspCMEDTarif__commissionVSP": 0.88,
                            "vspCMEDTarif__commissionVSPAnnuel": 10.56,
                            "vspCMEDTarif__montantHT": 5.5,
                            "vspCMEDTarif__montantHTAnnuel": 66,
                            "vspCMEDTarif__partSeyna": 1.63,
                            "vspCMEDTarif__partSeynaAnnuel": 19.56,
                            "vspCMFormuleWeb__CodeproduitsOGI": "BR",
                            "vspCMFormuleWeb__Label": "BRUN",
                            "vspCMFormuleWeb__formuleED": "Simple"
                        },
                        "Description": "Cette garantie s'applique à TOUS les appareils neufs ou reconditionnés de moins de 3 ans achetés chez Electro dépôt ou dans une autre enseigne.",
                        "Family": "ElectroDepot",
                        "Id": "01t1x00000BwpFgAAJ",
                        "IsConfigurable__c": true,
                        "IsRecommended__c": false,
                        "LineOfBusiness__c": "Property & Casualty",
                        "Name": "Assurance Electrosûr",
                        "Price": 5.5,
                        "PricingFormula__c": "vspCMEDTarif__montantHT",
                        "ProductCode": "ED_ELECTROSUR",
                        "RawPriceData": [
                            {
                                "aggregationResults": null,
                                "calculationResults": [
                                    {
                                        "ID": "0",
                                        "vspCMEDTarif__commissionCofidis": 0.24,
                                        "vspCMEDTarif__commissionCofidisAnnuel": 2.88,
                                        "vspCMEDTarif__commissionED": 2.75,
                                        "vspCMEDTarif__commissionEDAnnuel": 33,
                                        "vspCMEDTarif__commissionVSP": 0.88,
                                        "vspCMEDTarif__commissionVSPAnnuel": 10.56,
                                        "vspCMEDTarif__montantHT": 5.5,
                                        "vspCMEDTarif__montantHTAnnuel": 66,
                                        "vspCMEDTarif__partSeyna": 1.63,
                                        "vspCMEDTarif__partSeynaAnnuel": 19.56,
                                        "vspCMFormuleWeb__CodeproduitsOGI": "BR",
                                        "vspCMFormuleWeb__Label": "BRUN",
                                        "vspCMFormuleWeb__formuleED": "Simple"
                                    }
                                ]
                            }
                        ],
                        "RecordTypeName__c": "Product",
                        "SubType__c": "MultiProduct",
                        "Term__c": "Monthly",
                        "TotalInsuredFormula__c": "vspCMEDTarif__montantHT*12",
                        "Type__c": "Affinity",
                        "attributeCategories": {
                            "records": [
                                {
                                    "Code__c": "ATT_CAT_OFFER",
                                    "Name": "Offre",
                                    "displaySequence": 20,
                                    "id": "a0U1x000007SuXwEAK",
                                    "productAttributes": {
                                        "records": [
                                            {
                                                "attributeId": "a0V1x000002upU2EAI",
                                                "cloneable": true,
                                                "code": "ATT_FORMULE_OGI",
                                                "dataType": "text",
                                                "disabled": false,
                                                "displaySequence": 0,
                                                "filterable": true,
                                                "hasRules": false,
                                                "hidden": true,
                                                "inputType": "text",
                                                "isNotTranslatable": false,
                                                "label": "Formule OGI",
                                                "multiselect": false,
                                                "readonly": false,
                                                "required": false,
                                                "userValues": null,
                                                "values": [
                                                    {
                                                        "disabled": false,
                                                        "readonly": false
                                                    }
                                                ]
                                            },
                                            {
                                                "attributeId": "a0V1x000002upTZEAY",
                                                "cloneable": true,
                                                "code": "ATT_FORMULE",
                                                "dataType": "text",
                                                "disabled": false,
                                                "displaySequence": 1,
                                                "filterable": true,
                                                "hasRules": false,
                                                "hidden": true,
                                                "inputType": "text",
                                                "isNotTranslatable": false,
                                                "label": "Formule",
                                                "multiselect": false,
                                                "readonly": false,
                                                "required": false,
                                                "userValues": null,
                                                "values": [
                                                    {
                                                        "disabled": false,
                                                        "readonly": false
                                                    }
                                                ]
                                            }
                                        ],
                                        "totalSize": 2
                                    }
                                }
                            ],
                            "totalSize": 1
                        },
                        "childProducts": {
                            "records": [
                                {
                                    "Family": "ElectroDepot",
                                    "Id": "01t1x00000Bwp67AAB",
                                    "IsConfigurable__c": true,
                                    "IsRecommended__c": false,
                                    "Name": "MULTIMÉDIA",
                                    "ProductCode": "ED_COV_MULTIMEDIA",
                                    "RecordTypeName__c": "CoverageSpec",
                                    "Term__c": "Annual",
                                    "attributeCategories": {
                                        "records": [
                                            {
                                                "Code__c": "ATT_CAT_PANNE",
                                                "Name": "Panne",
                                                "displaySequence": 30,
                                                "id": "a0U1x000007SuY1EAK",
                                                "productAttributes": {
                                                    "records": [
                                                        {
                                                            "attributeId": "a0V1x000002upU7EAI",
                                                            "cloneable": true,
                                                            "code": "ATT_Limite",
                                                            "dataType": "text",
                                                            "disabled": false,
                                                            "displaySequence": 0,
                                                            "filterable": true,
                                                            "hasRules": true,
                                                            "hidden": true,
                                                            "inputType": "radio",
                                                            "isNotTranslatable": false,
                                                            "label": "Panne",
                                                            "multiselect": false,
                                                            "readonly": false,
                                                            "required": false,
                                                            "userValues": "0",
                                                            "values": [
                                                                {
                                                                    "disabled": false,
                                                                    "id": "0",
                                                                    "label": "3000€",
                                                                    "readonly": false,
                                                                    "rules": [
                                                                        {
                                                                            "actions": {
                                                                                "": {
                                                                                    "client": {
                                                                                        "params": {
                                                                                        }
                                                                                    },
                                                                                    "remote": {
                                                                                        "params": {
                                                                                        }
                                                                                    },
                                                                                    "rest": {
                                                                                        "link": null,
                                                                                        "method": null,
                                                                                        "params": {
                                                                                        }
                                                                                    }
                                                                                }
                                                                            }
                                                                        }
                                                                    ],
                                                                    "value": "3000"
                                                                },
                                                                {
                                                                    "disabled": false,
                                                                    "id": "1",
                                                                    "label": "0",
                                                                    "readonly": false,
                                                                    "value": "0"
                                                                }
                                                            ]
                                                        }
                                                    ],
                                                    "totalSize": 1
                                                }
                                            }
                                        ],
                                        "totalSize": 1
                                    },
                                    "displaySequence": 5,
                                    "isOptional": true,
                                    "isSelected": false,
                                    "pciId": "a4X1x000000DWdNEAW",
                                    "productId": "01t1x00000Bwp67AAB",
                                    "requiredCriteria": "ED_INS_ITEM_EQUIPMENT.ATT_isGris==1"
                                },
                                {
                                    "Family": "ElectroDepot",
                                    "Id": "01t1x00000BwoyYAAR",
                                    "IsConfigurable__c": true,
                                    "IsRecommended__c": false,
                                    "LineOfBusiness__c": "Property & Casualty",
                                    "Name": "IMAGE ET SON",
                                    "ProductCode": "ED_COV_IMAGESON",
                                    "RecordTypeName__c": "CoverageSpec",
                                    "SubType__c": "MultiProduct",
                                    "Term__c": "Annual",
                                    "Type__c": "Affinity",
                                    "attributeCategories": {
                                        "records": [
                                            {
                                                "Code__c": "ATT_CAT_PANNE",
                                                "Name": "Panne",
                                                "displaySequence": 30,
                                                "id": "a0U1x000007SuY1EAK",
                                                "productAttributes": {
                                                    "records": [
                                                        {
                                                            "attributeId": "a0V1x000002upU7EAI",
                                                            "cloneable": true,
                                                            "code": "ATT_Limite",
                                                            "dataType": "text",
                                                            "disabled": false,
                                                            "displaySequence": -1,
                                                            "filterable": true,
                                                            "hasRules": true,
                                                            "hidden": true,
                                                            "inputType": "radio",
                                                            "isNotTranslatable": false,
                                                            "label": "Panne",
                                                            "multiselect": false,
                                                            "readonly": true,
                                                            "required": false,
                                                            "rules": [
                                                                {
                                                                    "actions": {
                                                                        "Set Value": {
                                                                            "client": {
                                                                                "params": {
                                                                                }
                                                                            },
                                                                            "remote": {
                                                                                "params": {
                                                                                }
                                                                            },
                                                                            "rest": {
                                                                                "link": null,
                                                                                "method": null,
                                                                                "params": {
                                                                                }
                                                                            }
                                                                        }
                                                                    },
                                                                    "expression": "%ED_COV_IMAGESON_test.isSelected% = %true%",
                                                                    "ruleType": "Set Value",
                                                                    "valueExpression": "\"3000\""
                                                                }
                                                            ],
                                                            "userValues": "3000",
                                                            "values": [
                                                                {
                                                                    "disabled": false,
                                                                    "id": "0",
                                                                    "label": "3000",
                                                                    "readonly": false,
                                                                    "value": "3000"
                                                                },
                                                                {
                                                                    "disabled": false,
                                                                    "id": "1",
                                                                    "label": "0",
                                                                    "readonly": false,
                                                                    "value": "0"
                                                                }
                                                            ]
                                                        }
                                                    ],
                                                    "totalSize": 1
                                                }
                                            }
                                        ],
                                        "totalSize": 1
                                    },
                                    "displaySequence": 4,
                                    "isOptional": true,
                                    "isSelected": true,
                                    "pciId": "a4X1x000000DWdIEAW",
                                    "productId": "01t1x00000BwoyYAAR",
                                    "requiredCriteria": "ED_INS_ITEM_EQUIPMENT.ATT_isBrun==1"
                                },
                                {
                                    "Family": "ElectroDepot",
                                    "Id": "01t1x00000BwoyOAAR",
                                    "IsConfigurable__c": true,
                                    "IsRecommended__c": false,
                                    "LineOfBusiness__c": "Property & Casualty",
                                    "Name": "ELECTRO-MÉNAGER",
                                    "ProductCode": "ED_COV_ELECTROMENAGER",
                                    "RecordTypeName__c": "CoverageSpec",
                                    "SubType__c": "MultiProduct",
                                    "Term__c": "Annual",
                                    "Type__c": "Affinity",
                                    "attributeCategories": {
                                        "records": [
                                            {
                                                "Code__c": "ATT_CAT_PANNE",
                                                "Name": "Panne",
                                                "displaySequence": 30,
                                                "id": "a0U1x000007SuY1EAK",
                                                "productAttributes": {
                                                    "records": [
                                                        {
                                                            "attributeId": "a0V1x000002upU7EAI",
                                                            "cloneable": true,
                                                            "code": "ATT_Limite",
                                                            "dataType": "text",
                                                            "disabled": false,
                                                            "displaySequence": 0,
                                                            "filterable": true,
                                                            "hasRules": false,
                                                            "hidden": true,
                                                            "inputType": "radio",
                                                            "isNotTranslatable": false,
                                                            "label": "Panne",
                                                            "multiselect": false,
                                                            "readonly": false,
                                                            "required": false,
                                                            "userValues": "0",
                                                            "values": [
                                                                {
                                                                    "disabled": false,
                                                                    "id": "0",
                                                                    "label": "3000 €",
                                                                    "readonly": false,
                                                                    "value": "3000"
                                                                },
                                                                {
                                                                    "disabled": false,
                                                                    "id": "1",
                                                                    "label": "0",
                                                                    "readonly": false,
                                                                    "value": "0"
                                                                }
                                                            ]
                                                        }
                                                    ],
                                                    "totalSize": 1
                                                }
                                            }
                                        ],
                                        "totalSize": 1
                                    },
                                    "displaySequence": 6,
                                    "isOptional": true,
                                    "isSelected": false,
                                    "pciId": "a4X1x000000DWdSEAW",
                                    "productId": "01t1x00000BwoyOAAR",
                                    "requiredCriteria": "ED_INS_ITEM_EQUIPMENT.ATT_isBlanc==1"
                                },
                                {
                                    "Family": "ElectroDepot",
                                    "Id": "01t1x00000BwovCAAR",
                                    "IsConfigurable__c": true,
                                    "IsRecommended__c": false,
                                    "LineOfBusiness__c": "Property & Casualty",
                                    "Name": "Equipment",
                                    "ProductCode": "ED_INS_ITEM_EQUIPMENT",
                                    "RecordTypeName__c": "InsuredItemSpec",
                                    "SubType__c": "MultiProduct",
                                    "Term__c": "Annual",
                                    "Type__c": "Affinity",
                                    "attributeCategories": {
                                        "records": [
                                            {
                                                "Code__c": "ATT_CAT_EQUIPMENT",
                                                "Name": "Equipement",
                                                "displaySequence": 10,
                                                "id": "a0U1x000007SuVvEAK",
                                                "productAttributes": {
                                                    "records": [
                                                        {
                                                            "attributeId": "a0V1x000002upTEEAY",
                                                            "cloneable": true,
                                                            "code": "ATT_Equipment_cat",
                                                            "dataType": "text",
                                                            "disabled": false,
                                                            "displaySequence": 0,
                                                            "filterable": true,
                                                            "hasRules": false,
                                                            "hidden": false,
                                                            "inputType": "text",
                                                            "isNotTranslatable": false,
                                                            "label": "Categorie equipement ED",
                                                            "multiselect": false,
                                                            "readonly": false,
                                                            "required": false,
                                                            "userValues": null,
                                                            "values": [
                                                                {
                                                                    "disabled": false,
                                                                    "readonly": false
                                                                }
                                                            ]
                                                        },
                                                        {
                                                            "attributeId": "a0V1x000002upT9EAI",
                                                            "cloneable": true,
                                                            "code": "ATT_Gamme_OGI",
                                                            "dataType": "text",
                                                            "disabled": false,
                                                            "displaySequence": 1,
                                                            "filterable": true,
                                                            "hasRules": false,
                                                            "hidden": false,
                                                            "inputType": "text",
                                                            "isNotTranslatable": false,
                                                            "label": "Gamme produit OGI",
                                                            "multiselect": false,
                                                            "readonly": false,
                                                            "required": false,
                                                            "userValues": null,
                                                            "values": [
                                                                {
                                                                    "disabled": false,
                                                                    "readonly": false
                                                                }
                                                            ]
                                                        },
                                                        {
                                                            "attributeId": "a0V1x000002upTTEAY",
                                                            "cloneable": true,
                                                            "code": "ATT_isBlanc",
                                                            "dataType": "text",
                                                            "disabled": false,
                                                            "displaySequence": 2,
                                                            "filterable": true,
                                                            "hasRules": false,
                                                            "hidden": false,
                                                            "inputType": "checkbox",
                                                            "isNotTranslatable": false,
                                                            "label": "Blanc",
                                                            "multiselect": false,
                                                            "readonly": false,
                                                            "required": false,
                                                            "userValues": false,
                                                            "values": [
                                                                {
                                                                    "disabled": false,
                                                                    "readonly": false
                                                                }
                                                            ]
                                                        },
                                                        {
                                                            "attributeId": "a0V1x000002upTYEAY",
                                                            "cloneable": true,
                                                            "code": "ATT_isBrun",
                                                            "dataType": "text",
                                                            "disabled": false,
                                                            "displaySequence": 3,
                                                            "filterable": true,
                                                            "hasRules": false,
                                                            "hidden": false,
                                                            "inputType": "checkbox",
                                                            "isNotTranslatable": false,
                                                            "label": "Brun",
                                                            "multiselect": false,
                                                            "readonly": false,
                                                            "required": false,
                                                            "userValues": false,
                                                            "values": [
                                                                {
                                                                    "disabled": false,
                                                                    "readonly": false
                                                                }
                                                            ]
                                                        },
                                                        {
                                                            "attributeId": "a0V1x000002upTiEAI",
                                                            "cloneable": true,
                                                            "code": "ATT_isGris",
                                                            "dataType": "text",
                                                            "disabled": false,
                                                            "displaySequence": 4,
                                                            "filterable": true,
                                                            "hasRules": false,
                                                            "hidden": false,
                                                            "inputType": "checkbox",
                                                            "isNotTranslatable": false,
                                                            "label": "Gris",
                                                            "multiselect": false,
                                                            "readonly": false,
                                                            "required": false,
                                                            "userValues": false,
                                                            "values": [
                                                                {
                                                                    "disabled": false,
                                                                    "readonly": false
                                                                }
                                                            ]
                                                        }
                                                    ],
                                                    "totalSize": 5
                                                }
                                            },
                                            {
                                                "Code__c": "ATT_CAT_OFFER",
                                                "Name": "Offre",
                                                "displaySequence": 20,
                                                "id": "a0U1x000007SuXwEAK",
                                                "productAttributes": {
                                                    "records": [
                                                        {
                                                            "attributeId": "a0V1x000002upTZEAY",
                                                            "cloneable": true,
                                                            "code": "ATT_FORMULE",
                                                            "dataType": "text",
                                                            "disabled": false,
                                                            "displaySequence": 5,
                                                            "filterable": true,
                                                            "hasRules": false,
                                                            "hidden": true,
                                                            "inputType": "text",
                                                            "isNotTranslatable": false,
                                                            "label": "Formule",
                                                            "multiselect": false,
                                                            "readonly": false,
                                                            "required": false,
                                                            "userValues": null,
                                                            "values": [
                                                                {
                                                                    "disabled": false,
                                                                    "readonly": false
                                                                }
                                                            ]
                                                        }
                                                    ],
                                                    "totalSize": 1
                                                }
                                            }
                                        ],
                                        "totalSize": 2
                                    },
                                    "displaySequence": 1,
                                    "maxQuantity": 1,
                                    "minQuantity": 1,
                                    "pciId": "a4X1x000000DWY4EAO",
                                    "productId": "01t1x00000BwovCAAR"
                                }
                            ],
                            "totalSize": 4
                        },
                        "currencyCode": "EUR",
                        "currencySymbol": "€",
                        "displaySequence": -1,
                        "priceDiff": 5.5,
                        "productId": "01t1x00000BwpFgAAJ",
                        "taxAmount": 0.495,
                        "taxesAndFees": [
                            {
                                "Amount__c": null,
                                "Condition__c": null,
                                "Id": "a4J1x000000Dn1wEAC",
                                "IsRefundable__c": true,
                                "JurisdictionId__c": "a361x000000DrqCAAS",
                                "Name": "TCA",
                                "Percent__c": 9,
                                "ProcedureFormula__c": null,
                                "ProcedureName__c": null,
                                "ProcedureSource__c": null,
                                "RatingType__c": "Percent",
                                "Type__c": "Tax",
                                "calculatedAmount": 0.495,
                                "currencyCode": "EUR",
                                "currencySymbol": "€"
                            }
                        ],
                        "totalSumInsured": 66,
                        "totalTaxFeeAmount": 0.495
                    }
                ],
                "totalSize": null
            }
        },
        "FormulaNewAsset": 0
    },
    "StepMandatGenerationOS02": null,
    "StepPaymentIBANOS02": null,
    "StepYousignSignatureOS01": null,
    "TypeAsset": "Affaire nouvelle",
    "assetStatus": "xx",
    "billingFrequency": "Monthly",
    "edEquipmentCategory1": 944405,
    "edEquipmentCategory2": 944408,
    "edEquipmentCategory3": 0,
    "effectiveDate": "2021-03-29T22:00:00.000Z",
    "equipmentCategoryList": [
        944405,
        944408
    ],
    "juridictionId": "a361x000000DrqCAAS",
    "nameJuridiction": "FR",
    "numMagasin": "F396",
    "orderChannel": "",
    "productCode": "ED_ELECTROSUR",
    "statutValide": "03",
    "timeStamp": "2021-03-30T17:59:11.112Z",
    "userCurrencyCode": "EUR",
    "userId": "0057R00000AtM4CQAV",
    "userName": "gkhouiy@verspieren.vlocity.com.dev",
    "userProfile": "System Administrator",
    "userTimeZone": "120"
}