{
    "Account_1": [
        {
            "BillingCity": "ville",
            "BillingCountry": "France",
            "BillingPostalCode": "75006",
            "BillingStreet": "12 rue ttt",
            "FirstName": "TestAMOUNT",
            "Id": "0011x00001FQGeNAAX",
            "LastName": "TestAMOUNT",
            "MerchantcustomerId__c": "33ESJD",
            "OptInConsent__c": true,
            "OptInPartner__c": false,
            "PersonBirthdate": "2000-12-31",
            "PersonEmail": "TestAMOUNT@tt.com",
            "RecordTypeId": "0121x000001jNhiAAE",
            "Salutation": "M",
            "UpsertSuccess": true
        }
    ],
    "BankDebitDay": 25,
    "Code produits OGI": "BRBLG",
    "Cof_Ext_OGICustomerID": "2572",
    "Cof_OGI_code": "2572",
    "CreatedAccount": "0011x00001FQGeNAAX",
    "CreatedOpportunity": "0061x00000JqQUNAA3",
    "DateNaissanceCof": 20001231,
    "ED_Ext_OGIDistributorID": "2553",
    "ED_OGI_code": "2553",
    "EternalContributorCode": "",
    "ExtDistributorOrderId": "cmd123456",
    "ExtDistributorSellerId_C": "ED-AB123",
    "ExtMerchantTransactionId": "FAC128224",
    "Ext_DistributorCustomerID": "33ESJD",
    "Formule": "Triple",
    "Id": "0011x00001FQGeNAAX",
    "Label": "BRUN BLANC GRIS",
    "Opportunity_2": [
        {
            "AccountId": "0011x00001FQGeNAAX",
            "CloseDate": "2021-03-25",
            "Id": "0061x00000JqQUNAA3",
            "Name": "OPT-TestAMOUNTTestAMOUNTThu Mar 25 00:00:00 GMT 2021",
            "StageName": "Qualification",
            "UpsertSuccess": true
        }
    ],
    "ParentAccountId": "0011x00001DaXL3AAN",
    "PartnerAccountId": "0011x00001DaXolAAF",
    "SalesChannel": "Magasin",
    "StepContolIsNotNexClientOS02": {
    },
    "StepCustomerIdentificationOS02": {
        "BlckIdentityPersonOS02": {
            "BlckAddress": {
                "TxtCityOS02": "ville",
                "TxtCountryOS02": "France",
                "TxtPostalCodeOS02": "75006",
                "TxtStreetOS02": "12 rue ttt"
            },
            "BlckPaymentMethod": {
                "SelectPaymentMethod": "IBAN"
            },
            "CheckboxOptInMarketingOS02": false,
            "CheckboxOptInRGPDOS02": true,
            "DateBirthDateOS02": "2000-12-31",
            "EmailCustomerEmailOS02": "TestAMOUNT@tt.com",
            "SelectSalutationOS02": "M",
            "TxtFistNameOS02": "TestAMOUNT",
            "TxtLastNameOS02": "TestAMOUNT"
        },
        "BlckOfferOS02": {
            "productConfig": {
                "records": [
                    {
                        "CalculatedPriceData": {
                            "ID": "0",
                            "vspCMEDTarif__commissionCofidis": 1.07,
                            "vspCMEDTarif__commissionCofidisAnnuel": 12.84,
                            "vspCMEDTarif__commissionED": 8.22,
                            "vspCMEDTarif__commissionEDAnnuel": 98.64,
                            "vspCMEDTarif__commissionVSP": 2.13,
                            "vspCMEDTarif__commissionVSPAnnuel": 25.56,
                            "vspCMEDTarif__montantHT": 13.76,
                            "vspCMEDTarif__montantHTAnnuel": 165.12,
                            "vspCMEDTarif__partSeyna": 2.34,
                            "vspCMEDTarif__partSeynaAnnuel": 28.08
                        },
                        "Description": "Cette garantie s'applique à TOUS les appareils neufs ou reconditionnés de moins de 3 ans achetés chez Electro dépôt ou dans une autre enseigne.",
                        "Family": "ElectroDepot",
                        "Id": "01t1x00000BwpFgAAJ",
                        "IsConfigurable__c": true,
                        "IsRecommended__c": false,
                        "LineOfBusiness__c": "Property & Casualty",
                        "Name": "Garantie ELECTROSUR",
                        "Price": 13.76,
                        "PricingFormula__c": "vspCMEDTarif__montantHT",
                        "ProductCode": "ED_ELECTROSUR",
                        "RecordTypeName__c": "Product",
                        "SubType__c": "MultiProduct",
                        "Term__c": "Monthly",
                        "TotalInsuredFormula__c": "vspCMEDTarif__montantHT*12",
                        "Type__c": "Affinity",
                        "childProducts": {
                            "records": [
                                {
                                    "Family": "ElectroDepot",
                                    "Id": "01t1x00000Bwp67AAB",
                                    "IsConfigurable__c": false,
                                    "IsRecommended__c": false,
                                    "Name": "MULTIMÉDIA",
                                    "ProductCode": "ED_COV_MULTIMEDIA",
                                    "RecordTypeName__c": "CoverageSpec",
                                    "Term__c": "Annual",
                                    "displaySequence": 3,
                                    "isOptional": false,
                                    "isSelected": true,
                                    "pciId": "a4X1x000000DWYKEA4",
                                    "productId": "01t1x00000Bwp67AAB",
                                    "requiredCriteria": "ED_INS_ITEM_EQUIPMENT.ATT_isGris==1"
                                },
                                {
                                    "Family": "ElectroDepot",
                                    "Id": "01t1x00000BwoyYAAR",
                                    "IsConfigurable__c": false,
                                    "IsRecommended__c": false,
                                    "LineOfBusiness__c": "Property & Casualty",
                                    "Name": "IMAGE ET SON",
                                    "ProductCode": "ED_COV_IMAGESON",
                                    "RecordTypeName__c": "CoverageSpec",
                                    "SubType__c": "MultiProduct",
                                    "Term__c": "Annual",
                                    "Type__c": "Affinity",
                                    "displaySequence": 2,
                                    "isOptional": false,
                                    "isSelected": true,
                                    "pciId": "a4X1x000000DWYJEA4",
                                    "productId": "01t1x00000BwoyYAAR",
                                    "requiredCriteria": "ED_INS_ITEM_EQUIPMENT.ATT_isBrun==1"
                                },
                                {
                                    "Family": "ElectroDepot",
                                    "Id": "01t1x00000BwoyOAAR",
                                    "IsConfigurable__c": false,
                                    "IsRecommended__c": false,
                                    "LineOfBusiness__c": "Property & Casualty",
                                    "Name": "ELECTRO-MÉNAGER",
                                    "ProductCode": "ED_COV_ELECTROMENAGER",
                                    "RecordTypeName__c": "CoverageSpec",
                                    "SubType__c": "MultiProduct",
                                    "Term__c": "Annual",
                                    "Type__c": "Affinity",
                                    "displaySequence": 1,
                                    "isOptional": false,
                                    "isSelected": true,
                                    "pciId": "a4X1x000000DWYIEA4",
                                    "productId": "01t1x00000BwoyOAAR",
                                    "requiredCriteria": "ED_INS_ITEM_EQUIPMENT.ATT_isBlanc==1"
                                },
                                {
                                    "Family": "ElectroDepot",
                                    "Id": "01t1x00000BwovCAAR",
                                    "IsConfigurable__c": false,
                                    "IsRecommended__c": false,
                                    "LineOfBusiness__c": "Property & Casualty",
                                    "Name": "Equipment",
                                    "ProductCode": "ED_INS_ITEM_EQUIPMENT",
                                    "RecordTypeName__c": "InsuredItemSpec",
                                    "SubType__c": "MultiProduct",
                                    "Term__c": "Annual",
                                    "Type__c": "Affinity",
                                    "displaySequence": 1,
                                    "maxQuantity": 1,
                                    "minQuantity": 1,
                                    "pciId": "a4X1x000000DWY4EAO",
                                    "productId": "01t1x00000BwovCAAR"
                                }
                            ],
                            "totalSize": 4
                        },
                        "currencyCode": "EUR",
                        "currencySymbol": "€",
                        "displaySequence": -1,
                        "productId": "01t1x00000BwpFgAAJ",
                        "taxAmount": 1.2384,
                        "taxesAndFees": [
                            {
                                "Amount__c": null,
                                "Condition__c": null,
                                "Id": "a4J1x000000Dn1wEAC",
                                "IsRefundable__c": true,
                                "JurisdictionId__c": "a361x000000DrqCAAS",
                                "Name": "TCA",
                                "Percent__c": 9,
                                "ProcedureFormula__c": null,
                                "ProcedureName__c": null,
                                "ProcedureSource__c": null,
                                "RatingType__c": "Percent",
                                "Type__c": "Tax",
                                "calculatedAmount": 1.2384,
                                "currencyCode": "EUR",
                                "currencySymbol": "€"
                            }
                        ],
                        "totalSumInsured": 165.12,
                        "totalTaxFeeAmount": 1.2384
                    }
                ],
                "totalSize": 1
            }
        }
    },
    "StepMandatGenerationOS02": null,
    "StepPaymentIBANOS02": {
        "CheckboxProcessPapierOS02": false,
        "TxtBankAccountHolderOS02": "TestAMOUNT TestAMOUNT",
        "TxtBankAccountNumberOS02": "FR7630004000031234567890143"
    },
    "StepYousignSignatureOS01": {
    },
    "TypeAsset": "Affaire nouvelle",
    "apporteurs": [
        {
            "date_fin_retro_commission": "",
            "mnt_commission": 8.22,
            "mode_calcul_commission": "F",
            "num_apporteur_verspieren": "2553",
            "taux_commission_apporteur": "0"
        },
        {
            "date_fin_retro_commission": "",
            "mnt_commission": 1.07,
            "mode_calcul_commission": "F",
            "num_apporteur_verspieren": "2572",
            "taux_commission_apporteur": "0"
        }
    ],
    "assetStatus": "xx",
    "billingFrequency": "Monthly",
    "blanc": 1,
    "brun": 1,
    "contrat": {
        "code_fractionnement": "1",
        "date_anniversaire_jjmm": "2403",
        "date_effet": "2021-03-25",
        "date_fin_contrat": "",
        "id_contrat_adherent": ""
    },
    "contrat_mere": "0015033849",
    "customerCheckIfAssetExist": false,
    "customerExist": true,
    "detail_garanties_prime_annuelle": [
        {
            "code_compagnie_verspieren": "359",
            "code_garantie": "PANNE",
            "mnt_commission": 25.56,
            "mnt_garantie_ht": 165.12,
            "mnt_garantie_ttc": 180,
            "num_convention": "LEKKS2",
            "ref_convention": "RéfConvetion",
            "taux_taxe": 14.88
        }
    ],
    "detail_garanties_prime_periode": [
        {
            "code_compagnie_verspieren": "359",
            "code_garantie": "PANNE",
            "mnt_commission": 2.13,
            "mnt_garantie_ht": 13.76,
            "mnt_garantie_ttc": 15,
            "num_convention": "LEKKS2",
            "ref_convention": "RéfConvetion",
            "taux_taxe": 1.24
        }
    ],
    "edEquipmentCategory1": 944405,
    "edEquipmentCategory2": 944408,
    "edEquipmentCategory3": 944407,
    "effectiveDate": "2021-03-24T23:00:00.000Z",
    "equipmentCategoryList": [
        944405,
        944408,
        944407
    ],
    "garantie_produit": {
        "code_produit_verspieren": "BRBLG",
        "id_garantie_rattachee": ""
    },
    "general": {
        "canal_de_vente": "F396",
        "code_action": "01",
        "code_motif": "01",
        "detail_souscription": {
            "bic": "",
            "bureau_distributeur": "",
            "civilite": "M",
            "code_pays": "FRA",
            "code_postal": "75006",
            "commune": "ville",
            "complement_identitie": "",
            "complement_voie": "",
            "date_naissance": "",
            "email": "TestAMOUNT@tt.com",
            "iban": "FR7630004000031234567890143",
            "nom": "TestAMOUNT",
            "nom_pays": "France",
            "num_adherent": "",
            "prenom": "TestAMOUNT",
            "raison_sociale": "",
            "telephone_domicile": "",
            "telephone_mobile": "",
            "voie": "12 rue ttt"
        },
        "id_contrat_mere": "0015033849",
        "id_externe_client_001": "0011x00001FQGeNAAX",
        "id_externe_client_002": "REFCTED",
        "id_externe_contrat_001": "0Q01x000001O17bCAC",
        "id_externe_contrat_002": "cmd123456",
        "mode_paiement": "02"
    },
    "gris": 1,
    "numMagasin": "F396",
    "num_client": "410512",
    "num_contrat": "095109131",
    "num_quittance": "003902482",
    "prime_annuelle": {
        "mnt_frais_gestion": "0",
        "mnt_taxe_attentats": "0"
    },
    "productCode": "ED_ELECTROSUR",
    "quoteId": "0Q01x000001O17bCAC",
    "quoteJson": {
        "CalculatedPriceData": {
            "ID": "0",
            "vspCMEDTarif__commissionCofidis": 1.07,
            "vspCMEDTarif__commissionCofidisAnnuel": 12.84,
            "vspCMEDTarif__commissionED": 8.22,
            "vspCMEDTarif__commissionEDAnnuel": 98.64,
            "vspCMEDTarif__commissionVSP": 2.13,
            "vspCMEDTarif__commissionVSPAnnuel": 25.56,
            "vspCMEDTarif__montantHT": 13.76,
            "vspCMEDTarif__montantHTAnnuel": 165.12,
            "vspCMEDTarif__partSeyna": 2.34,
            "vspCMEDTarif__partSeynaAnnuel": 28.08
        },
        "Description": "Cette garantie s'applique à TOUS les appareils neufs ou reconditionnés de moins de 3 ans achetés chez Electro dépôt ou dans une autre enseigne.",
        "Family": "ElectroDepot",
        "IsConfigurable__c": true,
        "IsRecommended__c": false,
        "LineOfBusiness__c": "Property & Casualty",
        "Name": "Garantie ELECTROSUR",
        "Price": 13.76,
        "PricingFormula__c": "vspCMEDTarif__montantHT",
        "ProductCode": "ED_ELECTROSUR",
        "SubType__c": "MultiProduct",
        "Term__c": "Monthly",
        "TotalInsuredFormula__c": "vspCMEDTarif__montantHT*12",
        "Type__c": "Affinity",
        "additionalFields": {
            "Name": "QUTED-Thu Mar 25 00:00:00 GMT 2021",
            "Status": "Submitted"
        },
        "coverages": {
            "ED_COV_ELECTROMENAGER": {
                "Id": "01t1x00000BwoyOAAR",
                "Price": null,
                "ProductCode": "ED_COV_ELECTROMENAGER",
                "isOptional": false,
                "isSelected": true,
                "pciId": "a4X1x000000DWYIEA4",
                "productId": "01t1x00000BwoyOAAR",
                "productName": "ELECTRO-MÉNAGER",
                "recordType": "CoverageSpec",
                "selectedValues": {
                }
            },
            "ED_COV_IMAGESON": {
                "Id": "01t1x00000BwoyYAAR",
                "Price": null,
                "ProductCode": "ED_COV_IMAGESON",
                "isOptional": false,
                "isSelected": true,
                "pciId": "a4X1x000000DWYJEA4",
                "productId": "01t1x00000BwoyYAAR",
                "productName": "IMAGE ET SON",
                "recordType": "CoverageSpec",
                "selectedValues": {
                }
            },
            "ED_COV_MULTIMEDIA": {
                "Id": "01t1x00000Bwp67AAB",
                "Price": null,
                "ProductCode": "ED_COV_MULTIMEDIA",
                "isOptional": false,
                "isSelected": true,
                "pciId": "a4X1x000000DWYKEA4",
                "productId": "01t1x00000Bwp67AAB",
                "productName": "MULTIMÉDIA",
                "recordType": "CoverageSpec",
                "selectedValues": {
                }
            }
        },
        "currencyCode": "EUR",
        "currencySymbol": "€",
        "effectiveDate": "2021-03-25",
        "insuredItemSpec": {
            "ED_INS_ITEM_EQUIPMENT": {
                "Id": "01t1x00000BwovCAAR",
                "Price": null,
                "ProductCode": "ED_INS_ITEM_EQUIPMENT",
                "pciId": "a4X1x000000DWY4EAO",
                "productId": "01t1x00000BwovCAAR",
                "productName": "Equipment",
                "recordType": "InsuredItemSpec",
                "selectedValues": {
                }
            }
        },
        "insuredItems": {
            "ED_INS_ITEM_EQUIPMENT": {
                "ProductCode": "ED_INS_ITEM_EQUIPMENT",
                "isParent": "True",
                "pciId": "a4X1x000000DWY4EAO",
                "productCode": "ED_INS_ITEM_EQUIPMENT",
                "productName": "Equipment"
            }
        },
        "opportunityId": "0061x00000JqQUNAA3",
        "productId": "01t1x00000BwpFgAAJ",
        "recordType": "Product",
        "selectedValues": {
        },
        "taxAmount": 1.2384,
        "taxesAndFees": [
            {
                "Amount__c": null,
                "Condition__c": null,
                "Id": "a4J1x000000Dn1wEAC",
                "IsRefundable__c": true,
                "JurisdictionId__c": "a361x000000DrqCAAS",
                "Name": "TCA",
                "Percent__c": 9,
                "ProcedureFormula__c": null,
                "ProcedureName__c": null,
                "ProcedureSource__c": null,
                "RatingType__c": "Percent",
                "Type__c": "Tax",
                "calculatedAmount": 1.2384,
                "currencyCode": "EUR",
                "currencySymbol": "€"
            }
        ],
        "totalSumInsured": 165.12,
        "totalTaxFeeAmount": 1.2384
    },
    "response": {
        "num_client": "410512",
        "num_contrat": "095109131",
        "num_quittance": "003902482",
        "rum": "025043775"
    },
    "responseType": "SObject",
    "rum": "025043775",
    "statutValide": "03",
    "storeCodeNumber": "F396",
    "storeName": "ELECTRO DEPOT AMIENS",
    "timeStamp": "2021-03-25T09:04:32.290Z",
    "url_signature": "https://staging-app.yousign.com/procedure/sign?members=/members/ffc64182-3bd7-44d9-bd79-1819d746473a",
    "userCurrencyCode": "EUR",
    "userId": "0057R00000AtM4CQAV",
    "userInputs": {
        "ED_INS_ITEM_EQUIPMENT.ATT_FORMULE": "Triple",
        "ED_INS_ITEM_EQUIPMENT.ATT_isBlanc": 1,
        "ED_INS_ITEM_EQUIPMENT.ATT_isBrun": 1,
        "ED_INS_ITEM_EQUIPMENT.ATT_isGris": 1,
        "ED_PROD_Tranquilite.ATT_FORMULE": "Triple"
    },
    "userName": "gkhouiy@verspieren.vlocity.com.dev",
    "userProfile": "Administrateur système",
    "userTimeZone": "60"
}