[
    {
        "%vlocity_namespace%__DomainObjectAPIName__c": "Formula",
        "%vlocity_namespace%__DomainObjectCreationOrder__c": 0,
        "%vlocity_namespace%__DomainObjectFieldAPIName__c": "Formula",
        "%vlocity_namespace%__FormulaOrder__c": 1,
        "%vlocity_namespace%__FormulaResultPath__c": "AssetName",
        "%vlocity_namespace%__Formula__c": "CONCAT(\"VSP_ED_ELECTROSUR_MOB_\",COUNTQUERY(\"select count() from Asset\"))",
        "%vlocity_namespace%__IsDisabled__c": false,
        "%vlocity_namespace%__IsRequiredForUpsert__c": false,
        "%vlocity_namespace%__MapId__c": "vspDRTSetElementforPolicyMobCustoma1d9E0000028dSIQAYItem0",
        "%vlocity_namespace%__UpsertKey__c": false,
        "Name": "vspDRTSetElementforPolicyMob",
        "VlocityDataPackType": "SObject",
        "VlocityRecordSObjectType": "%vlocity_namespace%__DRMapItem__c"
    },
    {
        "%vlocity_namespace%__DomainObjectAPIName__c": "Formula",
        "%vlocity_namespace%__DomainObjectCreationOrder__c": 0,
        "%vlocity_namespace%__DomainObjectFieldAPIName__c": "Formula",
        "%vlocity_namespace%__FormulaOrder__c": 2,
        "%vlocity_namespace%__FormulaResultPath__c": "AnnualPermiumTTC",
        "%vlocity_namespace%__Formula__c": "(StepCustomerIdentificationOS02:BlckOfferOS02:productConfig:records:Price+ROUND(StepCustomerIdentificationOS02:BlckOfferOS02:productConfig:records:taxAmount,2))*12",
        "%vlocity_namespace%__IsDisabled__c": false,
        "%vlocity_namespace%__IsRequiredForUpsert__c": false,
        "%vlocity_namespace%__MapId__c": "vspDRTSetElementforPolicyMobCustoma1d9E0000028dSIQAYItem1",
        "%vlocity_namespace%__UpsertKey__c": false,
        "Name": "vspDRTSetElementforPolicyMob",
        "VlocityDataPackType": "SObject",
        "VlocityRecordSObjectType": "%vlocity_namespace%__DRMapItem__c"
    },
    {
        "%vlocity_namespace%__DomainObjectAPIName__c": "Formula",
        "%vlocity_namespace%__DomainObjectCreationOrder__c": 0,
        "%vlocity_namespace%__DomainObjectFieldAPIName__c": "Formula",
        "%vlocity_namespace%__FormulaOrder__c": 3,
        "%vlocity_namespace%__FormulaResultPath__c": "ExpirationDate",
        "%vlocity_namespace%__Formula__c": "ADDDAY(ADDYEAR(effectiveDate,1),-1)",
        "%vlocity_namespace%__IsDisabled__c": false,
        "%vlocity_namespace%__IsRequiredForUpsert__c": false,
        "%vlocity_namespace%__MapId__c": "vspDRTSetElementforPolicyMobCustoma1d9E0000028dSIQAYItem2",
        "%vlocity_namespace%__UpsertKey__c": false,
        "Name": "vspDRTSetElementforPolicyMob",
        "VlocityDataPackType": "SObject",
        "VlocityRecordSObjectType": "%vlocity_namespace%__DRMapItem__c"
    },
    {
        "%vlocity_namespace%__DomainObjectAPIName__c": "Formula",
        "%vlocity_namespace%__DomainObjectCreationOrder__c": 0,
        "%vlocity_namespace%__DomainObjectFieldAPIName__c": "Formula",
        "%vlocity_namespace%__FormulaOrder__c": 4,
        "%vlocity_namespace%__FormulaResultPath__c": "totalAmountTTCmensuel",
        "%vlocity_namespace%__Formula__c": "StepCustomerIdentificationOS02:BlckOfferOS02:productConfig:records:Price+ROUND(StepCustomerIdentificationOS02:BlckOfferOS02:productConfig:records:taxAmount,2)",
        "%vlocity_namespace%__IsDisabled__c": false,
        "%vlocity_namespace%__IsRequiredForUpsert__c": false,
        "%vlocity_namespace%__MapId__c": "vspDRTSetElementforPolicyMobCustoma1d9E0000028dSIQAYItem3",
        "%vlocity_namespace%__UpsertKey__c": false,
        "Name": "vspDRTSetElementforPolicyMob",
        "VlocityDataPackType": "SObject",
        "VlocityRecordSObjectType": "%vlocity_namespace%__DRMapItem__c"
    },
    {
        "%vlocity_namespace%__DomainObjectAPIName__c": "json",
        "%vlocity_namespace%__DomainObjectCreationOrder__c": 1,
        "%vlocity_namespace%__DomainObjectFieldAPIName__c": "policyJson:accountId",
        "%vlocity_namespace%__InterfaceFieldAPIName__c": "CreatedAccount",
        "%vlocity_namespace%__IsDisabled__c": false,
        "%vlocity_namespace%__IsRequiredForUpsert__c": false,
        "%vlocity_namespace%__MapId__c": "vspDRTSetElementforPolicyMobCustoma1d9E0000028dSIQAYItem4",
        "%vlocity_namespace%__UpsertKey__c": false,
        "Name": "vspDRTSetElementforPolicyMob",
        "VlocityDataPackType": "SObject",
        "VlocityRecordSObjectType": "%vlocity_namespace%__DRMapItem__c"
    },
    {
        "%vlocity_namespace%__DomainObjectAPIName__c": "json",
        "%vlocity_namespace%__DomainObjectCreationOrder__c": 1,
        "%vlocity_namespace%__DomainObjectFieldAPIName__c": "policyJson:additionalFields:%vlocity_namespace%__AnnualPremium__c",
        "%vlocity_namespace%__InterfaceFieldAPIName__c": "AnnualPermiumTTC",
        "%vlocity_namespace%__IsDisabled__c": false,
        "%vlocity_namespace%__IsRequiredForUpsert__c": false,
        "%vlocity_namespace%__MapId__c": "vspDRTSetElementforPolicyMobCustoma1d9E0000028dSIQAYItem5",
        "%vlocity_namespace%__UpsertKey__c": false,
        "Name": "vspDRTSetElementforPolicyMob",
        "VlocityDataPackType": "SObject",
        "VlocityRecordSObjectType": "%vlocity_namespace%__DRMapItem__c"
    },
    {
        "%vlocity_namespace%__DomainObjectAPIName__c": "json",
        "%vlocity_namespace%__DomainObjectCreationOrder__c": 1,
        "%vlocity_namespace%__DomainObjectFieldAPIName__c": "policyJson:additionalFields:%vlocity_namespace%__BillingFrequency__c",
        "%vlocity_namespace%__InterfaceFieldAPIName__c": "billingFrequency",
        "%vlocity_namespace%__IsDisabled__c": false,
        "%vlocity_namespace%__IsRequiredForUpsert__c": false,
        "%vlocity_namespace%__MapId__c": "vspDRTSetElementforPolicyMobCustoma1d9E0000028dSIQAYItem6",
        "%vlocity_namespace%__UpsertKey__c": false,
        "Name": "vspDRTSetElementforPolicyMob",
        "VlocityDataPackType": "SObject",
        "VlocityRecordSObjectType": "%vlocity_namespace%__DRMapItem__c"
    },
    {
        "%vlocity_namespace%__DomainObjectAPIName__c": "json",
        "%vlocity_namespace%__DomainObjectCreationOrder__c": 1,
        "%vlocity_namespace%__DomainObjectFieldAPIName__c": "policyJson:additionalFields:%vlocity_namespace%__ExpirationDate__c",
        "%vlocity_namespace%__InterfaceFieldAPIName__c": "ExpirationDate",
        "%vlocity_namespace%__IsDisabled__c": false,
        "%vlocity_namespace%__IsRequiredForUpsert__c": false,
        "%vlocity_namespace%__MapId__c": "vspDRTSetElementforPolicyMobCustoma1d9E0000028dSIQAYItem7",
        "%vlocity_namespace%__UpsertKey__c": false,
        "Name": "vspDRTSetElementforPolicyMob",
        "VlocityDataPackType": "SObject",
        "VlocityRecordSObjectType": "%vlocity_namespace%__DRMapItem__c"
    },
    {
        "%vlocity_namespace%__DomainObjectAPIName__c": "json",
        "%vlocity_namespace%__DomainObjectCreationOrder__c": 1,
        "%vlocity_namespace%__DomainObjectFieldAPIName__c": "policyJson:additionalFields:%vlocity_namespace%__TotalAmount__c",
        "%vlocity_namespace%__InterfaceFieldAPIName__c": "totalAmountTTCmensuel",
        "%vlocity_namespace%__IsDisabled__c": true,
        "%vlocity_namespace%__IsRequiredForUpsert__c": false,
        "%vlocity_namespace%__MapId__c": "vspDRTSetElementforPolicyMobCustoma1d9E0000028dSIQAYItem8",
        "%vlocity_namespace%__UpsertKey__c": false,
        "Name": "vspDRTSetElementforPolicyMob",
        "VlocityDataPackType": "SObject",
        "VlocityRecordSObjectType": "%vlocity_namespace%__DRMapItem__c"
    },
    {
        "%vlocity_namespace%__DomainObjectAPIName__c": "json",
        "%vlocity_namespace%__DomainObjectCreationOrder__c": 1,
        "%vlocity_namespace%__DomainObjectFieldAPIName__c": "policyJson:additionalFields:AssetType__c",
        "%vlocity_namespace%__InterfaceFieldAPIName__c": "TypeAsset",
        "%vlocity_namespace%__IsDisabled__c": false,
        "%vlocity_namespace%__IsRequiredForUpsert__c": false,
        "%vlocity_namespace%__MapId__c": "vspDRTSetElementforPolicyMobCustoma1d9E0000028dSIQAYItem9",
        "%vlocity_namespace%__UpsertKey__c": false,
        "Name": "vspDRTSetElementforPolicyMob",
        "VlocityDataPackType": "SObject",
        "VlocityRecordSObjectType": "%vlocity_namespace%__DRMapItem__c"
    },
    {
        "%vlocity_namespace%__DomainObjectAPIName__c": "json",
        "%vlocity_namespace%__DomainObjectCreationOrder__c": 1,
        "%vlocity_namespace%__DomainObjectFieldAPIName__c": "policyJson:additionalFields:BankDebitDay__c",
        "%vlocity_namespace%__InterfaceFieldAPIName__c": "BankDebitDay",
        "%vlocity_namespace%__IsDisabled__c": false,
        "%vlocity_namespace%__IsRequiredForUpsert__c": false,
        "%vlocity_namespace%__MapId__c": "vspDRTSetElementforPolicyMobCustoma1d9E0000028dSIQAYItem10",
        "%vlocity_namespace%__UpsertKey__c": false,
        "Name": "vspDRTSetElementforPolicyMob",
        "VlocityDataPackType": "SObject",
        "VlocityRecordSObjectType": "%vlocity_namespace%__DRMapItem__c"
    },
    {
        "%vlocity_namespace%__DomainObjectAPIName__c": "json",
        "%vlocity_namespace%__DomainObjectCreationOrder__c": 1,
        "%vlocity_namespace%__DomainObjectFieldAPIName__c": "policyJson:additionalFields:CodeProduitTelephone__c",
        "%vlocity_namespace%__InterfaceFieldAPIName__c": "StepCustomerIdentificationOS02:BlckProduitAssureOS03:TxtMobileProductCodeOS03",
        "%vlocity_namespace%__IsDisabled__c": false,
        "%vlocity_namespace%__IsRequiredForUpsert__c": false,
        "%vlocity_namespace%__MapId__c": "vspDRTSetElementforPolicyMobCustom8483",
        "%vlocity_namespace%__UpsertKey__c": false,
        "Name": "vspDRTSetElementforPolicyMob",
        "VlocityDataPackType": "SObject",
        "VlocityRecordSObjectType": "%vlocity_namespace%__DRMapItem__c"
    },
    {
        "%vlocity_namespace%__DomainObjectAPIName__c": "json",
        "%vlocity_namespace%__DomainObjectCreationOrder__c": 1,
        "%vlocity_namespace%__DomainObjectFieldAPIName__c": "policyJson:additionalFields:ExtContRetrocedAmount__c",
        "%vlocity_namespace%__InterfaceFieldAPIName__c": "StepCustomerIdentificationOS02:BlckOfferOS02:productConfig:records:CalculatedPriceData:vspCMEDTarifMobile__commissionED",
        "%vlocity_namespace%__IsDisabled__c": false,
        "%vlocity_namespace%__IsRequiredForUpsert__c": false,
        "%vlocity_namespace%__MapId__c": "vspDRTSetElementforPolicyMobCustoma1d9E0000028dSIQAYItem11",
        "%vlocity_namespace%__UpsertKey__c": false,
        "Name": "vspDRTSetElementforPolicyMob",
        "VlocityDataPackType": "SObject",
        "VlocityRecordSObjectType": "%vlocity_namespace%__DRMapItem__c"
    },
    {
        "%vlocity_namespace%__DomainObjectAPIName__c": "json",
        "%vlocity_namespace%__DomainObjectCreationOrder__c": 1,
        "%vlocity_namespace%__DomainObjectFieldAPIName__c": "policyJson:additionalFields:ExtDistributorOrderId__c",
        "%vlocity_namespace%__InterfaceFieldAPIName__c": "ExtDistributorOrderId",
        "%vlocity_namespace%__IsDisabled__c": false,
        "%vlocity_namespace%__IsRequiredForUpsert__c": false,
        "%vlocity_namespace%__MapId__c": "vspDRTSetElementforPolicyMobCustoma1d9E0000028dSIQAYItem12",
        "%vlocity_namespace%__UpsertKey__c": false,
        "Name": "vspDRTSetElementforPolicyMob",
        "VlocityDataPackType": "SObject",
        "VlocityRecordSObjectType": "%vlocity_namespace%__DRMapItem__c"
    },
    {
        "%vlocity_namespace%__DomainObjectAPIName__c": "json",
        "%vlocity_namespace%__DomainObjectCreationOrder__c": 1,
        "%vlocity_namespace%__DomainObjectFieldAPIName__c": "policyJson:additionalFields:ExtDistributorSellerId_C__c",
        "%vlocity_namespace%__InterfaceFieldAPIName__c": "ExtDistributorSellerId_C",
        "%vlocity_namespace%__IsDisabled__c": false,
        "%vlocity_namespace%__IsRequiredForUpsert__c": false,
        "%vlocity_namespace%__MapId__c": "vspDRTSetElementforPolicyMobCustoma1d9E0000028dSIQAYItem13",
        "%vlocity_namespace%__UpsertKey__c": false,
        "Name": "vspDRTSetElementforPolicyMob",
        "VlocityDataPackType": "SObject",
        "VlocityRecordSObjectType": "%vlocity_namespace%__DRMapItem__c"
    },
    {
        "%vlocity_namespace%__DomainObjectAPIName__c": "json",
        "%vlocity_namespace%__DomainObjectCreationOrder__c": 1,
        "%vlocity_namespace%__DomainObjectFieldAPIName__c": "policyJson:additionalFields:ExtMerchantTransactionId__c",
        "%vlocity_namespace%__InterfaceFieldAPIName__c": "ExtMerchantTransactionId",
        "%vlocity_namespace%__IsDisabled__c": false,
        "%vlocity_namespace%__IsRequiredForUpsert__c": false,
        "%vlocity_namespace%__MapId__c": "vspDRTSetElementforPolicyMobCustoma1d9E0000028dSIQAYItem14",
        "%vlocity_namespace%__UpsertKey__c": false,
        "Name": "vspDRTSetElementforPolicyMob",
        "VlocityDataPackType": "SObject",
        "VlocityRecordSObjectType": "%vlocity_namespace%__DRMapItem__c"
    },
    {
        "%vlocity_namespace%__DomainObjectAPIName__c": "json",
        "%vlocity_namespace%__DomainObjectCreationOrder__c": 1,
        "%vlocity_namespace%__DomainObjectFieldAPIName__c": "policyJson:additionalFields:Ext_OGIContractID__c",
        "%vlocity_namespace%__InterfaceFieldAPIName__c": "num_contrat",
        "%vlocity_namespace%__IsDisabled__c": false,
        "%vlocity_namespace%__IsRequiredForUpsert__c": false,
        "%vlocity_namespace%__MapId__c": "vspDRTSetElementforPolicyMobCustoma1d9E0000028dSIQAYItem15",
        "%vlocity_namespace%__UpsertKey__c": false,
        "Name": "vspDRTSetElementforPolicyMob",
        "VlocityDataPackType": "SObject",
        "VlocityRecordSObjectType": "%vlocity_namespace%__DRMapItem__c"
    },
    {
        "%vlocity_namespace%__DomainObjectAPIName__c": "json",
        "%vlocity_namespace%__DomainObjectCreationOrder__c": 1,
        "%vlocity_namespace%__DomainObjectFieldAPIName__c": "policyJson:additionalFields:ExternalContributorCode__c",
        "%vlocity_namespace%__InterfaceFieldAPIName__c": "ED_OGI_code",
        "%vlocity_namespace%__IsDisabled__c": false,
        "%vlocity_namespace%__IsRequiredForUpsert__c": false,
        "%vlocity_namespace%__MapId__c": "vspDRTSetElementforPolicyMobCustoma1d9E0000028dSIQAYItem16",
        "%vlocity_namespace%__UpsertKey__c": false,
        "Name": "vspDRTSetElementforPolicyMob",
        "VlocityDataPackType": "SObject",
        "VlocityRecordSObjectType": "%vlocity_namespace%__DRMapItem__c"
    },
    {
        "%vlocity_namespace%__DomainObjectAPIName__c": "json",
        "%vlocity_namespace%__DomainObjectCreationOrder__c": 1,
        "%vlocity_namespace%__DomainObjectFieldAPIName__c": "policyJson:additionalFields:IMEI__c",
        "%vlocity_namespace%__InterfaceFieldAPIName__c": "StepCustomerIdentificationOS02:BlckProduitAssureOS03:TxtIMEIOS03",
        "%vlocity_namespace%__IsDisabled__c": false,
        "%vlocity_namespace%__IsRequiredForUpsert__c": false,
        "%vlocity_namespace%__MapId__c": "vspDRTSetElementforPolicyMobCustom4319",
        "%vlocity_namespace%__UpsertKey__c": false,
        "Name": "vspDRTSetElementforPolicyMob",
        "VlocityDataPackType": "SObject",
        "VlocityRecordSObjectType": "%vlocity_namespace%__DRMapItem__c"
    },
    {
        "%vlocity_namespace%__DomainObjectAPIName__c": "json",
        "%vlocity_namespace%__DomainObjectCreationOrder__c": 1,
        "%vlocity_namespace%__DomainObjectFieldAPIName__c": "policyJson:additionalFields:InsurerPart__c",
        "%vlocity_namespace%__InterfaceFieldAPIName__c": "StepCustomerIdentificationOS02:BlckOfferOS02:productConfig:records:CalculatedPriceData:vspCMEDTarifMobile__partSeyna",
        "%vlocity_namespace%__IsDisabled__c": false,
        "%vlocity_namespace%__IsRequiredForUpsert__c": false,
        "%vlocity_namespace%__MapId__c": "vspDRTSetElementforPolicyMobCustoma1d9E0000028dSIQAYItem17",
        "%vlocity_namespace%__UpsertKey__c": false,
        "Name": "vspDRTSetElementforPolicyMob",
        "VlocityDataPackType": "SObject",
        "VlocityRecordSObjectType": "%vlocity_namespace%__DRMapItem__c"
    },
    {
        "%vlocity_namespace%__DomainObjectAPIName__c": "json",
        "%vlocity_namespace%__DomainObjectCreationOrder__c": 1,
        "%vlocity_namespace%__DomainObjectFieldAPIName__c": "policyJson:additionalFields:IntContRetrocedAmount__c",
        "%vlocity_namespace%__InterfaceFieldAPIName__c": "StepCustomerIdentificationOS02:BlckOfferOS02:productConfig:records:CalculatedPriceData:vspCMEDTarifMobile__commissionCofidis",
        "%vlocity_namespace%__IsDisabled__c": false,
        "%vlocity_namespace%__IsRequiredForUpsert__c": false,
        "%vlocity_namespace%__MapId__c": "vspDRTSetElementforPolicyMobCustoma1d9E0000028dSIQAYItem18",
        "%vlocity_namespace%__UpsertKey__c": false,
        "Name": "vspDRTSetElementforPolicyMob",
        "VlocityDataPackType": "SObject",
        "VlocityRecordSObjectType": "%vlocity_namespace%__DRMapItem__c"
    },
    {
        "%vlocity_namespace%__DomainObjectAPIName__c": "json",
        "%vlocity_namespace%__DomainObjectCreationOrder__c": 1,
        "%vlocity_namespace%__DomainObjectFieldAPIName__c": "policyJson:additionalFields:IntermediateContributorCode__c",
        "%vlocity_namespace%__InterfaceFieldAPIName__c": "Cof_OGI_code",
        "%vlocity_namespace%__IsDisabled__c": false,
        "%vlocity_namespace%__IsRequiredForUpsert__c": false,
        "%vlocity_namespace%__MapId__c": "vspDRTSetElementforPolicyMobCustoma1d9E0000028dSIQAYItem19",
        "%vlocity_namespace%__UpsertKey__c": false,
        "Name": "vspDRTSetElementforPolicyMob",
        "VlocityDataPackType": "SObject",
        "VlocityRecordSObjectType": "%vlocity_namespace%__DRMapItem__c"
    },
    {
        "%vlocity_namespace%__DomainObjectAPIName__c": "json",
        "%vlocity_namespace%__DomainObjectCreationOrder__c": 1,
        "%vlocity_namespace%__DomainObjectFieldAPIName__c": "policyJson:additionalFields:Marque__c",
        "%vlocity_namespace%__InterfaceFieldAPIName__c": "StepCustomerIdentificationOS02:BlckProduitAssureOS03:TxtMarqueOS03",
        "%vlocity_namespace%__IsDisabled__c": false,
        "%vlocity_namespace%__IsRequiredForUpsert__c": false,
        "%vlocity_namespace%__MapId__c": "vspDRTSetElementforPolicyMobCustom5972",
        "%vlocity_namespace%__UpsertKey__c": false,
        "Name": "vspDRTSetElementforPolicyMob",
        "VlocityDataPackType": "SObject",
        "VlocityRecordSObjectType": "%vlocity_namespace%__DRMapItem__c"
    },
    {
        "%vlocity_namespace%__DomainObjectAPIName__c": "json",
        "%vlocity_namespace%__DomainObjectCreationOrder__c": 1,
        "%vlocity_namespace%__DomainObjectFieldAPIName__c": "policyJson:additionalFields:Modele__c",
        "%vlocity_namespace%__InterfaceFieldAPIName__c": "StepCustomerIdentificationOS02:BlckProduitAssureOS03:TxtModeleOS03",
        "%vlocity_namespace%__IsDisabled__c": false,
        "%vlocity_namespace%__IsRequiredForUpsert__c": false,
        "%vlocity_namespace%__MapId__c": "vspDRTSetElementforPolicyMobCustom5576",
        "%vlocity_namespace%__UpsertKey__c": false,
        "Name": "vspDRTSetElementforPolicyMob",
        "VlocityDataPackType": "SObject",
        "VlocityRecordSObjectType": "%vlocity_namespace%__DRMapItem__c"
    },
    {
        "%vlocity_namespace%__DomainObjectAPIName__c": "json",
        "%vlocity_namespace%__DomainObjectCreationOrder__c": 1,
        "%vlocity_namespace%__DomainObjectFieldAPIName__c": "policyJson:additionalFields:Name",
        "%vlocity_namespace%__InterfaceFieldAPIName__c": "AssetName",
        "%vlocity_namespace%__IsDisabled__c": false,
        "%vlocity_namespace%__IsRequiredForUpsert__c": false,
        "%vlocity_namespace%__MapId__c": "vspDRTSetElementforPolicyMobCustoma1d9E0000028dSIQAYItem20",
        "%vlocity_namespace%__UpsertKey__c": false,
        "Name": "vspDRTSetElementforPolicyMob",
        "VlocityDataPackType": "SObject",
        "VlocityRecordSObjectType": "%vlocity_namespace%__DRMapItem__c"
    },
    {
        "%vlocity_namespace%__DomainObjectAPIName__c": "json",
        "%vlocity_namespace%__DomainObjectCreationOrder__c": 1,
        "%vlocity_namespace%__DomainObjectFieldAPIName__c": "policyJson:additionalFields:PaperSign__c",
        "%vlocity_namespace%__InterfaceFieldAPIName__c": "StepPaymentIBANOS02:CheckboxProcessPapierOS02",
        "%vlocity_namespace%__IsDisabled__c": false,
        "%vlocity_namespace%__IsRequiredForUpsert__c": false,
        "%vlocity_namespace%__MapId__c": "vspDRTSetElementforPolicyMobCustoma1d9E0000028dSIQAYItem21",
        "%vlocity_namespace%__UpsertKey__c": false,
        "Name": "vspDRTSetElementforPolicyMob",
        "VlocityDataPackType": "SObject",
        "VlocityRecordSObjectType": "%vlocity_namespace%__DRMapItem__c"
    },
    {
        "%vlocity_namespace%__DomainObjectAPIName__c": "json",
        "%vlocity_namespace%__DomainObjectCreationOrder__c": 1,
        "%vlocity_namespace%__DomainObjectFieldAPIName__c": "policyJson:additionalFields:PaymentMethod__c",
        "%vlocity_namespace%__InterfaceFieldAPIName__c": "StepCustomerIdentificationOS02:BlckIdentityPersonOS02:BlckPaymentMethod:SelectPaymentMethod",
        "%vlocity_namespace%__IsDisabled__c": false,
        "%vlocity_namespace%__IsRequiredForUpsert__c": false,
        "%vlocity_namespace%__MapId__c": "vspDRTSetElementforPolicyMobCustoma1d9E0000028dSIQAYItem22",
        "%vlocity_namespace%__TransformValuesMap__c": "{\"CB\":\"06\",\"IBAN\":\"02\"}",
        "%vlocity_namespace%__UpsertKey__c": false,
        "Name": "vspDRTSetElementforPolicyMob",
        "VlocityDataPackType": "SObject",
        "VlocityRecordSObjectType": "%vlocity_namespace%__DRMapItem__c"
    },
    {
        "%vlocity_namespace%__DomainObjectAPIName__c": "json",
        "%vlocity_namespace%__DomainObjectCreationOrder__c": 1,
        "%vlocity_namespace%__DomainObjectFieldAPIName__c": "policyJson:additionalFields:PrixDeVenteTTC__c",
        "%vlocity_namespace%__InterfaceFieldAPIName__c": "StepCustomerIdentificationOS02:BlckProduitAssureOS03:TxtPrixMobileOS03",
        "%vlocity_namespace%__IsDisabled__c": false,
        "%vlocity_namespace%__IsRequiredForUpsert__c": false,
        "%vlocity_namespace%__MapId__c": "vspDRTSetElementforPolicyMobCustom9906",
        "%vlocity_namespace%__UpsertKey__c": false,
        "Name": "vspDRTSetElementforPolicyMob",
        "VlocityDataPackType": "SObject",
        "VlocityRecordSObjectType": "%vlocity_namespace%__DRMapItem__c"
    },
    {
        "%vlocity_namespace%__DomainObjectAPIName__c": "json",
        "%vlocity_namespace%__DomainObjectCreationOrder__c": 1,
        "%vlocity_namespace%__DomainObjectFieldAPIName__c": "policyJson:additionalFields:ProductCategory__c",
        "%vlocity_namespace%__InterfaceFieldAPIName__c": "StepCustomerIdentificationOS02:BlckOfferOS02:productConfig:records:CalculatedPriceData:vspCMFormuleWebMobile__CodeProduitOGI",
        "%vlocity_namespace%__IsDisabled__c": false,
        "%vlocity_namespace%__IsRequiredForUpsert__c": false,
        "%vlocity_namespace%__MapId__c": "vspDRTSetElementforPolicyMobCustoma1d9E0000028dSIQAYItem23",
        "%vlocity_namespace%__UpsertKey__c": false,
        "Name": "vspDRTSetElementforPolicyMob",
        "VlocityDataPackType": "SObject",
        "VlocityRecordSObjectType": "%vlocity_namespace%__DRMapItem__c"
    },
    {
        "%vlocity_namespace%__DomainObjectAPIName__c": "json",
        "%vlocity_namespace%__DomainObjectCreationOrder__c": 1,
        "%vlocity_namespace%__DomainObjectFieldAPIName__c": "policyJson:additionalFields:Produit_Reconditionne__c",
        "%vlocity_namespace%__InterfaceFieldAPIName__c": "StepCustomerIdentificationOS02:BlckProduitAssureOS03:SelectConditionneOS03",
        "%vlocity_namespace%__IsDisabled__c": false,
        "%vlocity_namespace%__IsRequiredForUpsert__c": false,
        "%vlocity_namespace%__MapId__c": "vspDRTSetElementforPolicyMobCustom361",
        "%vlocity_namespace%__UpsertKey__c": false,
        "Name": "vspDRTSetElementforPolicyMob",
        "VlocityDataPackType": "SObject",
        "VlocityRecordSObjectType": "%vlocity_namespace%__DRMapItem__c"
    },
    {
        "%vlocity_namespace%__DomainObjectAPIName__c": "json",
        "%vlocity_namespace%__DomainObjectCreationOrder__c": 1,
        "%vlocity_namespace%__DomainObjectFieldAPIName__c": "policyJson:additionalFields:RUM__c",
        "%vlocity_namespace%__DomainObjectFieldType__c": "String",
        "%vlocity_namespace%__InterfaceFieldAPIName__c": "rum",
        "%vlocity_namespace%__IsDisabled__c": false,
        "%vlocity_namespace%__IsRequiredForUpsert__c": false,
        "%vlocity_namespace%__MapId__c": "vspDRTSetElementforPolicyMobCustoma1d9E0000028dSIQAYItem24",
        "%vlocity_namespace%__UpsertKey__c": false,
        "Name": "vspDRTSetElementforPolicyMob",
        "VlocityDataPackType": "SObject",
        "VlocityRecordSObjectType": "%vlocity_namespace%__DRMapItem__c"
    },
    {
        "%vlocity_namespace%__DomainObjectAPIName__c": "json",
        "%vlocity_namespace%__DomainObjectCreationOrder__c": 1,
        "%vlocity_namespace%__DomainObjectFieldAPIName__c": "policyJson:additionalFields:SalesChannel__c",
        "%vlocity_namespace%__InterfaceFieldAPIName__c": "SalesChannel",
        "%vlocity_namespace%__IsDisabled__c": false,
        "%vlocity_namespace%__IsRequiredForUpsert__c": false,
        "%vlocity_namespace%__MapId__c": "vspDRTSetElementforPolicyMobCustoma1d9E0000028dSIQAYItem25",
        "%vlocity_namespace%__UpsertKey__c": false,
        "Name": "vspDRTSetElementforPolicyMob",
        "VlocityDataPackType": "SObject",
        "VlocityRecordSObjectType": "%vlocity_namespace%__DRMapItem__c"
    },
    {
        "%vlocity_namespace%__DomainObjectAPIName__c": "json",
        "%vlocity_namespace%__DomainObjectCreationOrder__c": 1,
        "%vlocity_namespace%__DomainObjectFieldAPIName__c": "policyJson:additionalFields:SignConf__c",
        "%vlocity_namespace%__InterfaceFieldAPIName__c": "StepMandatGenerationOS02:CheckboxSignaturePapierMandatOS02",
        "%vlocity_namespace%__IsDisabled__c": false,
        "%vlocity_namespace%__IsRequiredForUpsert__c": false,
        "%vlocity_namespace%__MapId__c": "vspDRTSetElementforPolicyMobCustoma1d9E0000028dSIQAYItem26",
        "%vlocity_namespace%__UpsertKey__c": false,
        "Name": "vspDRTSetElementforPolicyMob",
        "VlocityDataPackType": "SObject",
        "VlocityRecordSObjectType": "%vlocity_namespace%__DRMapItem__c"
    },
    {
        "%vlocity_namespace%__DefaultValue__c": "00",
        "%vlocity_namespace%__DomainObjectAPIName__c": "json",
        "%vlocity_namespace%__DomainObjectCreationOrder__c": 1,
        "%vlocity_namespace%__DomainObjectFieldAPIName__c": "policyJson:additionalFields:Status",
        "%vlocity_namespace%__IsDisabled__c": false,
        "%vlocity_namespace%__IsRequiredForUpsert__c": false,
        "%vlocity_namespace%__MapId__c": "vspDRTSetElementforPolicyMobCustoma1d9E0000028dSIQAYItem27",
        "%vlocity_namespace%__UpsertKey__c": false,
        "Name": "vspDRTSetElementforPolicyMob",
        "VlocityDataPackType": "SObject",
        "VlocityRecordSObjectType": "%vlocity_namespace%__DRMapItem__c"
    },
    {
        "%vlocity_namespace%__DomainObjectAPIName__c": "json",
        "%vlocity_namespace%__DomainObjectCreationOrder__c": 1,
        "%vlocity_namespace%__DomainObjectFieldAPIName__c": "policyJson:additionalFields:StoreCodeNumber__c",
        "%vlocity_namespace%__InterfaceFieldAPIName__c": "storeCodeNumber",
        "%vlocity_namespace%__IsDisabled__c": false,
        "%vlocity_namespace%__IsRequiredForUpsert__c": false,
        "%vlocity_namespace%__MapId__c": "vspDRTSetElementforPolicyMobCustoma1d9E0000028dSIQAYItem28",
        "%vlocity_namespace%__UpsertKey__c": false,
        "Name": "vspDRTSetElementforPolicyMob",
        "VlocityDataPackType": "SObject",
        "VlocityRecordSObjectType": "%vlocity_namespace%__DRMapItem__c"
    },
    {
        "%vlocity_namespace%__DomainObjectAPIName__c": "json",
        "%vlocity_namespace%__DomainObjectCreationOrder__c": 1,
        "%vlocity_namespace%__DomainObjectFieldAPIName__c": "policyJson:additionalFields:StoreName__c",
        "%vlocity_namespace%__InterfaceFieldAPIName__c": "storeName",
        "%vlocity_namespace%__IsDisabled__c": false,
        "%vlocity_namespace%__IsRequiredForUpsert__c": false,
        "%vlocity_namespace%__MapId__c": "vspDRTSetElementforPolicyMobCustoma1d9E0000028dSIQAYItem29",
        "%vlocity_namespace%__UpsertKey__c": false,
        "Name": "vspDRTSetElementforPolicyMob",
        "VlocityDataPackType": "SObject",
        "VlocityRecordSObjectType": "%vlocity_namespace%__DRMapItem__c"
    },
    {
        "%vlocity_namespace%__DomainObjectAPIName__c": "json",
        "%vlocity_namespace%__DomainObjectCreationOrder__c": 1,
        "%vlocity_namespace%__DomainObjectFieldAPIName__c": "policyJson:additionalFields:SubscribedFormula__c",
        "%vlocity_namespace%__InterfaceFieldAPIName__c": "StepCustomerIdentificationOS02:BlckOfferOS02:productConfig:records:CalculatedPriceData:vspCMFormuleWebMobile__Label",
        "%vlocity_namespace%__IsDisabled__c": false,
        "%vlocity_namespace%__IsRequiredForUpsert__c": false,
        "%vlocity_namespace%__MapId__c": "vspDRTSetElementforPolicyMobCustoma1d9E0000028dSIQAYItem30",
        "%vlocity_namespace%__UpsertKey__c": false,
        "Name": "vspDRTSetElementforPolicyMob",
        "VlocityDataPackType": "SObject",
        "VlocityRecordSObjectType": "%vlocity_namespace%__DRMapItem__c"
    },
    {
        "%vlocity_namespace%__DomainObjectAPIName__c": "json",
        "%vlocity_namespace%__DomainObjectCreationOrder__c": 1,
        "%vlocity_namespace%__DomainObjectFieldAPIName__c": "policyJson:additionalFields:TechYouSignURL__c",
        "%vlocity_namespace%__InterfaceFieldAPIName__c": "url_signature",
        "%vlocity_namespace%__IsDisabled__c": false,
        "%vlocity_namespace%__IsRequiredForUpsert__c": false,
        "%vlocity_namespace%__MapId__c": "vspDRTSetElementforPolicyMobCustoma1d9E0000028dSIQAYItem31",
        "%vlocity_namespace%__UpsertKey__c": false,
        "Name": "vspDRTSetElementforPolicyMob",
        "VlocityDataPackType": "SObject",
        "VlocityRecordSObjectType": "%vlocity_namespace%__DRMapItem__c"
    },
    {
        "%vlocity_namespace%__DomainObjectAPIName__c": "json",
        "%vlocity_namespace%__DomainObjectCreationOrder__c": 1,
        "%vlocity_namespace%__DomainObjectFieldAPIName__c": "policyJson:additionalFields:Tech_identifiantProcedureYousign__c",
        "%vlocity_namespace%__InterfaceFieldAPIName__c": "identifiant_procedure",
        "%vlocity_namespace%__IsDisabled__c": false,
        "%vlocity_namespace%__IsRequiredForUpsert__c": false,
        "%vlocity_namespace%__MapId__c": "vspDRTSetElementforPolicyMobCustoma1d9E0000028dSIQAYItem32",
        "%vlocity_namespace%__UpsertKey__c": false,
        "Name": "vspDRTSetElementforPolicyMob",
        "VlocityDataPackType": "SObject",
        "VlocityRecordSObjectType": "%vlocity_namespace%__DRMapItem__c"
    },
    {
        "%vlocity_namespace%__DomainObjectAPIName__c": "json",
        "%vlocity_namespace%__DomainObjectCreationOrder__c": 1,
        "%vlocity_namespace%__DomainObjectFieldAPIName__c": "policyJson:additionalFields:VerspierenPart__c",
        "%vlocity_namespace%__InterfaceFieldAPIName__c": "StepCustomerIdentificationOS02:BlckOfferOS02:productConfig:records:CalculatedPriceData:vspCMEDTarifMobile__commissionVSP",
        "%vlocity_namespace%__IsDisabled__c": false,
        "%vlocity_namespace%__IsRequiredForUpsert__c": false,
        "%vlocity_namespace%__MapId__c": "vspDRTSetElementforPolicyMobCustoma1d9E0000028dSIQAYItem33",
        "%vlocity_namespace%__UpsertKey__c": false,
        "Name": "vspDRTSetElementforPolicyMob",
        "VlocityDataPackType": "SObject",
        "VlocityRecordSObjectType": "%vlocity_namespace%__DRMapItem__c"
    },
    {
        "%vlocity_namespace%__DomainObjectAPIName__c": "json",
        "%vlocity_namespace%__DomainObjectCreationOrder__c": 1,
        "%vlocity_namespace%__DomainObjectFieldAPIName__c": "policyJson:insuredItems",
        "%vlocity_namespace%__InterfaceFieldAPIName__c": "quoteJson:insuredItems",
        "%vlocity_namespace%__IsDisabled__c": false,
        "%vlocity_namespace%__IsRequiredForUpsert__c": false,
        "%vlocity_namespace%__MapId__c": "vspDRTSetElementforPolicyMobCustoma1d9E0000028dSIQAYItem34",
        "%vlocity_namespace%__UpsertKey__c": false,
        "Name": "vspDRTSetElementforPolicyMob",
        "VlocityDataPackType": "SObject",
        "VlocityRecordSObjectType": "%vlocity_namespace%__DRMapItem__c"
    },
    {
        "%vlocity_namespace%__DomainObjectAPIName__c": "json",
        "%vlocity_namespace%__DomainObjectCreationOrder__c": 1,
        "%vlocity_namespace%__DomainObjectFieldAPIName__c": "policyJson:opportunityId",
        "%vlocity_namespace%__InterfaceFieldAPIName__c": "CreatedOpportunity",
        "%vlocity_namespace%__IsDisabled__c": false,
        "%vlocity_namespace%__IsRequiredForUpsert__c": false,
        "%vlocity_namespace%__MapId__c": "vspDRTSetElementforPolicyMobCustoma1d9E0000028dSIQAYItem35",
        "%vlocity_namespace%__UpsertKey__c": false,
        "Name": "vspDRTSetElementforPolicyMob",
        "VlocityDataPackType": "SObject",
        "VlocityRecordSObjectType": "%vlocity_namespace%__DRMapItem__c"
    },
    {
        "%vlocity_namespace%__DomainObjectAPIName__c": "json",
        "%vlocity_namespace%__DomainObjectCreationOrder__c": 1,
        "%vlocity_namespace%__DomainObjectFieldAPIName__c": "policyJson:productConfigurationDetail:records",
        "%vlocity_namespace%__InterfaceFieldAPIName__c": "StepCustomerIdentificationOS02:BlckOfferOS02:productConfig:records",
        "%vlocity_namespace%__IsDisabled__c": false,
        "%vlocity_namespace%__IsRequiredForUpsert__c": false,
        "%vlocity_namespace%__MapId__c": "vspDRTSetElementforPolicyMobCustoma1d9E0000028dSIQAYItem36",
        "%vlocity_namespace%__UpsertKey__c": false,
        "Name": "vspDRTSetElementforPolicyMob",
        "VlocityDataPackType": "SObject",
        "VlocityRecordSObjectType": "%vlocity_namespace%__DRMapItem__c"
    }
]