[
    {
        "%vlocity_namespace%__AcordElement__c": "",
        "%vlocity_namespace%__AddDate__c": "",
        "%vlocity_namespace%__AttributeAdjustmentComments__c": "",
        "%vlocity_namespace%__AttributeAdjustmentUnits__c": "",
        "%vlocity_namespace%__AttributeCategoryCode__c": "",
        "%vlocity_namespace%__AttributeCategoryId__c": {
            "%vlocity_namespace%__Code__c": "ATT_CAT_PANNE",
            "VlocityDataPackType": "VlocityLookupMatchingKeyObject",
            "VlocityLookupRecordSourceKey": "%vlocity_namespace%__AttributeCategory__c/ATT_CAT_PANNE",
            "VlocityRecordSObjectType": "%vlocity_namespace%__AttributeCategory__c"
        },
        "%vlocity_namespace%__AttributeCategorySubType__c": "Product Attribute",
        "%vlocity_namespace%__AttributeCategory__c": "",
        "%vlocity_namespace%__AttributeCode__c": "",
        "%vlocity_namespace%__AttributeDisplayNameOverride__c": "Panne",
        "%vlocity_namespace%__AttributeDisplaySequence__c": "0",
        "%vlocity_namespace%__AttributeId__c": {
            "%vlocity_namespace%__Code__c": "ATT_Limite",
            "VlocityDataPackType": "VlocityLookupMatchingKeyObject",
            "VlocityLookupRecordSourceKey": "%vlocity_namespace%__Attribute__c/ATT_Limite",
            "VlocityRecordSObjectType": "%vlocity_namespace%__Attribute__c"
        },
        "%vlocity_namespace%__AttributeId__r.%vlocity_namespace%__Code__c": "ATT_Limite",
        "%vlocity_namespace%__ConfigurationDetail__c": "",
        "%vlocity_namespace%__ConfigurationStages__c": "",
        "%vlocity_namespace%__CustomConfigUiTemplate__c": "",
        "%vlocity_namespace%__Data__c": "",
        "%vlocity_namespace%__DefaultPicklistValueId__c": "",
        "%vlocity_namespace%__DisplaySequence__c": "",
        "%vlocity_namespace%__EndStory__c": "",
        "%vlocity_namespace%__ExcludedPicklistValues__c": "",
        "%vlocity_namespace%__FormatMask__c": "",
        "%vlocity_namespace%__GlobalKey__c": "b63291f8-41b2-7d0a-c4dd-9a6ce09ac2b4",
        "%vlocity_namespace%__HasRule__c": false,
        "%vlocity_namespace%__HelpText__c": "",
        "%vlocity_namespace%__IsActiveAssignment__c": true,
        "%vlocity_namespace%__IsActive__c": true,
        "%vlocity_namespace%__IsConfigurable__c": true,
        "%vlocity_namespace%__IsDynamic__c": false,
        "%vlocity_namespace%__IsEligibilityAttribute__c": false,
        "%vlocity_namespace%__IsEncrypted__c": false,
        "%vlocity_namespace%__IsHidden__c": false,
        "%vlocity_namespace%__IsNotAssetizable__c": false,
        "%vlocity_namespace%__IsNotTranslatable__c": false,
        "%vlocity_namespace%__IsOverride__c": false,
        "%vlocity_namespace%__IsQueryDriven__c": false,
        "%vlocity_namespace%__IsRatingAttribute__c": true,
        "%vlocity_namespace%__IsReadOnly__c": false,
        "%vlocity_namespace%__IsRequired__c": false,
        "%vlocity_namespace%__IsTaxAndFeeRatingAttribute__c": false,
        "%vlocity_namespace%__LookupFilter__c": "",
        "%vlocity_namespace%__LookupObjectId__c": "",
        "%vlocity_namespace%__LookupObjectTypeId__c": "",
        "%vlocity_namespace%__ObjectId__c": {
            "%vlocity_namespace%__GlobalKey__c": "2ccee945-d130-f009-2d62-23dc865573bc",
            "VlocityDataPackType": "VlocityMatchingKeyObject",
            "VlocityMatchingRecordSourceKey": "Product2/2ccee945-d130-f009-2d62-23dc865573bc",
            "VlocityRecordSObjectType": "Product2"
        },
        "%vlocity_namespace%__ObjectType__c": "",
        "%vlocity_namespace%__PicklistId__c": "",
        "%vlocity_namespace%__QueryCode__c": "",
        "%vlocity_namespace%__QueryLabel__c": "",
        "%vlocity_namespace%__RateBandTier__c": "",
        "%vlocity_namespace%__RatingInput__c": "multimedia",
        "%vlocity_namespace%__RatingOutput__c": "",
        "%vlocity_namespace%__RatingType__c": "Input",
        "%vlocity_namespace%__RemoveDate__c": "",
        "%vlocity_namespace%__RemovedFlag__c": false,
        "%vlocity_namespace%__RuleData__c": "",
        "%vlocity_namespace%__RuleMessage__c": "",
        "%vlocity_namespace%__StartStory__c": "",
        "%vlocity_namespace%__TaxAndFeeRatingInput__c": "",
        "%vlocity_namespace%__TaxAndFeeRatingOutput__c": "",
        "%vlocity_namespace%__TaxAndFeeRatingType__c": "",
        "%vlocity_namespace%__UIDisplayType__c": "Radiobutton",
        "%vlocity_namespace%__UIWidgetId__c": "",
        "%vlocity_namespace%__ValidValuesData__c": [
            {
                "displayText": "3000",
                "id": 0,
                "isAvailable": true,
                "isDefault": true,
                "rules": [
                ],
                "showRules": false,
                "value": "3000"
            },
            {
                "displayText": "0",
                "id": 1,
                "isAvailable": true,
                "isDefault": false,
                "rules": [
                ],
                "showRules": false,
                "value": "0"
            }
        ],
        "%vlocity_namespace%__ValidValues__c": "",
        "%vlocity_namespace%__ValueDataType__c": "Picklist",
        "%vlocity_namespace%__ValueDecoder__c": "",
        "%vlocity_namespace%__ValueDescription__c": "",
        "%vlocity_namespace%__Value__c": "3000",
        "Name": "Panne",
        "VlocityDataPackType": "SObject",
        "VlocityRecordSObjectType": "%vlocity_namespace%__AttributeAssignment__c",
        "VlocityRecordSourceKey": "%vlocity_namespace%__AttributeAssignment__c/b63291f8-41b2-7d0a-c4dd-9a6ce09ac2b4"
    }
]