{
    "Body": "File_Formule-SIMPLE-jpg.jpg",
    "BodyLength": 300095,
    "ContentType": "image/jpeg",
    "Description": "",
    "DeveloperName": "CACBAECAA9de4cef19503470bb5cd8178e9ce4a5a",
    "IsBodySearchable": false,
    "IsInternalUseOnly": false,
    "IsPublic": true,
    "Keywords": "",
    "Name": "Formule SIMPLE.jpg",
    "Type": "jpg",
    "Url": "",
    "VlocityDataPackType": "SObject",
    "VlocityRecordSObjectType": "Document",
    "VlocityRecordSourceKey": "Document/CACBAECAA9de4cef19503470bb5cd8178e9ce4a5a"
}