{
  "records": [
    {
      "attributes": {
        "type": "vlocity_ins__PriceList__c",
        "referenceId": "TaxandFeeRef1"
      },
      "Name": "TCA",
      "vlocity_ins__Amount__c": null,
      "vlocity_ins__Code__c": "vspTCA",
      "vlocity_ins__CurrencyCode__c": "USD",
      "vlocity_ins__Description__c": null,
      "vlocity_ins__EffectiveFromDate__c": null,
      "vlocity_ins__EffectiveUntilDate__c": null,
      "vlocity_ins__GlobalKey__c": "5ca38dd1-16d8-7244-18e7-ffa0f7775810",
      "vlocity_ins__IsActive__c": true,
      "vlocity_ins__IsRefundable__c": false,
      "vlocity_ins__LoyaltyCode__c": "PTS",
      "vlocity_ins__Percent__c": null,
      "vlocity_ins__ProcedureFormula__c": null,
      "vlocity_ins__ProcedureName__c": null,
      "vlocity_ins__ProcedureSource__c": null,
      "vlocity_ins__RatingType__c": null,
      "vlocity_ins__Sequence__c": null,
      "vlocity_ins__Type__c": null
    }
  ]
}