{
    "ContextId": null,
    "timeStamp": null,
    "userId": null,
    "userName": null,
    "userProfile": null,
    "userTimeZone": null,
    "vlcPersistentComponent": {
    },
    "vlcTimeTracking": {
        "DRPCreateParty": null,
        "DRTPrepareClaimInputs": null,
        "RtActCreateUpdateClaim": null
    }
}