{
    "%vlocity_namespace%__Active__c": true,
    "%vlocity_namespace%__OmniScriptId__c": {
        "Name": "ClaimLineItemInitiatePayment",
        "VlocityDataPackType": "VlocityMatchingKeyObject",
        "VlocityMatchingRecordSourceKey": "%vlocity_namespace%__OmniScript__c/ClaimLineItem/InitiatePayments/Procedure",
        "VlocityRecordSObjectType": "%vlocity_namespace%__OmniScript__c"
    },
    "%vlocity_namespace%__PropertySet__c": {
        "disOnTplt": false,
        "executionConditionalFormula": "LISTSIZE(itemIds) == 1",
        "isIfElseBlock": false,
        "label": "ConditionalBlock1",
        "show": null
    },
    "%vlocity_namespace%__ReusableOmniScript__c": false,
    "%vlocity_namespace%__Type__c": "Conditional Block",
    "Name": "SingleClaimLineItem",
    "VlocityDataPackType": "SObject",
    "VlocityRecordSObjectType": "%vlocity_namespace%__Element__c",
    "VlocityRecordSourceKey": "%vlocity_namespace%__Element__c/%vlocity_namespace%__OmniScript__c/ClaimLineItem/InitiatePayments/Procedure/SingleClaimLineItem"
}