{
    "apporteurs": [
        {
            "date_fin_retro_commission": null,
            "mnt_commission": null,
            "mode_calcul_commission": "F",
            "num_apporteur_verspieren": "1234",
            "taux_commission_apporteur": 15
        },
        {
            "date_fin_retro_commission": null,
            "mnt_commission": null,
            "mode_calcul_commission": "F",
            "num_apporteur_verspieren": "5678",
            "taux_commission_apporteur": 10
        }
    ],
    "contrat": {
        "code_fractionnement": "1",
        "date_anniversaire_jjmm": "2202",
        "date_effet": "2021-02-22",
        "date_fin_contrat": "",
        "id_contrat_adherent": ""
    },
    "detail_garanties_prime_annuelle": [
        {
            "code_compagnie_verspieren": "359",
            "code_garantie": "PANNE",
            "id_compagnie": "2713252",
            "mnt_commission": 3.26,
            "mnt_garantie_ht": 16.31,
            "mnt_garantie_ttc": 17.78,
            "num_convention": "POLICELECTRODEPOT",
            "ref_convention": "POLICELECTRODEPOT",
            "taux_taxe": 20
        }
    ],
    "garantie_produit": {
        "code_produit_verspieren": "BR",
        "id_garantie_rattachee": "31608144"
    },
    "general": {
        "canal_de_vente": "MAGA",
        "code_action": "01",
        "code_motif": "01",
        "detail_souscription": {
            "bic": "CEPAFRPP513",
            "bureau_distributeur": "LANNOY",
            "civilite": "M",
            "code_pays": "FRA",
            "code_postal": "59390",
            "commune": "LANNOY",
            "complement_identitie": "",
            "complement_voie": "",
            "date_naissance": "1980-05-08",
            "email": "tstemail@verspieren.com",
            "iban": "FR7615135005000482236591243",
            "nom": "TSTNOM",
            "nom_pays": "FRANCE",
            "num_adherent": "",
            "prenom": "TSTPRENOM",
            "raison_sociale": "",
            "telephone_domicile": "",
            "telephone_mobile": "",
            "voie": "rue tst"
        },
        "id_contrat_mere": "0015033849",
        "id_externe_client_001": "REFCLIVLC",
        "id_externe_client_002": "REFCLIED",
        "id_externe_contrat_001": "REFCTVLC",
        "id_externe_contrat_002": "REFCTED",
        "mode_paiement": "01"
    },
    "prime_annuelle": {
        "mnt_frais_gestion": 5.67,
        "mnt_prime_ht": 16.31,
        "mnt_prime_yc_fg": 17.78,
        "mnt_taxe_attentats": 0
    }
}