{
    "%vlocity_namespace%__ApprovedBy__c": "",
    "%vlocity_namespace%__ApprovedOn__c": "",
    "%vlocity_namespace%__AttributeAssignment__c": "Claim-Telephone_AttributeAssignments.json",
    "%vlocity_namespace%__AttributeDefaultValues__c": {
        "ATT_CLAIM_DATE": null,
        "ATT_CLAIM_IMEI": null,
        "ATT_CLAIM_MODELE": null,
        "ATT_CLAIM_Marque": null,
        "ATT_DATE_DECLAR_SINISTRE": null,
        "ATT_DEVICE_STATUS": "NEUF",
        "ATT_ORIGIN_SIGN": null,
        "ATT_PRICE": null,
        "ATT_PRODUCT_TYPE": null,
        "ATT_PURCHASE_DATE": null,
        "ATT_Product_Family": null,
        "ATT_SUB_FAMILY": null
    },
    "%vlocity_namespace%__AttributeMetadata__c": {
        "records": [
            {
                "Code__c": "ATT_CAT_CLAIM_EQUIPMENT",
                "Name": "Equipement sinistré",
                "displaySequence": 60,
                "id": "a0U1x000007zd99EAA",
                "productAttributes": {
                    "records": [
                        {
                            "attributeId": "a0V1x000003HKXGEA4",
                            "cloneable": true,
                            "code": "ATT_Product_Family",
                            "dataType": "text",
                            "disabled": false,
                            "displaySequence": 0,
                            "filterable": true,
                            "hasRules": false,
                            "hidden": false,
                            "inputType": "text",
                            "isNotTranslatable": false,
                            "label": "Famille produit",
                            "multiselect": false,
                            "readonly": false,
                            "required": false,
                            "userValues": null,
                            "values": [
                                {
                                    "disabled": false,
                                    "readonly": false
                                }
                            ]
                        },
                        {
                            "attributeId": "a0V1x000003HKXVEA4",
                            "cloneable": true,
                            "code": "ATT_SUB_FAMILY",
                            "dataType": "text",
                            "disabled": false,
                            "displaySequence": 1,
                            "filterable": true,
                            "hasRules": false,
                            "hidden": false,
                            "inputType": "text",
                            "isNotTranslatable": false,
                            "label": "Sous famille",
                            "multiselect": false,
                            "readonly": false,
                            "required": false,
                            "userValues": null,
                            "values": [
                                {
                                    "disabled": false,
                                    "readonly": false
                                }
                            ]
                        },
                        {
                            "attributeId": "a0V1x000003HKXaEAO",
                            "cloneable": true,
                            "code": "ATT_PRODUCT_TYPE",
                            "dataType": "text",
                            "disabled": false,
                            "displaySequence": 2,
                            "filterable": true,
                            "hasRules": false,
                            "hidden": false,
                            "inputType": "text",
                            "isNotTranslatable": false,
                            "label": "Type de produit",
                            "multiselect": false,
                            "readonly": false,
                            "required": false,
                            "userValues": null,
                            "values": [
                                {
                                    "disabled": false,
                                    "readonly": false
                                }
                            ]
                        },
                        {
                            "attributeId": "a0V1x000003HKXkEAO",
                            "cloneable": true,
                            "code": "ATT_PRICE",
                            "dataType": "currency",
                            "disabled": false,
                            "displaySequence": 3,
                            "filterable": true,
                            "hasRules": false,
                            "hidden": false,
                            "inputType": "number",
                            "isNotTranslatable": false,
                            "label": "Prix",
                            "multiselect": false,
                            "readonly": false,
                            "required": false,
                            "userValues": null,
                            "values": [
                                {
                                    "disabled": false,
                                    "readonly": false
                                }
                            ]
                        },
                        {
                            "attributeId": "a0V1x000003HKXpEAO",
                            "cloneable": true,
                            "code": "ATT_PURCHASE_DATE",
                            "dataType": "date",
                            "disabled": false,
                            "displaySequence": 4,
                            "filterable": true,
                            "hasRules": false,
                            "hidden": false,
                            "inputType": "date",
                            "isNotTranslatable": false,
                            "label": "Date d'achat",
                            "multiselect": false,
                            "readonly": false,
                            "required": false,
                            "userValues": null,
                            "values": [
                                {
                                    "disabled": false,
                                    "readonly": false
                                }
                            ]
                        },
                        {
                            "attributeId": "a0V1x000003HKXzEAO",
                            "cloneable": true,
                            "code": "ATT_DEVICE_STATUS",
                            "dataType": "text",
                            "disabled": false,
                            "displaySequence": 5,
                            "filterable": true,
                            "hasRules": false,
                            "hidden": false,
                            "inputType": "radio",
                            "isNotTranslatable": false,
                            "label": "État de l'appareil (Neuf / reconditionné)",
                            "multiselect": false,
                            "readonly": false,
                            "required": false,
                            "userValues": null,
                            "values": [
                                {
                                    "disabled": false,
                                    "id": "0",
                                    "label": "Neuf",
                                    "readonly": false,
                                    "value": "NEUF"
                                },
                                {
                                    "disabled": false,
                                    "id": "1",
                                    "label": "Reconditionné",
                                    "readonly": false,
                                    "value": "RECONDITIONNE"
                                }
                            ]
                        },
                        {
                            "attributeId": "a0V1x000003HKYEEA4",
                            "cloneable": true,
                            "code": "ATT_CLAIM_DATE",
                            "dataType": "date",
                            "disabled": false,
                            "displaySequence": 6,
                            "filterable": true,
                            "hasRules": false,
                            "hidden": false,
                            "inputType": "date",
                            "isNotTranslatable": false,
                            "label": "Date survenance du sinistre",
                            "multiselect": false,
                            "readonly": false,
                            "required": false,
                            "userValues": null,
                            "values": [
                                {
                                    "disabled": false,
                                    "readonly": false
                                }
                            ]
                        },
                        {
                            "attributeId": "a0V1x000003HKYJEA4",
                            "cloneable": true,
                            "code": "ATT_ORIGIN_SIGN",
                            "dataType": "text",
                            "disabled": false,
                            "displaySequence": 7,
                            "filterable": true,
                            "hasRules": false,
                            "hidden": false,
                            "inputType": "text",
                            "isNotTranslatable": false,
                            "label": "Enseigne de provenance",
                            "multiselect": false,
                            "readonly": false,
                            "required": false,
                            "userValues": null,
                            "values": [
                                {
                                    "disabled": false,
                                    "readonly": false
                                }
                            ]
                        },
                        {
                            "attributeId": "a0V1x000003HKYTEA4",
                            "cloneable": true,
                            "code": "ATT_CLAIM_Marque",
                            "dataType": "text",
                            "disabled": false,
                            "displaySequence": 8,
                            "filterable": true,
                            "hasRules": false,
                            "hidden": false,
                            "inputType": "text",
                            "isNotTranslatable": false,
                            "label": "Marque",
                            "multiselect": false,
                            "readonly": false,
                            "required": false,
                            "userValues": null,
                            "values": [
                                {
                                    "disabled": false,
                                    "readonly": false
                                }
                            ]
                        },
                        {
                            "attributeId": "a0V1x000003HKYYEA4",
                            "cloneable": true,
                            "code": "ATT_CLAIM_MODELE",
                            "dataType": "text",
                            "disabled": false,
                            "displaySequence": 9,
                            "filterable": true,
                            "hasRules": false,
                            "hidden": false,
                            "inputType": "text",
                            "isNotTranslatable": false,
                            "label": "Modèle",
                            "multiselect": false,
                            "readonly": false,
                            "required": false,
                            "userValues": null,
                            "values": [
                                {
                                    "disabled": false,
                                    "readonly": false
                                }
                            ]
                        },
                        {
                            "attributeId": "a0V1x000003Hhw5EAC",
                            "cloneable": true,
                            "code": "ATT_DATE_DECLAR_SINISTRE",
                            "dataType": "date",
                            "disabled": false,
                            "displaySequence": 10,
                            "filterable": true,
                            "hasRules": false,
                            "hidden": false,
                            "inputType": "date",
                            "isNotTranslatable": false,
                            "label": "Date déclaration du sinistre",
                            "multiselect": false,
                            "readonly": false,
                            "required": false,
                            "userValues": null,
                            "values": [
                                {
                                    "disabled": false,
                                    "readonly": false
                                }
                            ]
                        },
                        {
                            "attributeId": "a0V1x000003Hhw0EAC",
                            "cloneable": true,
                            "code": "ATT_CLAIM_IMEI",
                            "dataType": "text",
                            "disabled": false,
                            "displaySequence": 11,
                            "filterable": true,
                            "hasRules": false,
                            "hidden": false,
                            "inputType": "text",
                            "isNotTranslatable": false,
                            "label": "IMEI",
                            "multiselect": false,
                            "readonly": false,
                            "required": false,
                            "userValues": null,
                            "values": [
                                {
                                    "disabled": false,
                                    "readonly": false
                                }
                            ]
                        }
                    ],
                    "totalSize": 12
                }
            }
        ],
        "totalSize": 1
    },
    "%vlocity_namespace%__AttributeRules__c": "",
    "%vlocity_namespace%__Availability__c": "",
    "%vlocity_namespace%__CarrierId__c": "",
    "%vlocity_namespace%__ChangeDetectorImplementation__c": "",
    "%vlocity_namespace%__ClassId__c": "",
    "%vlocity_namespace%__CoverageCalculationFormula__c": "",
    "%vlocity_namespace%__DefaultImageId__c": "",
    "%vlocity_namespace%__EffectiveDate__c": "",
    "%vlocity_namespace%__EligibilityCriteriaComments__c": "",
    "%vlocity_namespace%__EligibilityCriteria__c": "",
    "%vlocity_namespace%__EndDate__c": "",
    "%vlocity_namespace%__EndOfLifeDate__c": "",
    "%vlocity_namespace%__EnrollmentStatus__c": "",
    "%vlocity_namespace%__FormularyId__c": "",
    "%vlocity_namespace%__FulfilmentStartDate__c": "",
    "%vlocity_namespace%__GlobalGroupKey__c": "f4fcc665-8264-998c-8535-0599f83527b4",
    "%vlocity_namespace%__GlobalKey__c": "b6638f4b-5d5f-793b-3adb-0a9c60207a12",
    "%vlocity_namespace%__HasCustomAttributesProcess__c": false,
    "%vlocity_namespace%__HeaderData__c": "",
    "%vlocity_namespace%__HelpText__c": "",
    "%vlocity_namespace%__InstanceKeyFormula__c": "",
    "%vlocity_namespace%__IsConfigurable__c": true,
    "%vlocity_namespace%__IsLocationDependent__c": false,
    "%vlocity_namespace%__IsNotAssetizable__c": false,
    "%vlocity_namespace%__IsOrderable__c": true,
    "%vlocity_namespace%__IsRecommended__c": false,
    "%vlocity_namespace%__LastPublishDate__c": "",
    "%vlocity_namespace%__LastSimulationInput__c": "",
    "%vlocity_namespace%__LifecycleStatus__c": "",
    "%vlocity_namespace%__LineOfBusiness__c": "Property & Casualty",
    "%vlocity_namespace%__MarketSegment__c": "",
    "%vlocity_namespace%__ObjectTypeId__c": "",
    "%vlocity_namespace%__ParentClassId__c": "",
    "%vlocity_namespace%__PricingFormula__c": "",
    "%vlocity_namespace%__PricingSource__c": "",
    "%vlocity_namespace%__ProductSpecId__c": "",
    "%vlocity_namespace%__ProductTemplateId__c": "",
    "%vlocity_namespace%__ProductTemplateProductId__c": "",
    "%vlocity_namespace%__ProviderNetworkId__c": "",
    "%vlocity_namespace%__RateBandId__c": "",
    "%vlocity_namespace%__RatingCalcProcedureName__c": "",
    "%vlocity_namespace%__RatingProcedureType__c": "",
    "%vlocity_namespace%__RecordTypeName__c": "ClaimPropertySpec",
    "%vlocity_namespace%__ReplacementProductId__c": "",
    "%vlocity_namespace%__ReserveProcessingMode__c": "CoverageReserve",
    "%vlocity_namespace%__Scope__c": "Order Item",
    "%vlocity_namespace%__SellingEndDate__c": "",
    "%vlocity_namespace%__SellingStartDate__c": "",
    "%vlocity_namespace%__SpecificationSubType__c": "",
    "%vlocity_namespace%__SpecificationType__c": "",
    "%vlocity_namespace%__StandardPremium__c": "",
    "%vlocity_namespace%__Status__c": "",
    "%vlocity_namespace%__SubType__c": "",
    "%vlocity_namespace%__Term__c": "",
    "%vlocity_namespace%__Tier__c": "",
    "%vlocity_namespace%__TimeToLive__c": "",
    "%vlocity_namespace%__TotalCoverageCalculationFormula__c": "",
    "%vlocity_namespace%__TotalInsuredFormula__c": "",
    "%vlocity_namespace%__TrackAsAgreement__c": false,
    "%vlocity_namespace%__Type__c": "Affinity",
    "%vlocity_namespace%__VersionEndDateTime__c": "",
    "%vlocity_namespace%__VersionLabel__c": "",
    "%vlocity_namespace%__VersionStartDateTime__c": "",
    "CanUseQuantitySchedule": false,
    "CanUseRevenueSchedule": false,
    "CarrierContract__c": "",
    "Description": "",
    "DisplayUrl": "",
    "ExternalDataSourceId": "",
    "ExternalId": "",
    "Family": "",
    "IsActive": true,
    "IsArchived": false,
    "Name": "Claim Téléphone",
    "NumberOfQuantityInstallments": "",
    "NumberOfRevenueInstallments": "",
    "ProductCode": "ED_CLAIM_TELEPHONE",
    "QuantityInstallmentPeriod": "",
    "QuantityScheduleType": "",
    "QuantityUnitOfMeasure": "",
    "RecordTypeId": {
        "DeveloperName": "ClaimPropertySpec",
        "SobjectType": "Product2",
        "VlocityDataPackType": "VlocityLookupMatchingKeyObject",
        "VlocityLookupRecordSourceKey": "RecordType/Product2/ClaimPropertySpec",
        "VlocityRecordSObjectType": "RecordType"
    },
    "RevenueInstallmentPeriod": "",
    "RevenueScheduleType": "",
    "StockKeepingUnit": "",
    "VlocityDataPackType": "SObject",
    "VlocityRecordSObjectType": "Product2",
    "VlocityRecordSourceKey": "Product2/b6638f4b-5d5f-793b-3adb-0a9c60207a12"
}