{
    "%vlocity_namespace%__CustomJavaScript__c": "{}",
    "%vlocity_namespace%__DisableMetadataCache__c": false,
    "%vlocity_namespace%__ElementTypeToHTMLTemplateList__c": "{\"ElementTypeToHTMLTemplateList\":[]}",
    "%vlocity_namespace%__Element__c": "VSP_IP04GetPolicyInformationOS04_Element_DREGetPolicyInformation.json",
    "%vlocity_namespace%__IsLwcEnabled__c": false,
    "%vlocity_namespace%__IsProcedure__c": true,
    "%vlocity_namespace%__IsReusable__c": false,
    "%vlocity_namespace%__IsTest__c": false,
    "%vlocity_namespace%__Language__c": "Procedure",
    "%vlocity_namespace%__OmniProcessType__c": "Integration Procedure",
    "%vlocity_namespace%__ProcedureKey__c": "VSP_IP04GetPolicyInformationOS04",
    "%vlocity_namespace%__PropertySet__c": "VSP_IP04GetPolicyInformationOS04_PropertySet.json",
    "%vlocity_namespace%__SubType__c": "IP04GetPolicyInformationOS04",
    "%vlocity_namespace%__Type__c": "VSP",
    "Name": "IP04GetPolicyInformationOS04",
    "VlocityDataPackType": "SObject",
    "VlocityRecordSObjectType": "%vlocity_namespace%__OmniScript__c",
    "VlocityRecordSourceKey": "%vlocity_namespace%__OmniScript__c/VSP/IP04GetPolicyInformationOS04/Procedure"
}