{
    "allowCancel": true,
    "allowSaveForLater": true,
    "autoFocus": false,
    "autoSaveOnStepNext": false,
    "bLK": false,
    "cancelRedirectPageName": "OmniScriptCancelled",
    "cancelRedirectTemplateUrl": "vlcCancelled.html",
    "cancelSource": "%ContextId%",
    "cancelType": "SObject",
    "consoleTabIcon": "custom:custom18",
    "consoleTabLabel": "New",
    "consoleTabTitle": null,
    "currencyCode": "",
    "currentLanguage": "fr",
    "designTokenOverride": "",
    "disableUnloadWarn": true,
    "elementTypeToHTMLTemplateMapping": {
        "AttributesDisplayTemplate": "ins-os-attribute-component",
        "CoveragesDisplayTemplate": "ins-os-coverage-component"
    },
    "elementTypeToLwcTemplateMapping": {
        "IframeMandat": "vspIframeSignatureMandat_LWC",
        "StepChart": "customStepChart",
        "StepChartItems": "customStepChartItems",
        "nestedElement": "vspUILWCinsOsSingleInstance",
        "nestedElement2": "vspInsOsCoverage",
        "nestedElement3": "vspInsOsCoverageList"
    },
    "enableKnowledge": false,
    "errorMessage": {
        "custom": [
        ]
    },
    "hideStepChart": false,
    "knowledgeArticleTypeQueryFieldsMap": {
    },
    "lkObjName": null,
    "mergeSavedData": false,
    "message": {
    },
    "persistentComponent": [
        {
            "id": "vlcCart",
            "itemsKey": "cartItems",
            "label": "",
            "modalConfigurationSetting": {
                "modalController": "ModalProductCtrl",
                "modalHTMLTemplateId": "vlcProductConfig.html",
                "modalSize": "lg"
            },
            "postTransformBundle": "",
            "preTransformBundle": "",
            "remoteClass": "",
            "remoteMethod": "",
            "remoteOptions": {
                "postTransformBundle": "",
                "preTransformBundle": ""
            },
            "remoteTimeout": 30000,
            "render": false,
            "responseJSONNode": "",
            "responseJSONPath": "",
            "sendJSONNode": "",
            "sendJSONPath": ""
        },
        {
            "dispOutsideOmni": false,
            "id": "vlcKnowledge",
            "itemsKey": "knowledgeItems",
            "label": "",
            "modalConfigurationSetting": {
                "modalController": "",
                "modalHTMLTemplateId": "",
                "modalSize": "lg"
            },
            "postTransformBundle": "",
            "preTransformBundle": "",
            "remoteClass": "",
            "remoteMethod": "",
            "remoteOptions": {
                "postTransformBundle": "",
                "preTransformBundle": ""
            },
            "remoteTimeout": 30000,
            "render": false
        }
    ],
    "pubsub": false,
    "rtpSeed": false,
    "saveContentEncoded": false,
    "saveExpireInDays": null,
    "saveForLaterRedirectPageName": "sflRedirect",
    "saveForLaterRedirectTemplateUrl": "vlcSaveForLaterAcknowledge.html",
    "saveNameTemplate": null,
    "saveObjectId": "%ContextId%",
    "saveURLPatterns": {
    },
    "scrollBehavior": "auto",
    "seedDataJSON": {
    },
    "showInputWidth": false,
    "ssm": false,
    "stepChartPlacement": "right",
    "stylesheet": {
        "lightning": "vsp_souscription",
        "lightningRtl": "",
        "newport": "",
        "newportRtl": ""
    },
    "timeTracking": false,
    "trackingCustomData": {
    },
    "visualforcePagesAvailableInPreview": {
    },
    "wpm": false
}