{
    "%vlocity_namespace%__Active__c": true,
    "%vlocity_namespace%__OmniScriptId__c": {
        "Name": "OS03ContractSubscriptionOffreMobile",
        "VlocityDataPackType": "VlocityMatchingKeyObject",
        "VlocityMatchingRecordSourceKey": "%vlocity_namespace%__OmniScript__c/VSP/OS03ContractSubscriptionOffreMobile/French",
        "VlocityRecordSObjectType": "%vlocity_namespace%__OmniScript__c"
    },
    "%vlocity_namespace%__ParentElementId__c": {
        "%vlocity_namespace%__OmniScriptId__c": {
            "Name": "OS03ContractSubscriptionOffreMobile",
            "VlocityDataPackType": "VlocityMatchingKeyObject",
            "VlocityMatchingRecordSourceKey": "%vlocity_namespace%__OmniScript__c/VSP/OS03ContractSubscriptionOffreMobile/French",
            "VlocityRecordSObjectType": "%vlocity_namespace%__OmniScript__c"
        },
        "Name": "BlckOfferOS02",
        "VlocityDataPackType": "VlocityMatchingKeyObject",
        "VlocityMatchingRecordSourceKey": "%vlocity_namespace%__Element__c/%vlocity_namespace%__OmniScript__c/VSP/OS03ContractSubscriptionOffreMobile/French/BlckOfferOS02",
        "VlocityRecordSObjectType": "%vlocity_namespace%__Element__c"
    },
    "%vlocity_namespace%__ParentElementName__c": "BlckOfferOS02",
    "%vlocity_namespace%__ParentElementType__c": "Block",
    "%vlocity_namespace%__PropertySet__c": {
        "HTMLTemplateId": "",
        "controlWidth": 11,
        "dataJSON": false,
        "disOnTplt": false,
        "label": null,
        "sanitize": false,
        "show": {
            "group": {
                "operator": "OR",
                "rules": [
                    {
                        "group": {
                            "operator": "AND",
                            "rules": [
                                {
                                    "condition": "=",
                                    "data": "true",
                                    "field": "showErrorOffer"
                                },
                                {
                                    "condition": "=",
                                    "data": "false",
                                    "field": "allowNextStep"
                                }
                            ]
                        }
                    },
                    {
                        "group": {
                            "operator": "AND",
                            "rules": [
                                {
                                    "condition": "=",
                                    "data": null,
                                    "field": "showErrorOffer"
                                },
                                {
                                    "condition": "=",
                                    "data": "false",
                                    "field": "allowNextStep"
                                }
                            ]
                        }
                    }
                ]
            }
        },
        "text": "<h5><span style=\"color: #ff0000;\">&nbsp; Veuillez selectionner une formule avant de proc&eacute;der au paiement !</span></h5>",
        "textKey": ""
    },
    "%vlocity_namespace%__ReusableOmniScript__c": false,
    "%vlocity_namespace%__Type__c": "Text Block",
    "Name": "TxtBlckErrorSelectOffer",
    "VlocityDataPackType": "SObject",
    "VlocityRecordSObjectType": "%vlocity_namespace%__Element__c",
    "VlocityRecordSourceKey": "%vlocity_namespace%__Element__c/%vlocity_namespace%__OmniScript__c/VSP/OS03ContractSubscriptionOffreMobile/French/TxtBlckErrorSelectOffer"
}