{
    "%vlocity_namespace%__Active__c": true,
    "%vlocity_namespace%__OmniScriptId__c": {
        "Name": "OS03ContractSubscriptionOffreMobile",
        "VlocityDataPackType": "VlocityMatchingKeyObject",
        "VlocityMatchingRecordSourceKey": "%vlocity_namespace%__OmniScript__c/VSP/OS03ContractSubscriptionOffreMobile/French",
        "VlocityRecordSObjectType": "%vlocity_namespace%__OmniScript__c"
    },
    "%vlocity_namespace%__ParentElementId__c": {
        "%vlocity_namespace%__OmniScriptId__c": {
            "Name": "OS03ContractSubscriptionOffreMobile",
            "VlocityDataPackType": "VlocityMatchingKeyObject",
            "VlocityMatchingRecordSourceKey": "%vlocity_namespace%__OmniScript__c/VSP/OS03ContractSubscriptionOffreMobile/French",
            "VlocityRecordSObjectType": "%vlocity_namespace%__OmniScript__c"
        },
        "Name": "StepCustomerIdentificationOS02",
        "VlocityDataPackType": "VlocityMatchingKeyObject",
        "VlocityMatchingRecordSourceKey": "%vlocity_namespace%__Element__c/%vlocity_namespace%__OmniScript__c/VSP/OS03ContractSubscriptionOffreMobile/French/StepCustomerIdentificationOS02",
        "VlocityRecordSObjectType": "%vlocity_namespace%__Element__c"
    },
    "%vlocity_namespace%__ParentElementName__c": "StepCustomerIdentificationOS02",
    "%vlocity_namespace%__ParentElementType__c": "Step",
    "%vlocity_namespace%__PropertySet__c": {
        "HTMLTemplateId": "",
        "controlWidth": 12,
        "dataJSON": false,
        "documentNames": [
            "CACBAECAA91b5bb24b3cb47769c94080406fe96ea"
        ],
        "label": "TextBlock1",
        "lwcComponentOverride": "",
        "sanitize": false,
        "show": {
            "group": {
                "operator": "AND",
                "rules": [
                    {
                        "condition": "<>",
                        "data": "SHOP",
                        "field": "orderChannel"
                    }
                ]
            }
        },
        "text": "<p><img style=\"display: block; margin-left: auto; margin-right: auto;\" src=\"/servlet/servlet.ImageServer?id=0153N000001D0LjQAK&amp;docName=CACBAECAA91b5bb24b3cb47769c94080406fe96ea&amp;oid=00D3N0000002Y8BUAU\" alt=\"Bandeau_formule.jpg\" width=\"447\" height=\"107\" /></p>",
        "textKey": ""
    },
    "%vlocity_namespace%__ReusableOmniScript__c": false,
    "%vlocity_namespace%__Type__c": "Text Block",
    "Name": "TextBlock1",
    "VlocityDataPackType": "SObject",
    "VlocityRecordSObjectType": "%vlocity_namespace%__Element__c",
    "VlocityRecordSourceKey": "%vlocity_namespace%__Element__c/%vlocity_namespace%__OmniScript__c/VSP/OS03ContractSubscriptionOffreMobile/French/TextBlock1"
}