{
    "StepCustomerIdentificationOS02": {
        "BlckIdentityPersonOS02": {
            "BlckAddress": {
                "TxtCityOS02": "szs",
                "TxtCountryOS02": "szs",
                "TxtPostalCodeOS02": "szs",
                "TxtStreetOS02": "szsz"
            },
            "CheckboxOptInMarketingOS02": false,
            "CheckboxOptInRGPDOS02": true,
            "EmailCustomerEmailOS02": "szs@szs.com",
            "PhoneCustomerPhoneNumberOS02": "5445454545",
            "SelectSalutationOS02": "M",
            "TxtFistNameOS02": "szsz",
            "TxtLastNameOS02": "zszs"
        }
    },
    "edEquipmentCategory1": 944408,
    "edEquipmentCategory2": 944405,
    "edEquipmentCategory3": null,
    "timeStamp": "2021-03-05T15:21:47.565Z",
    "userCurrencyCode": "EUR",
    "userId": "0057R00000AtLxpQAF",
    "userInputs": {
        "ED_INS_ITEM_EQUIPMENT.ATT_FORMULE": "Mono",
        "ED_PROD_Tranquilite.ATT_FORMULE": "Mono"
    },
    "userName": "achraf.lamzabi@verspieren.com.dev",
    "userProfile": "System Administrator",
    "userTimeZone": "60"
}