[
    {
        "%vlocity_namespace%__DomainObjectAPIName__c": "json",
        "%vlocity_namespace%__DomainObjectCreationOrder__c": 1,
        "%vlocity_namespace%__DomainObjectFieldAPIName__c": "userInputs:ED_INS_ITEM_EQUIPMENT.ATT_FORMULE",
        "%vlocity_namespace%__InterfaceFieldAPIName__c": "Formule",
        "%vlocity_namespace%__IsDisabled__c": false,
        "%vlocity_namespace%__IsRequiredForUpsert__c": false,
        "%vlocity_namespace%__MapId__c": "VSPDRTuserInputsCustom7554",
        "%vlocity_namespace%__UpsertKey__c": false,
        "Name": "VSPDRTuserInputs",
        "VlocityDataPackType": "SObject",
        "VlocityRecordSObjectType": "%vlocity_namespace%__DRMapItem__c"
    },
    {
        "%vlocity_namespace%__DomainObjectAPIName__c": "json",
        "%vlocity_namespace%__DomainObjectCreationOrder__c": 1,
        "%vlocity_namespace%__DomainObjectFieldAPIName__c": "userInputs:ED_INS_ITEM_EQUIPMENT.ATT_isBlanc",
        "%vlocity_namespace%__InterfaceFieldAPIName__c": "blanc",
        "%vlocity_namespace%__IsDisabled__c": false,
        "%vlocity_namespace%__IsRequiredForUpsert__c": false,
        "%vlocity_namespace%__MapId__c": "VSPDRTuserInputsCustom3968",
        "%vlocity_namespace%__TransformValuesMap__c": "{}",
        "%vlocity_namespace%__UpsertKey__c": false,
        "Name": "VSPDRTuserInputs",
        "VlocityDataPackType": "SObject",
        "VlocityRecordSObjectType": "%vlocity_namespace%__DRMapItem__c"
    },
    {
        "%vlocity_namespace%__DomainObjectAPIName__c": "json",
        "%vlocity_namespace%__DomainObjectCreationOrder__c": 1,
        "%vlocity_namespace%__DomainObjectFieldAPIName__c": "userInputs:ED_INS_ITEM_EQUIPMENT.ATT_isBrun",
        "%vlocity_namespace%__InterfaceFieldAPIName__c": "brun",
        "%vlocity_namespace%__IsDisabled__c": false,
        "%vlocity_namespace%__IsRequiredForUpsert__c": false,
        "%vlocity_namespace%__MapId__c": "VSPDRTuserInputsCustom5545",
        "%vlocity_namespace%__UpsertKey__c": false,
        "Name": "VSPDRTuserInputs",
        "VlocityDataPackType": "SObject",
        "VlocityRecordSObjectType": "%vlocity_namespace%__DRMapItem__c"
    },
    {
        "%vlocity_namespace%__DomainObjectAPIName__c": "json",
        "%vlocity_namespace%__DomainObjectCreationOrder__c": 1,
        "%vlocity_namespace%__DomainObjectFieldAPIName__c": "userInputs:ED_INS_ITEM_EQUIPMENT.ATT_isGris",
        "%vlocity_namespace%__InterfaceFieldAPIName__c": "gris",
        "%vlocity_namespace%__IsDisabled__c": false,
        "%vlocity_namespace%__IsRequiredForUpsert__c": false,
        "%vlocity_namespace%__MapId__c": "VSPDRTuserInputsCustom3749",
        "%vlocity_namespace%__UpsertKey__c": false,
        "Name": "VSPDRTuserInputs",
        "VlocityDataPackType": "SObject",
        "VlocityRecordSObjectType": "%vlocity_namespace%__DRMapItem__c"
    },
    {
        "%vlocity_namespace%__DomainObjectAPIName__c": "json",
        "%vlocity_namespace%__DomainObjectCreationOrder__c": 1,
        "%vlocity_namespace%__DomainObjectFieldAPIName__c": "userInputs:ED_PROD_Tranquilite.ATT_FORMULE",
        "%vlocity_namespace%__InterfaceFieldAPIName__c": "Formule",
        "%vlocity_namespace%__IsDisabled__c": false,
        "%vlocity_namespace%__IsRequiredForUpsert__c": false,
        "%vlocity_namespace%__MapId__c": "VSPDRTuserInputsCustom8569",
        "%vlocity_namespace%__UpsertKey__c": false,
        "Name": "VSPDRTuserInputs",
        "VlocityDataPackType": "SObject",
        "VlocityRecordSObjectType": "%vlocity_namespace%__DRMapItem__c"
    }
]