{
    "%vlocity_namespace%__CustomJavaScript__c": "VSP_IP01CustomerIdentificationMobile_SampleInput.json",
    "%vlocity_namespace%__DisableMetadataCache__c": false,
    "%vlocity_namespace%__ElementTypeToHTMLTemplateList__c": "{\"ElementTypeToHTMLTemplateList\":[]}",
    "%vlocity_namespace%__Element__c": [
        "VSP_IP01CustomerIdentificationMobile_Element_DREGetAccountIP01.json",
        "VSP_IP01CustomerIdentificationMobile_Element_CBlckCustomerDontExistIP01.json",
        "VSP_IP01CustomerIdentificationMobile_Element_DRLCreateCustomerIP01.json",
        "VSP_IP01CustomerIdentificationMobile_Element_ConditionalBlock2.json",
        "VSP_IP01CustomerIdentificationMobile_Element_SetValuesIdAccountIP01.json",
        "VSP_IP01CustomerIdentificationMobile_Element_DRLCreateOpptyIP01.json",
        "VSP_IP01CustomerIdentificationMobile_Element_SetValuesIdOpptyIP01.json",
        "VSP_IP01CustomerIdentificationMobile_Element_DataRaptorTransformAction2.json",
        "VSP_IP01CustomerIdentificationMobile_Element_RemoteAction2.json"
    ],
    "%vlocity_namespace%__IsLwcEnabled__c": false,
    "%vlocity_namespace%__IsProcedure__c": true,
    "%vlocity_namespace%__IsReusable__c": false,
    "%vlocity_namespace%__IsTest__c": false,
    "%vlocity_namespace%__Language__c": "Procedure",
    "%vlocity_namespace%__OmniProcessType__c": "Integration Procedure",
    "%vlocity_namespace%__ProcedureKey__c": "VSP_IP01CustomerIdentificationMobile",
    "%vlocity_namespace%__PropertySet__c": "VSP_IP01CustomerIdentificationMobile_PropertySet.json",
    "%vlocity_namespace%__SubType__c": "IP01CustomerIdentificationMobile",
    "%vlocity_namespace%__Type__c": "VSP",
    "Name": "IP01CustomerIdentificationMobile",
    "VlocityDataPackType": "SObject",
    "VlocityRecordSObjectType": "%vlocity_namespace%__OmniScript__c",
    "VlocityRecordSourceKey": "%vlocity_namespace%__OmniScript__c/VSP/IP01CustomerIdentificationMobile/Procedure"
}