{
    "%vlocity_namespace%__Active__c": true,
    "%vlocity_namespace%__OmniScriptId__c": {
        "Name": "IP01CustomerIdentificationMobile",
        "VlocityDataPackType": "VlocityMatchingKeyObject",
        "VlocityMatchingRecordSourceKey": "%vlocity_namespace%__OmniScript__c/VSP/IP01CustomerIdentificationMobile/Procedure",
        "VlocityRecordSObjectType": "%vlocity_namespace%__OmniScript__c"
    },
    "%vlocity_namespace%__PropertySet__c": {
        "actionMessage": "",
        "additionalInput": {
        },
        "additionalOutput": {
        },
        "bundle": "VSPDRECustomerCheckMobile",
        "chainOnStep": false,
        "dataRaptor Input Parameters": [
            {
                "element": "StepCustomerIdentificationOS02:BlckIdentityPersonOS02:TxtFistNameOS02",
                "inputParam": "firstname"
            },
            {
                "element": "StepCustomerIdentificationOS02:BlckIdentityPersonOS02:TxtLastNameOS02",
                "inputParam": "lastname"
            },
            {
                "element": "StepCustomerIdentificationOS02:BlckIdentityPersonOS02:BlckAddress:TxtPostalCodeOS02",
                "inputParam": "postalcode"
            },
            {
                "element": "StepCustomerIdentificationOS02:BlckIdentityPersonOS02:EmailCustomerEmailOS02",
                "inputParam": "email"
            }
        ],
        "disOnTplt": false,
        "executionConditionalFormula": "",
        "failOnStepError": true,
        "failureConditionalFormula": "",
        "failureResponse": {
        },
        "ignoreCache": false,
        "label": "DataRaptorExtractAction1",
        "responseJSONNode": "",
        "responseJSONPath": "",
        "returnOnlyAdditionalOutput": false,
        "returnOnlyFailureResponse": false,
        "sendJSONNode": "",
        "sendJSONPath": "",
        "sendOnlyAdditionalInput": false,
        "show": null,
        "useFormulas": true
    },
    "%vlocity_namespace%__ReusableOmniScript__c": false,
    "%vlocity_namespace%__Type__c": "DataRaptor Extract Action",
    "Name": "DREGetAccountIP01",
    "VlocityDataPackType": "SObject",
    "VlocityRecordSObjectType": "%vlocity_namespace%__Element__c",
    "VlocityRecordSourceKey": "%vlocity_namespace%__Element__c/%vlocity_namespace%__OmniScript__c/VSP/IP01CustomerIdentificationMobile/Procedure/DREGetAccountIP01"
}