{
    "%vlocity_namespace%__Active__c": true,
    "%vlocity_namespace%__OmniScriptId__c": {
        "Name": "OSContractSubscriptionRattrapage",
        "VlocityDataPackType": "VlocityMatchingKeyObject",
        "VlocityMatchingRecordSourceKey": "%vlocity_namespace%__OmniScript__c/VSP/OSContractSubscriptionRattrapage/French",
        "VlocityRecordSObjectType": "%vlocity_namespace%__OmniScript__c"
    },
    "%vlocity_namespace%__PropertySet__c": {
        "HTMLTemplateId": "",
        "controlWidth": 12,
        "disOnTplt": false,
        "elementValueMap": {
            "TypeAsset": "Affaire nouvelle",
            "assetStatus": "xx",
            "billingFrequency": "Monthly",
            "effectiveDate": "=TODAY()",
            "nameJuridiction": "FR",
            "num_client": "%EDInformations:Num_client%",
            "num_contrat": "%EDInformations:Num_contrat%",
            "num_quittance": "%EDInformations:Num_quittance%",
            "orderChannel": "SHOP",
            "productCode": "ED_ELECTROSUR",
            "rum": "%EDInformations:Rum%",
            "statutValide": "03"
        },
        "label": "SetValues1",
        "message": {
        },
        "pubsub": false,
        "show": null,
        "showPersistentComponent": [
            false,
            false
        ],
        "ssm": false,
        "wpm": false
    },
    "%vlocity_namespace%__ReusableOmniScript__c": false,
    "%vlocity_namespace%__Type__c": "Set Values",
    "Name": "SetValuesInitParcoursOS2",
    "VlocityDataPackType": "SObject",
    "VlocityRecordSObjectType": "%vlocity_namespace%__Element__c",
    "VlocityRecordSourceKey": "%vlocity_namespace%__Element__c/%vlocity_namespace%__OmniScript__c/VSP/OSContractSubscriptionRattrapage/French/SetValuesInitParcoursOS2"
}