{
    "%vlocity_namespace%__Active__c": true,
    "%vlocity_namespace%__OmniScriptId__c": {
        "Name": "OSContractSubscriptionRattrapage",
        "VlocityDataPackType": "VlocityMatchingKeyObject",
        "VlocityMatchingRecordSourceKey": "%vlocity_namespace%__OmniScript__c/VSP/OSContractSubscriptionRattrapage/French",
        "VlocityRecordSObjectType": "%vlocity_namespace%__OmniScript__c"
    },
    "%vlocity_namespace%__ParentElementId__c": {
        "%vlocity_namespace%__OmniScriptId__c": {
            "Name": "OSContractSubscriptionRattrapage",
            "VlocityDataPackType": "VlocityMatchingKeyObject",
            "VlocityMatchingRecordSourceKey": "%vlocity_namespace%__OmniScript__c/VSP/OSContractSubscriptionRattrapage/French",
            "VlocityRecordSObjectType": "%vlocity_namespace%__OmniScript__c"
        },
        "Name": "StepMandatGenerationOS02",
        "VlocityDataPackType": "VlocityMatchingKeyObject",
        "VlocityMatchingRecordSourceKey": "%vlocity_namespace%__Element__c/%vlocity_namespace%__OmniScript__c/VSP/OSContractSubscriptionRattrapage/French/StepMandatGenerationOS02",
        "VlocityRecordSObjectType": "%vlocity_namespace%__Element__c"
    },
    "%vlocity_namespace%__ParentElementName__c": "StepMandatGenerationOS02",
    "%vlocity_namespace%__ParentElementType__c": "Step",
    "%vlocity_namespace%__PropertySet__c": {
        "HTMLTemplateId": "",
        "controlWidth": 12,
        "dataJSON": false,
        "documentNames": [
            "CACBADBAAea5f4cf70cfb45c5ad2490c6f0bb1735"
        ],
        "label": "TextBlock1",
        "sanitize": false,
        "show": null,
        "text": "<p style=\"text-align: center;\">Fichier pour impression</p>\n<p style=\"text-align: center;\"><a href=\"https://dev-verspierenaff.cs100.force.com/apex/MandatPDF_VFP?ogicontract=%num_contrat%&amp;id=%CreatedAccount%&amp;iban=%StepPaymentIBANOS02:TxtBankAccountNumberOS02%&amp;rum=%rum%\" target=\"_blank\" rel=\"noopener\"><img src=\"../servlet/servlet.ImageServer?id=0153N000001D0LZQA0&amp;docName=CACBADBAAea5f4cf70cfb45c5ad2490c6f0bb1735&amp;oid=00D3N0000002Y8BUAU\" alt=\"\" width=\"130\" height=\"100\" /></a></p>",
        "textKey": ""
    },
    "%vlocity_namespace%__ReusableOmniScript__c": false,
    "%vlocity_namespace%__Type__c": "Text Block",
    "Name": "TxtBlckMandatPdfOS02",
    "VlocityDataPackType": "SObject",
    "VlocityRecordSObjectType": "%vlocity_namespace%__Element__c",
    "VlocityRecordSourceKey": "%vlocity_namespace%__Element__c/%vlocity_namespace%__OmniScript__c/VSP/OSContractSubscriptionRattrapage/French/TxtBlckMandatPdfOS02"
}