{
    "BankDebitDay": "5",
    "CodeProduit": "UI98819",
    "CodeProduitOGI": "ElectrosurMobile4E",
    "CreatedAccount": "0019E00001YhkoLQAR",
    "CreatedOpportunity": "0069E00000I1gafQAB",
    "DateNaissanceCof": "",
    "ExtDistributorOrderId": "",
    "ExtDistributorSellerId_C": "",
    "ExtMerchantTransactionId": "",
    "Ext_DistributorCustomerID": "",
    "FirstStepFlag": true,
    "FormuleMobile": "OFMO2",
    "IMEI": "AZI981989",
    "Id": "0019E00001YhkoLQAR",
    "Label": "Electrosur Casse Vol Tel mobile 4€",
    "Marque": "ONEPLUS",
    "Modele": "ONEPLUS7",
    "Opportunity_1": [
        {
            "AccountId": "0019E00001YhkoLQAR",
            "CloseDate": "2021-07-30",
            "Id": "0069E00000I1gafQAB",
            "Name": "OPT-aaaaaaFri Jul 30 00:00:00 GMT 2021",
            "StageName": "Qualification",
            "UpsertSuccess": true
        }
    ],
    "PrixTTC": 500,
    "ProduitCond": "False",
    "StepContolIsNotNexClientOS02": null,
    "StepCustomerIdentificationOS02": {
        "BlckIdentityPersonOS02": {
            "BlckAddress": {
                "TxtCityOS02": "sszs",
                "TxtCountryOS02": "France",
                "TxtPostalCodeOS02": "74544",
                "TxtStreetOS02": " aaszaq"
            },
            "BlckPaymentMethod": {
                "SelectPaymentMethod": "IBAN"
            },
            "CheckboxOptInMarketingOS02": false,
            "CheckboxOptInRGPDOS02": true,
            "DateBirthDateOS02": "2000-07-06",
            "EmailCustomerEmailOS02": "achlamzabi@yopmail.com",
            "FormulaDate": "OK",
            "PhoneCofidisCustomerPhoneNumberOS02": "619109121",
            "PhoneCustomerPhoneNumberOS02": "33619109121",
            "SelectSalutationOS02": "3",
            "TxtFistNameOS02": "aaa",
            "TxtLastNameOS02": "aaa"
        },
        "BlckOfferOS02": {
            "productConfig": {
                "records": [
                    {
                        "CalculatedPriceData": {
                            "ID": "0",
                            "vspCMEDTarifMobile__commissionCofidis": "0.17",
                            "vspCMEDTarifMobile__commissionCofidisAnnuel": "2",
                            "vspCMEDTarifMobile__commissionED": "1.26",
                            "vspCMEDTarifMobile__commissionEDAnnuel": "15.1",
                            "vspCMEDTarifMobile__commissionVSP": "0.7",
                            "vspCMEDTarifMobile__commissionVSPAnnuel": "8.51",
                            "vspCMEDTarifMobile__montantHT": "3.96",
                            "vspCMEDTarifMobile__montantHTAnnuel": "44.01",
                            "vspCMEDTarifMobile__partSeyna": "1.53",
                            "vspCMEDTarifMobile__partSeynaAnnuel": "18.4",
                            "vspCMFormuleWebMobile__CodeProduitOGI": "TM4",
                            "vspCMFormuleWebMobile__FormuleMobile": "OFMO2",
                            "vspCMFormuleWebMobile__Label": "Electrosur Casse Vol Tel mobile 4€"
                        },
                        "Description": "Cette garantie s'applique au mobile neuf ou reconditionné de moins de 3 ans achetés chez Electro dépôt",
                        "Family": "ElectroDepot",
                        "Id": "01t9E00000BJ8dlQAD",
                        "IsConfigurable__c": true,
                        "IsRecommended__c": false,
                        "LineOfBusiness__c": "Property & Casualty",
                        "Name": "Electrosûr Casse Mobile",
                        "Price": 3.96,
                        "PricingFormula__c": "vspCMEDTarifMobile__montantHT",
                        "ProductCode": "ED_ELECTROSUR_MOB",
                        "RawPriceData": [
                            {
                                "aggregationResults": null,
                                "calculationResults": [
                                    {
                                        "ID": "0",
                                        "vspCMEDTarifMobile__commissionCofidis": "0.17",
                                        "vspCMEDTarifMobile__commissionCofidisAnnuel": "2",
                                        "vspCMEDTarifMobile__commissionED": "1.26",
                                        "vspCMEDTarifMobile__commissionEDAnnuel": "15.1",
                                        "vspCMEDTarifMobile__commissionVSP": "0.7",
                                        "vspCMEDTarifMobile__commissionVSPAnnuel": "8.51",
                                        "vspCMEDTarifMobile__montantHT": "3.96",
                                        "vspCMEDTarifMobile__montantHTAnnuel": "44.01",
                                        "vspCMEDTarifMobile__partSeyna": "1.53",
                                        "vspCMEDTarifMobile__partSeynaAnnuel": "18.4",
                                        "vspCMFormuleWebMobile__CodeProduitOGI": "TM4",
                                        "vspCMFormuleWebMobile__FormuleMobile": "OFMO2",
                                        "vspCMFormuleWebMobile__Label": "Electrosur Casse Vol Tel mobile 4€"
                                    }
                                ]
                            }
                        ],
                        "RecordTypeName__c": "Product",
                        "SubType__c": "MultiProduct",
                        "Term__c": "Monthly",
                        "TotalInsuredFormula__c": "vspCMEDTarifMobile__montantHTAnnuel",
                        "Type__c": "Affinity",
                        "attributeCategories": {
                            "records": [
                                {
                                    "Code__c": "ATT_CAT_OFFER",
                                    "Name": "Offre",
                                    "displaySequence": 20,
                                    "id": "a0U9E00000Cq8CiUAJ",
                                    "productAttributes": {
                                        "records": [
                                            {
                                                "attributeId": "a0V9E0000085rTyUAI",
                                                "cloneable": true,
                                                "code": "ATT_FormuleMobile",
                                                "dataType": "text",
                                                "disabled": false,
                                                "displaySequence": 0,
                                                "filterable": true,
                                                "hasRules": false,
                                                "hidden": false,
                                                "inputType": "text",
                                                "isNotTranslatable": false,
                                                "label": "FormuleMobile",
                                                "multiselect": false,
                                                "readonly": false,
                                                "required": false,
                                                "userValues": null,
                                                "values": [
                                                    {
                                                        "disabled": false,
                                                        "readonly": false
                                                    }
                                                ]
                                            }
                                        ],
                                        "totalSize": 1
                                    }
                                }
                            ],
                            "totalSize": 1
                        },
                        "childProducts": {
                            "records": [
                                {
                                    "Family": "ElectroDepot",
                                    "Id": "01t9E00000BJ8BiQAL",
                                    "IsConfigurable__c": true,
                                    "IsRecommended__c": false,
                                    "Name": "Offre Mobile 7€ (mobile de 300-500€)",
                                    "ProductCode": "ED_COV_CASSEVOLMOB7",
                                    "RecordTypeName__c": "CoverageSpec",
                                    "Term__c": "Annual",
                                    "attributeCategories": {
                                        "records": [
                                            {
                                                "Code__c": "ATT_CAT_CASSEVOL",
                                                "Name": "CasseVol",
                                                "displaySequence": 50,
                                                "id": "a0U9E00000Cr1VVUAZ",
                                                "productAttributes": {
                                                    "records": [
                                                        {
                                                            "attributeId": "a0V9E0000085rTVUAY",
                                                            "cloneable": true,
                                                            "code": "ATT_MobLimite",
                                                            "dataType": "text",
                                                            "disabled": false,
                                                            "displaySequence": 0,
                                                            "filterable": true,
                                                            "hasRules": false,
                                                            "hidden": false,
                                                            "inputType": "radio",
                                                            "isNotTranslatable": false,
                                                            "label": "Limite",
                                                            "multiselect": false,
                                                            "readonly": false,
                                                            "required": false,
                                                            "userValues": "1500",
                                                            "values": [
                                                                {
                                                                    "disabled": false,
                                                                    "id": "0",
                                                                    "label": "0",
                                                                    "readonly": false,
                                                                    "value": "0"
                                                                },
                                                                {
                                                                    "disabled": false,
                                                                    "id": "1",
                                                                    "label": "1500",
                                                                    "readonly": false,
                                                                    "value": "1500"
                                                                }
                                                            ]
                                                        }
                                                    ],
                                                    "totalSize": 1
                                                }
                                            }
                                        ],
                                        "totalSize": 1
                                    },
                                    "displaySequence": 2,
                                    "isOptional": true,
                                    "isSelected": false,
                                    "pciId": "a4d9E000000GcmWQAS",
                                    "productId": "01t9E00000BJ8BiQAL",
                                    "requiredCriteria": "ED_INS_ITEM_PHONE.ATT_Produit_OGI == \"ElectrosurMobile7E\""
                                },
                                {
                                    "Family": "ElectroDepot",
                                    "Id": "01t9E00000BJ899QAD",
                                    "IsConfigurable__c": true,
                                    "IsRecommended__c": false,
                                    "LineOfBusiness__c": "Property & Casualty",
                                    "Name": "Offre Mobile 4€ (mobile de 150-300€)",
                                    "ProductCode": "ED_COV_CASSEVOLMOB4",
                                    "RecordTypeName__c": "CoverageSpec",
                                    "SubType__c": "MultiProduct",
                                    "Term__c": "Annual",
                                    "Type__c": "Affinity",
                                    "attributeCategories": {
                                        "records": [
                                            {
                                                "Code__c": "ATT_CAT_CASSEVOL",
                                                "Name": "CasseVol",
                                                "displaySequence": 50,
                                                "id": "a0U9E00000Cr1VVUAZ",
                                                "productAttributes": {
                                                    "records": [
                                                        {
                                                            "attributeId": "a0V9E0000085rTVUAY",
                                                            "cloneable": true,
                                                            "code": "ATT_MobLimite",
                                                            "dataType": "text",
                                                            "disabled": false,
                                                            "displaySequence": 0,
                                                            "filterable": true,
                                                            "hasRules": false,
                                                            "hidden": false,
                                                            "inputType": "radio",
                                                            "isNotTranslatable": false,
                                                            "label": "Limite",
                                                            "multiselect": false,
                                                            "readonly": false,
                                                            "required": false,
                                                            "userValues": "1500",
                                                            "values": [
                                                                {
                                                                    "disabled": false,
                                                                    "id": "0",
                                                                    "label": "0",
                                                                    "readonly": false,
                                                                    "value": "0"
                                                                },
                                                                {
                                                                    "disabled": false,
                                                                    "id": "1",
                                                                    "label": "1500",
                                                                    "readonly": false,
                                                                    "value": "1500"
                                                                }
                                                            ]
                                                        }
                                                    ],
                                                    "totalSize": 1
                                                }
                                            }
                                        ],
                                        "totalSize": 1
                                    },
                                    "displaySequence": 4,
                                    "isOptional": false,
                                    "isSelected": true,
                                    "pciId": "a4d9E000000GcmTQAS",
                                    "productId": "01t9E00000BJ899QAD",
                                    "requiredCriteria": "ED_INS_ITEM_PHONE.ATT_Produit_OGI == \"ElectrosurMobile4E\""
                                },
                                {
                                    "Family": "ElectroDepot",
                                    "Id": "01t9E00000BJ8BjQAL",
                                    "IsConfigurable__c": true,
                                    "IsRecommended__c": false,
                                    "LineOfBusiness__c": "Property & Casualty",
                                    "Name": "Offre Mobile 2€ (mobile de 0-150€)",
                                    "ProductCode": "ED_COV_CASSEVOLMOB2",
                                    "RecordTypeName__c": "CoverageSpec",
                                    "SubType__c": "MultiProduct",
                                    "Term__c": "Annual",
                                    "Type__c": "Affinity",
                                    "attributeCategories": {
                                        "records": [
                                            {
                                                "Code__c": "ATT_CAT_CASSEVOL",
                                                "Name": "CasseVol",
                                                "displaySequence": 50,
                                                "id": "a0U9E00000Cr1VVUAZ",
                                                "productAttributes": {
                                                    "records": [
                                                        {
                                                            "attributeId": "a0V9E0000085rTVUAY",
                                                            "cloneable": true,
                                                            "code": "ATT_MobLimite",
                                                            "dataType": "text",
                                                            "disabled": false,
                                                            "displaySequence": 0,
                                                            "filterable": true,
                                                            "hasRules": false,
                                                            "hidden": false,
                                                            "inputType": "radio",
                                                            "isNotTranslatable": false,
                                                            "label": "Limite",
                                                            "multiselect": false,
                                                            "readonly": false,
                                                            "required": false,
                                                            "userValues": "1500",
                                                            "values": [
                                                                {
                                                                    "disabled": false,
                                                                    "id": "0",
                                                                    "label": "0",
                                                                    "readonly": false,
                                                                    "value": "0"
                                                                },
                                                                {
                                                                    "disabled": false,
                                                                    "id": "1",
                                                                    "label": "1500",
                                                                    "readonly": false,
                                                                    "value": "1500"
                                                                }
                                                            ]
                                                        }
                                                    ],
                                                    "totalSize": 1
                                                }
                                            }
                                        ],
                                        "totalSize": 1
                                    },
                                    "displaySequence": 1,
                                    "isOptional": true,
                                    "isSelected": false,
                                    "pciId": "a4d9E000000GcmSQAS",
                                    "productId": "01t9E00000BJ8BjQAL",
                                    "requiredCriteria": "ED_INS_ITEM_PHONE.ATT_Produit_OGI == \"ElectrosurMobile2E\""
                                },
                                {
                                    "Family": "ElectroDepot",
                                    "Id": "01t9E00000BJ898QAD",
                                    "IsConfigurable__c": true,
                                    "IsRecommended__c": false,
                                    "Name": "Offre Mobile 10€ (mobile de 500€ et +)",
                                    "ProductCode": "ED_COV_CASSEVOLMOB10",
                                    "RecordTypeName__c": "CoverageSpec",
                                    "Term__c": "Annual",
                                    "attributeCategories": {
                                        "records": [
                                            {
                                                "Code__c": "ATT_CAT_CASSEVOL",
                                                "Name": "CasseVol",
                                                "displaySequence": 50,
                                                "id": "a0U9E00000Cr1VVUAZ",
                                                "productAttributes": {
                                                    "records": [
                                                        {
                                                            "attributeId": "a0V9E0000085rTVUAY",
                                                            "cloneable": true,
                                                            "code": "ATT_MobLimite",
                                                            "dataType": "text",
                                                            "disabled": false,
                                                            "displaySequence": 0,
                                                            "filterable": true,
                                                            "hasRules": false,
                                                            "hidden": false,
                                                            "inputType": "radio",
                                                            "isNotTranslatable": false,
                                                            "label": "Limite",
                                                            "multiselect": false,
                                                            "readonly": false,
                                                            "required": false,
                                                            "userValues": "1500",
                                                            "values": [
                                                                {
                                                                    "disabled": false,
                                                                    "id": "0",
                                                                    "label": "0",
                                                                    "readonly": false,
                                                                    "value": "0"
                                                                },
                                                                {
                                                                    "disabled": false,
                                                                    "id": "1",
                                                                    "label": "1500",
                                                                    "readonly": false,
                                                                    "value": "1500"
                                                                }
                                                            ]
                                                        }
                                                    ],
                                                    "totalSize": 1
                                                }
                                            }
                                        ],
                                        "totalSize": 1
                                    },
                                    "displaySequence": 3,
                                    "isOptional": true,
                                    "isSelected": false,
                                    "pciId": "a4d9E000000GcmUQAS",
                                    "productId": "01t9E00000BJ898QAD",
                                    "requiredCriteria": "ED_INS_ITEM_PHONE.ATT_Produit_OGI == \"ElectrosurMobile10E\""
                                },
                                {
                                    "Family": "ElectroDepot",
                                    "Id": "01t9E00000BJ897QAD",
                                    "IsConfigurable__c": true,
                                    "IsRecommended__c": false,
                                    "LineOfBusiness__c": "Property & Casualty",
                                    "Name": "Telephone",
                                    "ProductCode": "ED_INS_ITEM_PHONE",
                                    "RecordTypeName__c": "InsuredItemSpec",
                                    "SubType__c": "MultiProduct",
                                    "Term__c": "Annual",
                                    "Type__c": "Affinity",
                                    "attributeCategories": {
                                        "records": [
                                            {
                                                "Code__c": "ATT_CAT_OFFER",
                                                "Name": "Offre",
                                                "displaySequence": 20,
                                                "id": "a0U9E00000Cq8CiUAJ",
                                                "productAttributes": {
                                                    "records": [
                                                        {
                                                            "attributeId": "a0V9E0000085rTyUAI",
                                                            "cloneable": true,
                                                            "code": "ATT_FormuleMobile",
                                                            "dataType": "text",
                                                            "disabled": false,
                                                            "displaySequence": 7,
                                                            "filterable": true,
                                                            "hasRules": false,
                                                            "hidden": false,
                                                            "inputType": "text",
                                                            "isNotTranslatable": false,
                                                            "label": "FormuleMobile",
                                                            "multiselect": false,
                                                            "readonly": false,
                                                            "required": false,
                                                            "userValues": "OFMO2",
                                                            "values": [
                                                                {
                                                                    "disabled": false,
                                                                    "readonly": false
                                                                }
                                                            ]
                                                        }
                                                    ],
                                                    "totalSize": 1
                                                }
                                            },
                                            {
                                                "Code__c": "ATT_CAT_PHONE",
                                                "Name": "Phone",
                                                "displaySequence": 40,
                                                "id": "a0U9E00000Cr1VfUAJ",
                                                "productAttributes": {
                                                    "records": [
                                                        {
                                                            "attributeId": "a0V9E0000085rTbUAI",
                                                            "cloneable": true,
                                                            "code": "ATT_IMEI",
                                                            "dataType": "text",
                                                            "disabled": false,
                                                            "displaySequence": 0,
                                                            "filterable": true,
                                                            "hasRules": false,
                                                            "hidden": false,
                                                            "inputType": "text",
                                                            "isNotTranslatable": false,
                                                            "label": "IMEI",
                                                            "multiselect": false,
                                                            "readonly": false,
                                                            "required": false,
                                                            "userValues": "AZI981989",
                                                            "values": [
                                                                {
                                                                    "disabled": false,
                                                                    "readonly": false
                                                                }
                                                            ]
                                                        },
                                                        {
                                                            "attributeId": "a0V9E0000085rTcUAI",
                                                            "cloneable": true,
                                                            "code": "ATT_Marque",
                                                            "dataType": "text",
                                                            "disabled": false,
                                                            "displaySequence": 1,
                                                            "filterable": true,
                                                            "hasRules": false,
                                                            "hidden": false,
                                                            "inputType": "text",
                                                            "isNotTranslatable": false,
                                                            "label": "Marque",
                                                            "multiselect": false,
                                                            "readonly": false,
                                                            "required": false,
                                                            "userValues": "ONEPLUS",
                                                            "values": [
                                                                {
                                                                    "disabled": false,
                                                                    "readonly": false
                                                                }
                                                            ]
                                                        },
                                                        {
                                                            "attributeId": "a0V9E0000085rTeUAI",
                                                            "cloneable": true,
                                                            "code": "ATT_Prix_TTC",
                                                            "dataType": "text",
                                                            "disabled": false,
                                                            "displaySequence": 2,
                                                            "filterable": true,
                                                            "hasRules": false,
                                                            "hidden": false,
                                                            "inputType": "text",
                                                            "isNotTranslatable": false,
                                                            "label": "Prix de vente TTC",
                                                            "multiselect": false,
                                                            "readonly": false,
                                                            "required": false,
                                                            "userValues": "500",
                                                            "values": [
                                                                {
                                                                    "disabled": false,
                                                                    "readonly": false
                                                                }
                                                            ]
                                                        },
                                                        {
                                                            "attributeId": "a0V9E0000085rTdUAI",
                                                            "cloneable": true,
                                                            "code": "ATT_Modele",
                                                            "dataType": "text",
                                                            "disabled": false,
                                                            "displaySequence": 3,
                                                            "filterable": true,
                                                            "hasRules": false,
                                                            "hidden": false,
                                                            "inputType": "text",
                                                            "isNotTranslatable": false,
                                                            "label": "Modele",
                                                            "multiselect": false,
                                                            "readonly": false,
                                                            "required": false,
                                                            "userValues": "ONEPLUS7",
                                                            "values": [
                                                                {
                                                                    "disabled": false,
                                                                    "readonly": false
                                                                }
                                                            ]
                                                        },
                                                        {
                                                            "attributeId": "a0V9E0000085rTaUAI",
                                                            "cloneable": true,
                                                            "code": "ATT_Code_Produit",
                                                            "dataType": "text",
                                                            "disabled": false,
                                                            "displaySequence": 4,
                                                            "filterable": true,
                                                            "hasRules": false,
                                                            "hidden": false,
                                                            "inputType": "text",
                                                            "isNotTranslatable": false,
                                                            "label": "Code Produit",
                                                            "multiselect": false,
                                                            "readonly": false,
                                                            "required": false,
                                                            "userValues": "UI98819",
                                                            "values": [
                                                                {
                                                                    "disabled": false,
                                                                    "readonly": false
                                                                }
                                                            ]
                                                        },
                                                        {
                                                            "attributeId": "a0V9E0000085rThUAI",
                                                            "cloneable": true,
                                                            "code": "ATT_Produit_Recond",
                                                            "dataType": "text",
                                                            "disabled": false,
                                                            "displaySequence": 5,
                                                            "filterable": true,
                                                            "hasRules": false,
                                                            "hidden": false,
                                                            "inputType": "radio",
                                                            "isNotTranslatable": false,
                                                            "label": "Produit Reconditionné",
                                                            "multiselect": false,
                                                            "readonly": false,
                                                            "required": false,
                                                            "userValues": "False",
                                                            "values": [
                                                                {
                                                                    "disabled": false,
                                                                    "id": "0",
                                                                    "label": "neuf",
                                                                    "readonly": false,
                                                                    "value": "neuf"
                                                                },
                                                                {
                                                                    "disabled": false,
                                                                    "id": "1",
                                                                    "label": "recond",
                                                                    "readonly": false,
                                                                    "value": "recond"
                                                                }
                                                            ]
                                                        },
                                                        {
                                                            "attributeId": "a0V9E0000085rTgUAI",
                                                            "cloneable": true,
                                                            "code": "ATT_Produit_OGI",
                                                            "dataType": "text",
                                                            "disabled": false,
                                                            "displaySequence": 6,
                                                            "filterable": true,
                                                            "hasRules": false,
                                                            "hidden": false,
                                                            "inputType": "dropdown",
                                                            "isNotTranslatable": false,
                                                            "label": "Gamme Produit OGI",
                                                            "multiselect": false,
                                                            "readonly": false,
                                                            "required": false,
                                                            "userValues": "ElectrosurMobile4E",
                                                            "values": [
                                                                {
                                                                    "disabled": false,
                                                                    "id": "0",
                                                                    "label": "ElectrosurMobile2E",
                                                                    "readonly": false,
                                                                    "value": "ElectrosurMobile2E"
                                                                },
                                                                {
                                                                    "disabled": false,
                                                                    "id": "1",
                                                                    "label": "ElectrosurMobile4E",
                                                                    "readonly": false,
                                                                    "value": "ElectrosurMobile4E"
                                                                },
                                                                {
                                                                    "disabled": false,
                                                                    "id": "2",
                                                                    "label": "ElectrosurMobile7E",
                                                                    "readonly": false,
                                                                    "value": "ElectrosurMobile7E"
                                                                },
                                                                {
                                                                    "disabled": false,
                                                                    "id": "3",
                                                                    "label": "ElectrosurMobile10E",
                                                                    "readonly": false,
                                                                    "value": "ElectrosurMobile10E"
                                                                }
                                                            ]
                                                        }
                                                    ],
                                                    "totalSize": 7
                                                }
                                            }
                                        ],
                                        "totalSize": 2
                                    },
                                    "displaySequence": 1,
                                    "maxQuantity": 1,
                                    "minQuantity": 1,
                                    "pciId": "a4d9E000000GcmVQAS",
                                    "productId": "01t9E00000BJ897QAD"
                                }
                            ],
                            "totalSize": 5
                        },
                        "currencyCode": "EUR",
                        "currencySymbol": "€",
                        "displaySequence": -1,
                        "productId": "01t9E00000BJ8dlQAD",
                        "taxAmount": 0.3564,
                        "taxesAndFees": [
                            {
                                "Amount__c": null,
                                "Condition__c": null,
                                "Id": "a4P9E0000005kYXUAY",
                                "IsRefundable__c": true,
                                "JurisdictionId__c": "a3C9E000000YipHUAS",
                                "Name": "fee2b020-11cf-39a9-db75-0922c2608e04",
                                "Percent__c": 9,
                                "ProcedureFormula__c": null,
                                "ProcedureName__c": null,
                                "ProcedureSource__c": null,
                                "RatingType__c": "Percent",
                                "Type__c": "Tax",
                                "calculatedAmount": 0.3564,
                                "currencyCode": "EUR",
                                "currencySymbol": "€"
                            }
                        ],
                        "totalSumInsured": 44.01,
                        "totalTaxFeeAmount": 0.3564
                    }
                ],
                "totalSize": 1
            }
        },
        "BlckProduitAssureOS03": {
            "SelectConditionneOS03": false,
            "TxtIMEIOS03": "AZI981989",
            "TxtMarqueOS03": "ONEPLUS",
            "TxtMobileProductCodeOS03": "UI98819",
            "TxtModeleOS03": "ONEPLUS7",
            "TxtPrixMobileOS03": 500
        },
        "FormulaNewAsset": 0,
        "MessagingEditStepIdentityOS02": false
    },
    "StepErrorCreateContratOGIOS02": null,
    "StepMandatGenerationOS02": null,
    "StepPaymentCBOS02": null,
    "StepPaymentIBANOS02": {
        "CheckboxProcessPapierOS02": false,
        "TxtBankAccountHolderOS02": "aaa aaa",
        "TxtBankAccountNumber1OS02": "FR7630004000031234567890143",
        "TxtBankAccountNumberOS02": "FR7630004000031234567890143"
    },
    "StepYousignSignatureOS01": {
    },
    "TxtBankAccount": "FR7630004000031234567890143",
    "TxtBankAccountNumberOS02": "FR7630001007941234567890185",
    "TypeAsset": "Affaire nouvelle",
    "allowNextStep": true,
    "assetStatus": "xx",
    "billingFrequency": "Monthly",
    "customerCheckIfAssetExist": false,
    "customerExist": true,
    "data": {
        "bankData": {
            "bankCode": "",
            "name": ""
        },
        "checkResults": {
            "bankCode": false
        },
        "iban": "FR7630004000031234567890143",
        "messages": [
            "Cannot validate bank code length. No information available.",
            "Cannot get BIC. No information available."
        ],
        "valid": true
    },
    "edEquipmentCategory1": 0,
    "edEquipmentCategory2": 0,
    "edEquipmentCategory3": 0,
    "effectiveDate": "2021-07-29T22:00:00.000Z",
    "equipmentCategoryList": "",
    "itemReference": 971756,
    "juridictionId": "a3C9E000000YipHUAS",
    "merchantCountry": "",
    "merchantDateTransaction": "",
    "merchantId": "",
    "merchantTransactionDate": "--",
    "merchantTransactionId": "",
    "nameJuridiction": "FR",
    "numMagasin": "F924",
    "orderChannel": "SHOP",
    "productCode": "ED_ELECTROSUR_MOB",
    "providerId": "",
    "providerTransactionId": "",
    "quoteId": "0Q09E000001JmrtSAC",
    "quoteJson": {
        "CalculatedPriceData": {
            "ID": "0",
            "vspCMEDTarifMobile__commissionCofidis": "0.17",
            "vspCMEDTarifMobile__commissionCofidisAnnuel": "2",
            "vspCMEDTarifMobile__commissionED": "1.26",
            "vspCMEDTarifMobile__commissionEDAnnuel": "15.1",
            "vspCMEDTarifMobile__commissionVSP": "0.7",
            "vspCMEDTarifMobile__commissionVSPAnnuel": "8.51",
            "vspCMEDTarifMobile__montantHT": "3.96",
            "vspCMEDTarifMobile__montantHTAnnuel": "44.01",
            "vspCMEDTarifMobile__partSeyna": "1.53",
            "vspCMEDTarifMobile__partSeynaAnnuel": "18.4",
            "vspCMFormuleWebMobile__CodeProduitOGI": "TM4",
            "vspCMFormuleWebMobile__FormuleMobile": "OFMO2",
            "vspCMFormuleWebMobile__Label": "Electrosur Casse Vol Tel mobile 4€"
        },
        "Description": "Cette garantie s'applique au mobile neuf ou reconditionné de moins de 3 ans achetés chez Electro dépôt",
        "Family": "ElectroDepot",
        "IsConfigurable__c": true,
        "IsRecommended__c": false,
        "LineOfBusiness__c": "Property & Casualty",
        "Name": "Electrosûr Casse Mobile",
        "Price": 3.96,
        "PricingFormula__c": "vspCMEDTarifMobile__montantHT",
        "ProductCode": "ED_ELECTROSUR_MOB",
        "RawPriceData": [
            {
                "aggregationResults": null,
                "calculationResults": [
                    {
                        "ID": "0",
                        "vspCMEDTarifMobile__commissionCofidis": "0.17",
                        "vspCMEDTarifMobile__commissionCofidisAnnuel": "2",
                        "vspCMEDTarifMobile__commissionED": "1.26",
                        "vspCMEDTarifMobile__commissionEDAnnuel": "15.1",
                        "vspCMEDTarifMobile__commissionVSP": "0.7",
                        "vspCMEDTarifMobile__commissionVSPAnnuel": "8.51",
                        "vspCMEDTarifMobile__montantHT": "3.96",
                        "vspCMEDTarifMobile__montantHTAnnuel": "44.01",
                        "vspCMEDTarifMobile__partSeyna": "1.53",
                        "vspCMEDTarifMobile__partSeynaAnnuel": "18.4",
                        "vspCMFormuleWebMobile__CodeProduitOGI": "TM4",
                        "vspCMFormuleWebMobile__FormuleMobile": "OFMO2",
                        "vspCMFormuleWebMobile__Label": "Electrosur Casse Vol Tel mobile 4€"
                    }
                ]
            }
        ],
        "SubType__c": "MultiProduct",
        "Term__c": "Monthly",
        "TotalInsuredFormula__c": "vspCMEDTarifMobile__montantHTAnnuel",
        "Type__c": "Affinity",
        "additionalFields": {
            "Name": "QUTED-Fri Jul 30 00:00:00 GMT 2021",
            "Status": "Submitted"
        },
        "coverages": {
            "ED_COV_CASSEVOLMOB4": {
                "Id": "01t9E00000BJ899QAD",
                "Price": null,
                "ProductCode": "ED_COV_CASSEVOLMOB4",
                "isOptional": false,
                "isSelected": true,
                "pciId": "a4d9E000000GcmTQAS",
                "productId": "01t9E00000BJ899QAD",
                "productName": "Offre Mobile 4€ (mobile de 150-300€)",
                "recordType": "CoverageSpec",
                "selectedValues": {
                    "ATT_MobLimite": "1500"
                }
            }
        },
        "currencyCode": "EUR",
        "currencySymbol": "€",
        "effectiveDate": "2021-07-30",
        "insuredItemSpec": {
            "ED_INS_ITEM_PHONE": {
                "Id": "01t9E00000BJ897QAD",
                "Price": null,
                "ProductCode": "ED_INS_ITEM_PHONE",
                "pciId": "a4d9E000000GcmVQAS",
                "productId": "01t9E00000BJ897QAD",
                "productName": "Telephone",
                "recordType": "InsuredItemSpec",
                "selectedValues": {
                    "ATT_Code_Produit": "UI98819",
                    "ATT_FormuleMobile": "OFMO2",
                    "ATT_IMEI": "AZI981989",
                    "ATT_Marque": "ONEPLUS",
                    "ATT_Modele": "ONEPLUS7",
                    "ATT_Prix_TTC": "500",
                    "ATT_Produit_OGI": "ElectrosurMobile4E",
                    "ATT_Produit_Recond": "False"
                }
            }
        },
        "insuredItems": {
            "ED_INS_ITEM_PHONE": {
                "ATT_Code_Produit": "UI98819",
                "ATT_FormuleMobile": "OFMO2",
                "ATT_IMEI": "AZI981989",
                "ATT_Marque": "ONEPLUS",
                "ATT_Modele": "ONEPLUS7",
                "ATT_Prix_TTC": "500",
                "ATT_Produit_OGI": "ElectrosurMobile4E",
                "ATT_Produit_Recond": "False",
                "ProductCode": "ED_INS_ITEM_PHONE",
                "isParent": "True",
                "pciId": "a4d9E000000GcmVQAS",
                "productCode": "ED_INS_ITEM_PHONE",
                "productName": "Telephone"
            }
        },
        "opportunityId": "0069E00000I1gafQAB",
        "productId": "01t9E00000BJ8dlQAD",
        "recordType": "Product",
        "selectedValues": {
        },
        "taxAmount": 0.3564,
        "taxesAndFees": [
            {
                "Amount__c": null,
                "Condition__c": null,
                "Id": "a4P9E0000005kYXUAY",
                "IsRefundable__c": true,
                "JurisdictionId__c": "a3C9E000000YipHUAS",
                "Name": "fee2b020-11cf-39a9-db75-0922c2608e04",
                "Percent__c": 9,
                "ProcedureFormula__c": null,
                "ProcedureName__c": null,
                "ProcedureSource__c": null,
                "RatingType__c": "Percent",
                "Type__c": "Tax",
                "calculatedAmount": 0.3564,
                "currencyCode": "EUR",
                "currencySymbol": "€"
            }
        ],
        "totalSumInsured": 44.01,
        "totalTaxFeeAmount": 0.3564
    },
    "responseType": "SObject",
    "statutValide": "03",
    "timeStamp": "2021-07-30T16:42:36.289Z",
    "userCurrencyCode": "EUR",
    "userId": "0059E00000BMgxgQAD",
    "userInputs": {
        "ED_INS_ITEM_PHONE.ATT_Code_Produit": "UI98819",
        "ED_INS_ITEM_PHONE.ATT_FormuleMobile": "OFMO2",
        "ED_INS_ITEM_PHONE.ATT_IMEI": "AZI981989",
        "ED_INS_ITEM_PHONE.ATT_Marque": "ONEPLUS",
        "ED_INS_ITEM_PHONE.ATT_Modele": "ONEPLUS7",
        "ED_INS_ITEM_PHONE.ATT_Prix_TTC": 500,
        "ED_INS_ITEM_PHONE.ATT_Produit_OGI": "ElectrosurMobile4E",
        "ED_INS_ITEM_PHONE.ATT_Produit_Recond": "False"
    },
    "userName": "test-cuwu9odv56rl@example.com",
    "userProfile": "System Administrator",
    "userTimeZone": "120"
}