{
    "ContextId": null,
    "timeStamp": null,
    "userId": null,
    "userName": null,
    "userProfile": null,
    "userTimeZone": null,
    "vlcPersistentComponent": {
    },
    "vlcTimeTracking": {
        "CheckPaymentCreationMode": null,
        "CreatePayments": null,
        "CreateTransaction": null,
        "PrepareCreateTransaction": null
    }
}