{
    "ContextId": null,
    "timeStamp": null,
    "userId": null,
    "userName": null,
    "userProfile": null,
    "userTimeZone": null,
    "vlcPersistentComponent": {
    },
    "vlcTimeTracking": {
        "DRTSetElementsforPolicyIP02": null,
        "DataRaptorExtractAction1": null,
        "RemActCreateUpdatePolicyIP02": null
    }
}