{
    "%vlocity_namespace%__CustomJavaScript__c": "cliamLine_sinistre_SampleInput.json",
    "%vlocity_namespace%__DisableMetadataCache__c": false,
    "%vlocity_namespace%__ElementTypeToHTMLTemplateList__c": "{\"ElementTypeToHTMLTemplateList\":[]}",
    "%vlocity_namespace%__Element__c": [
        "cliamLine_sinistre_Element_DataRaptorTransformAction1.json",
        "cliamLine_sinistre_Element_RemoteAction1.json"
    ],
    "%vlocity_namespace%__IsLwcEnabled__c": false,
    "%vlocity_namespace%__IsProcedure__c": true,
    "%vlocity_namespace%__IsReusable__c": false,
    "%vlocity_namespace%__IsTest__c": false,
    "%vlocity_namespace%__Language__c": "Procedure",
    "%vlocity_namespace%__OmniProcessType__c": "Integration Procedure",
    "%vlocity_namespace%__ProcedureKey__c": "cliamLine_sinistre",
    "%vlocity_namespace%__PropertySet__c": "cliamLine_sinistre_PropertySet.json",
    "%vlocity_namespace%__SubType__c": "sinistre",
    "%vlocity_namespace%__Type__c": "cliamLine",
    "Name": "paymentSinistre",
    "VlocityDataPackType": "SObject",
    "VlocityRecordSObjectType": "%vlocity_namespace%__OmniScript__c",
    "VlocityRecordSourceKey": "%vlocity_namespace%__OmniScript__c/cliamLine/sinistre/Procedure"
}