{
    "Body": "File_ELECTROSUR-MANDAT-SEPA.pdf",
    "BodyLength": 76726,
    "ContentType": "application/pdf",
    "Description": "",
    "DeveloperName": "ELECTRODEPOTMANDATSEPAVIERGE",
    "IsBodySearchable": true,
    "IsInternalUseOnly": false,
    "IsPublic": true,
    "Keywords": "",
    "Name": "ELECTROSUR MANDAT SEPA",
    "Type": "pdf",
    "Url": "",
    "VlocityDataPackType": "SObject",
    "VlocityRecordSObjectType": "Document",
    "VlocityRecordSourceKey": "Document/ELECTRODEPOTMANDATSEPAVIERGE"
}