{
    "%vlocity_namespace%__Active__c": true,
    "%vlocity_namespace%__OmniScriptId__c": {
        "Name": "IP05PaymentCBURLRattrappage",
        "VlocityDataPackType": "VlocityMatchingKeyObject",
        "VlocityMatchingRecordSourceKey": "%vlocity_namespace%__OmniScript__c/VSP/IP05PaymentCBURLRatrappage/Procedure",
        "VlocityRecordSObjectType": "%vlocity_namespace%__OmniScript__c"
    },
    "%vlocity_namespace%__PropertySet__c": {
        "actionMessage": "",
        "additionalChainableResponse": {
        },
        "additionalInput": {
            "adresse_ligne_1": "%StepCustomerIdentificationOS02:BlckIdentityPersonOS02:BlckAddress:TxtStreetOS02%",
            "adresse_ligne_2": "",
            "adresse_ligne_3": "",
            "civilite": "=IF( %StepCustomerIdentificationOS02:BlckIdentityPersonOS02:SelectSalutationOS02%=='1', \"MME\", \"\")+ IF( %StepCustomerIdentificationOS02:BlckIdentityPersonOS02:SelectSalutationOS02%=='2', \"MLLE\", \"\")+ IF( %StepCustomerIdentificationOS02:BlckIdentityPersonOS02:SelectSalutationOS02%=='3', \"M.\", \"\")",
            "code_postal": "%StepCustomerIdentificationOS02:BlckIdentityPersonOS02:BlckAddress:TxtPostalCodeOS02%",
            "date_commande": "=TOSTRING(NOW())",
            "email": "=%StepCustomerIdentificationOS02:BlckIdentityPersonOS02:EmailCustomerEmailOS02%",
            "montant": "=%StepCustomerIdentificationOS02:BlckOfferOS02:productConfig:records:Price%+ROUND(%StepCustomerIdentificationOS02:BlckOfferOS02:productConfig:records:taxAmount%,2)",
            "nom": "%StepCustomerIdentificationOS02:BlckIdentityPersonOS02:TxtLastNameOS02%",
            "pays": "%StepCustomerIdentificationOS02:BlckIdentityPersonOS02:BlckAddress:TxtCountryOS02%",
            "prenom": "%StepCustomerIdentificationOS02:BlckIdentityPersonOS02:TxtFistNameOS02%",
            "reference": "%num_contrat%",
            "teste_libre": "='ELECTROSUR__'+%num_contrat%+'__'+(%StepCustomerIdentificationOS02:BlckOfferOS02:productConfig:records:Price%+ROUND(%StepCustomerIdentificationOS02:BlckOfferOS02:productConfig:records:taxAmount%,2))",
            "ville": "%StepCustomerIdentificationOS02:BlckIdentityPersonOS02:BlckAddress:TxtCityOS02%"
        },
        "additionalOutput": {
        },
        "chainOnStep": false,
        "disOnTplt": false,
        "executionConditionalFormula": "",
        "failOnStepError": true,
        "failureConditionalFormula": "",
        "failureResponse": {
        },
        "label": "RemoteAction1",
        "remoteClass": "CallApexFromOmniScript_UTL",
        "remoteMethod": "GetUrl",
        "remoteOptions": {
        },
        "responseJSONNode": "",
        "responseJSONPath": "",
        "returnOnlyAdditionalOutput": false,
        "returnOnlyFailureResponse": false,
        "sendJSONNode": "",
        "sendJSONPath": "",
        "sendOnlyAdditionalInput": true,
        "show": null,
        "useFormulas": true
    },
    "%vlocity_namespace%__ReusableOmniScript__c": false,
    "%vlocity_namespace%__Type__c": "Remote Action",
    "Name": "RemActGetURLIP05",
    "VlocityDataPackType": "SObject",
    "VlocityRecordSObjectType": "%vlocity_namespace%__Element__c",
    "VlocityRecordSourceKey": "%vlocity_namespace%__Element__c/%vlocity_namespace%__OmniScript__c/VSP/IP05PaymentCBURLRatrappage/Procedure/RemActGetURLIP05"
}