{
    "%vlocity_namespace%__CustomJavaScript__c": "VSP_IP05PaymentCBURLRatrappage_SampleInput.json",
    "%vlocity_namespace%__DisableMetadataCache__c": false,
    "%vlocity_namespace%__ElementTypeToHTMLTemplateList__c": "{\"ElementTypeToHTMLTemplateList\":[]}",
    "%vlocity_namespace%__Element__c": [
        "VSP_IP05PaymentCBURLRatrappage_Element_RemActGetURLIP05.json",
        "VSP_IP05PaymentCBURLRatrappage_Element_DRPUpdateCBurlAssetIP05.json",
        "VSP_IP05PaymentCBURLRatrappage_Element_DREGetPersonContactIP05.json",
        "VSP_IP05PaymentCBURLRatrappage_Element_EmailActionCBURLIP05.json"
    ],
    "%vlocity_namespace%__IsLwcEnabled__c": false,
    "%vlocity_namespace%__IsProcedure__c": true,
    "%vlocity_namespace%__IsReusable__c": false,
    "%vlocity_namespace%__IsTest__c": false,
    "%vlocity_namespace%__Language__c": "Procedure",
    "%vlocity_namespace%__OmniProcessType__c": "Integration Procedure",
    "%vlocity_namespace%__ProcedureKey__c": "VSP_IP05PaymentCBURLRatrappage",
    "%vlocity_namespace%__PropertySet__c": "VSP_IP05PaymentCBURLRatrappage_PropertySet.json",
    "%vlocity_namespace%__SubType__c": "IP05PaymentCBURLRatrappage",
    "%vlocity_namespace%__Type__c": "VSP",
    "Name": "IP05PaymentCBURLRattrappage",
    "VlocityDataPackType": "SObject",
    "VlocityRecordSObjectType": "%vlocity_namespace%__OmniScript__c",
    "VlocityRecordSourceKey": "%vlocity_namespace%__OmniScript__c/VSP/IP05PaymentCBURLRatrappage/Procedure"
}