{
    "%vlocity_namespace%__Active__c": true,
    "%vlocity_namespace%__OmniScriptId__c": {
        "Name": "OS02ContractSubscription",
        "VlocityDataPackType": "VlocityMatchingKeyObject",
        "VlocityMatchingRecordSourceKey": "%vlocity_namespace%__OmniScript__c/VSP/OS02ContractSubscription/French",
        "VlocityRecordSObjectType": "%vlocity_namespace%__OmniScript__c"
    },
    "%vlocity_namespace%__PropertySet__c": {
        "HTMLTemplateId": "",
        "controlWidth": 12,
        "disOnTplt": false,
        "elementValueMap": {
            "DateBirthDateOS02": "=SUBSTRING(%DateNaissanceCof%, 0, 4) + '-' + SUBSTRING(%DateNaissanceCof%, 4, 6) + '-' + SUBSTRING(%DateNaissanceCof%, 6, 8)",
            "edEquipmentCategory1": "=IF(COUNT(%equipmentCategoryList%)>=1, %equipmentCategoryList|1%, 0)",
            "edEquipmentCategory2": "=IF(COUNT(%equipmentCategoryList%)>=2, %equipmentCategoryList|2%, 0)",
            "edEquipmentCategory3": "=IF(COUNT(%equipmentCategoryList%)==3, %equipmentCategoryList|3%, 0)",
            "merchantTransactionDate": "=SUBSTRING(%merchantDateTransaction%, 0, 4) + '-' + SUBSTRING(%merchantDateTransaction%, 4, 6) + '-' + SUBSTRING(%merchantDateTransaction%, 6, 8)"
        },
        "label": "SetValues2",
        "message": {
        },
        "pubsub": false,
        "show": {
            "group": {
                "operator": "AND",
                "rules": [
                    {
                        "condition": "=",
                        "data": "SHOP",
                        "field": "orderChannel"
                    }
                ]
            }
        },
        "showPersistentComponent": [
            false,
            false
        ],
        "ssm": false,
        "wpm": false
    },
    "%vlocity_namespace%__ReusableOmniScript__c": false,
    "%vlocity_namespace%__Type__c": "Set Values",
    "Name": "SetValuesTraitementBouchonOS02",
    "VlocityDataPackType": "SObject",
    "VlocityRecordSObjectType": "%vlocity_namespace%__Element__c",
    "VlocityRecordSourceKey": "%vlocity_namespace%__Element__c/%vlocity_namespace%__OmniScript__c/VSP/OS02ContractSubscription/French/SetValuesTraitementBouchonOS02"
}