{
    "%vlocity_namespace%__DisableMetadataCache__c": false,
    "%vlocity_namespace%__ElementTypeToHTMLTemplateList__c": "{\"ElementTypeToHTMLTemplateList\":[\"ins-os-attribute-component\",\"ins-os-coverage-component\"]}",
    "%vlocity_namespace%__Element__c": [
        "VSP_OS02ContractSubscription_French_Element_SetValuesInitParcoursOS2.json",
        "VSP_OS02ContractSubscription_French_Element_SetValCofidisDataOS02.json",
        "VSP_OS02ContractSubscription_French_Element_SetValuesTraitementBouchonOS02.json",
        "VSP_OS02ContractSubscription_French_Element_MatrixActGetProductCodeOS02.json",
        "VSP_OS02ContractSubscription_French_Element_DREGetJuridictionforTCAOS02.json",
        "VSP_OS02ContractSubscription_French_Element_DRTUserInputsForGetRatedProductOS02.json",
        "VSP_OS02ContractSubscription_French_Element_StepCustomerIdentificationOS02.json",
        "VSP_OS02ContractSubscription_French_Element_TextBlock1.json",
        "VSP_OS02ContractSubscription_French_Element_TxtBlckImageSimpleOS02.json",
        "VSP_OS02ContractSubscription_French_Element_TxtBlckImageDoubleOS02.json",
        "VSP_OS02ContractSubscription_French_Element_TxtBlckImageTripleOS02.json",
        "VSP_OS02ContractSubscription_French_Element_BlckOfferOS02.json",
        "VSP_OS02ContractSubscription_French_Element_productConfig.json",
        "VSP_OS02ContractSubscription_French_Element_TxtBlckErrorSelectOffer.json",
        "VSP_OS02ContractSubscription_French_Element_BlckIdentityPersonOS02.json",
        "VSP_OS02ContractSubscription_French_Element_SelectSalutationOS02.json",
        "VSP_OS02ContractSubscription_French_Element_TxtLastNameOS02.json",
        "VSP_OS02ContractSubscription_French_Element_TxtFistNameOS02.json",
        "VSP_OS02ContractSubscription_French_Element_DateBirthDateOS02.json",
        "VSP_OS02ContractSubscription_French_Element_PhoneCofidisCustomerPhoneNumberOS02.json",
        "VSP_OS02ContractSubscription_French_Element_FormulaDate.json",
        "VSP_OS02ContractSubscription_French_Element_PhoneCustomerPhoneNumberOS02.json",
        "VSP_OS02ContractSubscription_French_Element_EmailCustomerEmailOS02.json",
        "VSP_OS02ContractSubscription_French_Element_BlckAddress.json",
        "VSP_OS02ContractSubscription_French_Element_HeadlineAdresse.json",
        "VSP_OS02ContractSubscription_French_Element_TxtStreetOS02.json",
        "VSP_OS02ContractSubscription_French_Element_TxtPostalCodeOS02.json",
        "VSP_OS02ContractSubscription_French_Element_TxtCityOS02.json",
        "VSP_OS02ContractSubscription_French_Element_TxtCountryOS02.json",
        "VSP_OS02ContractSubscription_French_Element_EmailCustomerConfirmEmailOS02.json",
        "VSP_OS02ContractSubscription_French_Element_FormulaCheckEmailOS02.json",
        "VSP_OS02ContractSubscription_French_Element_MssgCheckMatchEmailOS02.json",
        "VSP_OS02ContractSubscription_French_Element_LandPhoneCustomerPhoneNumberOS02.json",
        "VSP_OS02ContractSubscription_French_Element_BlckPaymentMethod.json",
        "VSP_OS02ContractSubscription_French_Element_SelectPaymentMethod.json",
        "VSP_OS02ContractSubscription_French_Element_CheckboxOptInMarketingOS02.json",
        "VSP_OS02ContractSubscription_French_Element_TextBlock5.json",
        "VSP_OS02ContractSubscription_French_Element_TxtBlckTextRGPDMarketing.json",
        "VSP_OS02ContractSubscription_French_Element_CheckboxOptInRGPDOS02.json",
        "VSP_OS02ContractSubscription_French_Element_TxtBlckIdentCustomerOS02.json",
        "VSP_OS02ContractSubscription_French_Element_MessagingEditStepIdentityOS02.json",
        "VSP_OS02ContractSubscription_French_Element_FormulaNewAsset.json",
        "VSP_OS02ContractSubscription_French_Element_SetValuesDate.json",
        "VSP_OS02ContractSubscription_French_Element_SetErrorsDateNaissance.json",
        "VSP_OS02ContractSubscription_French_Element_SetValues8.json",
        "VSP_OS02ContractSubscription_French_Element_SetErrors2.json",
        "VSP_OS02ContractSubscription_French_Element_SetValuesClient.json",
        "VSP_OS02ContractSubscription_French_Element_IPActCustomerQuoteCreationOS02.json",
        "VSP_OS02ContractSubscription_French_Element_StepPaymentIBANOS02.json",
        "VSP_OS02ContractSubscription_French_Element_TxtBankAccountHolderOS02.json",
        "VSP_OS02ContractSubscription_French_Element_TxtBankAccountNumber1OS02.json",
        "VSP_OS02ContractSubscription_French_Element_TxtBankAccountNumberOS02.json",
        "VSP_OS02ContractSubscription_French_Element_CheckboxProcessPapierOS02.json",
        "VSP_OS02ContractSubscription_French_Element_TxtBlckPaymentIbanOS02.json",
        "VSP_OS02ContractSubscription_French_Element_SetValuesIban.json",
        "VSP_OS02ContractSubscription_French_Element_HTTPActionVerifIBANOS02.json",
        "VSP_OS02ContractSubscription_French_Element_SetErrorsVerifIbanOS02.json",
        "VSP_OS02ContractSubscription_French_Element_IPCheckStatusAssetOS02.json",
        "VSP_OS02ContractSubscription_French_Element_SetAssetExistValue.json",
        "VSP_OS02ContractSubscription_French_Element_IPActCreateClientContratOGIOS02.json",
        "VSP_OS02ContractSubscription_French_Element_IPPolicyCreationOS02.json",
        "VSP_OS02ContractSubscription_French_Element_SetValuesPaymentMethod.json",
        "VSP_OS02ContractSubscription_French_Element_StepYousignSignatureOS01.json",
        "VSP_OS02ContractSubscription_French_Element_LWCIframeSignatureOS02.json",
        "VSP_OS02ContractSubscription_French_Element_TxtBlckYouSignOS02.json",
        "VSP_OS02ContractSubscription_French_Element_DRECheckStatusOS02.json",
        "VSP_OS02ContractSubscription_French_Element_TxtBlckContratValideOS02.json",
        "VSP_OS02ContractSubscription_French_Element_TxtBlckContratnonValideOS02.json",
        "VSP_OS02ContractSubscription_French_Element_IPPaymentCBOS02.json",
        "VSP_OS02ContractSubscription_French_Element_StepPaymentCBOS02.json",
        "VSP_OS02ContractSubscription_French_Element_TxtBlckMessagePaymentCB.json",
        "VSP_OS02ContractSubscription_French_Element_TextBlock2.json",
        "VSP_OS02ContractSubscription_French_Element_DataRaptorExtractAction1.json",
        "VSP_OS02ContractSubscription_French_Element_TextBlock4.json",
        "VSP_OS02ContractSubscription_French_Element_TextBlock3.json",
        "VSP_OS02ContractSubscription_French_Element_StepMandatGenerationOS02.json",
        "VSP_OS02ContractSubscription_French_Element_TxtBlckMandatPdfOS02.json",
        "VSP_OS02ContractSubscription_French_Element_CheckboxSignaturePapierMandatOS02.json",
        "VSP_OS02ContractSubscription_French_Element_TxtBlckMandatGenerationOS02.json",
        "VSP_OS02ContractSubscription_French_Element_DRPUpdateStatusAssetWhenPaperProcess.json",
        "VSP_OS02ContractSubscription_French_Element_SetValContratvalid0S02.json",
        "VSP_OS02ContractSubscription_French_Element_IPActCallTicketPrintAPIOS02.json",
        "VSP_OS02ContractSubscription_French_Element_StepContolIsNotNexClientOS02.json",
        "VSP_OS02ContractSubscription_French_Element_TxtBlckContractCreatedOS02.json",
        "VSP_OS02ContractSubscription_French_Element_TxtBlckContractExistOS02.json",
        "VSP_OS02ContractSubscription_French_Element_TxtBlckEndStepOS02.json",
        "VSP_OS02ContractSubscription_French_Element_StepErrorCreateContratOGIOS02.json",
        "VSP_OS02ContractSubscription_French_Element_TextBlckMessageErrorOS02.json"
    ],
    "%vlocity_namespace%__IsLwcEnabled__c": true,
    "%vlocity_namespace%__IsProcedure__c": false,
    "%vlocity_namespace%__IsReusable__c": false,
    "%vlocity_namespace%__IsTest__c": false,
    "%vlocity_namespace%__Language__c": "French",
    "%vlocity_namespace%__LastPreviewPage__c": "Newport",
    "%vlocity_namespace%__OmniProcessType__c": "OmniScript",
    "%vlocity_namespace%__PropertySet__c": "VSP_OS02ContractSubscription_French_PropertySet.json",
    "%vlocity_namespace%__SubType__c": "OS02ContractSubscription",
    "%vlocity_namespace%__Type__c": "VSP",
    "Name": "OS02ContractSubscription",
    "VlocityDataPackType": "SObject",
    "VlocityRecordSObjectType": "%vlocity_namespace%__OmniScript__c",
    "VlocityRecordSourceKey": "%vlocity_namespace%__OmniScript__c/VSP/OS02ContractSubscription/French"
}