{
    "%vlocity_namespace%__Active__c": true,
    "%vlocity_namespace%__OmniScriptId__c": {
        "Name": "OS02ContractSubscription",
        "VlocityDataPackType": "VlocityMatchingKeyObject",
        "VlocityMatchingRecordSourceKey": "%vlocity_namespace%__OmniScript__c/VSP/OS02ContractSubscription/French",
        "VlocityRecordSObjectType": "%vlocity_namespace%__OmniScript__c"
    },
    "%vlocity_namespace%__PropertySet__c": {
        "HTMLTemplateId": "",
        "allowSaveForLater": false,
        "businessCategory": "",
        "businessEvent": "",
        "cancelLabel": "Cancel",
        "cancelMessage": "Are you sure?",
        "chartLabel": "Signature papier",
        "completeLabel": "Complete",
        "completeMessage": "Are you sure you want to complete the script?",
        "conditionType": "Hide if False",
        "errorMessage": {
            "custom": [
            ],
            "default": null
        },
        "instruction": "",
        "instructionKey": "",
        "knowledgeOptions": {
            "dataCategoryCriteria": "",
            "keyword": "",
            "language": "English",
            "publishStatus": "Online",
            "remoteTimeout": 30000,
            "typeFilter": ""
        },
        "label": "Mandat SEPA - Impression et signature papier",
        "message": {
        },
        "nextLabel": "Suivant",
        "nextWidth": 3,
        "previousLabel": "Précédent",
        "previousWidth": 3,
        "pubsub": false,
        "remoteClass": "",
        "remoteMethod": "",
        "remoteOptions": {
        },
        "remoteTimeout": 30000,
        "saveLabel": "",
        "saveMessage": "",
        "show": {
            "group": {
                "operator": "AND",
                "rules": [
                    {
                        "condition": "=",
                        "data": "true",
                        "field": "CheckboxProcessPapierOS02"
                    },
                    {
                        "condition": "=",
                        "data": "false",
                        "field": "customerCheckIfAssetExist"
                    }
                ]
            }
        },
        "showPersistentComponent": [
            true,
            false
        ],
        "ssm": false,
        "validationRequired": true,
        "wpm": false
    },
    "%vlocity_namespace%__ReusableOmniScript__c": false,
    "%vlocity_namespace%__Type__c": "Step",
    "Name": "StepMandatGenerationOS02",
    "VlocityDataPackType": "SObject",
    "VlocityRecordSObjectType": "%vlocity_namespace%__Element__c",
    "VlocityRecordSourceKey": "%vlocity_namespace%__Element__c/%vlocity_namespace%__OmniScript__c/VSP/OS02ContractSubscription/French/StepMandatGenerationOS02"
}