{
    "%vlocity_namespace%__Active__c": true,
    "%vlocity_namespace%__OmniScriptId__c": {
        "Name": "OS02ContractSubscription",
        "VlocityDataPackType": "VlocityMatchingKeyObject",
        "VlocityMatchingRecordSourceKey": "%vlocity_namespace%__OmniScript__c/VSP/OS02ContractSubscription/French",
        "VlocityRecordSObjectType": "%vlocity_namespace%__OmniScript__c"
    },
    "%vlocity_namespace%__ParentElementId__c": {
        "%vlocity_namespace%__OmniScriptId__c": {
            "Name": "OS02ContractSubscription",
            "VlocityDataPackType": "VlocityMatchingKeyObject",
            "VlocityMatchingRecordSourceKey": "%vlocity_namespace%__OmniScript__c/VSP/OS02ContractSubscription/French",
            "VlocityRecordSObjectType": "%vlocity_namespace%__OmniScript__c"
        },
        "Name": "BlckOfferOS02",
        "VlocityDataPackType": "VlocityMatchingKeyObject",
        "VlocityMatchingRecordSourceKey": "%vlocity_namespace%__Element__c/%vlocity_namespace%__OmniScript__c/VSP/OS02ContractSubscription/French/BlckOfferOS02",
        "VlocityRecordSObjectType": "%vlocity_namespace%__Element__c"
    },
    "%vlocity_namespace%__ParentElementName__c": "BlckOfferOS02",
    "%vlocity_namespace%__ParentElementType__c": "Block",
    "%vlocity_namespace%__PropertySet__c": {
        "bStandalone": false,
        "clearSavedStateOnChangeKeys": [
            "SingleInstanceConfigLWC"
        ],
        "conditionType": "Hide if False",
        "controlWidth": 11,
        "customAttributes": [
            {
                "name": "clear-state-on-change",
                "source": "[\"SingleInstanceConfigLWC\"]"
            },
            {
                "name": "sort-by-key",
                "source": "Name"
            },
            {
                "name": "channel",
                "source": "%orderChannel%"
            }
        ],
        "disOnTplt": false,
        "hide": false,
        "initAction": {
            "className": "InsProductService",
            "inputMap": {
                "userInputs": "%userInputs%"
            },
            "methodName": "getRatedProducts",
            "optionsMap": {
                "calculateTaxesAndFees": true,
                "filters": "ProductCode:ED_ELECTROSUR",
                "includeOptionalCovSelectFlag": true,
                "includeRawCalculationResult": true,
                "jurisdictionIds": "%juridictionId%",
                "ruleAttributeSetValues": true,
                "sortBy": "ProductCode"
            }
        },
        "label": "Choix sélectionné",
        "lwcName": "vspUILWCinsOsSingleInstance",
        "rePriceAction": {
            "className": "InsProductService",
            "methodName": "rePriceProduct",
            "optionsMap": {
                "calculateTaxesAndFees": true,
                "includeOptionalCovSelectFlag": true,
                "includeRawCalculationResult": true,
                "ruleAttributeSetValues": true,
                "userInputs": "%userInputs%"
            }
        },
        "remoteOptionsInit": {
            "calculateTaxesAndFees": true,
            "filters": "ProductCode:ED_ELECTROSUR",
            "includeOptionalCovSelectFlag": true,
            "includeRawCalculationResult": true,
            "sortBy": "ProductCode",
            "userInputs": "%userInputs%"
        },
        "remoteOptionsReprice": {
            "calculateTaxesAndFees": true,
            "evalOptionalCoverageRelationship": true,
            "includeOptionalCovSelectFlag": true,
            "includeRawCalculationResult": true,
            "userInputs": "%userInputs%",
            "validateCoverageSelection": true
        },
        "show": null
    },
    "%vlocity_namespace%__ReusableOmniScript__c": false,
    "%vlocity_namespace%__Type__c": "Custom Lightning Web Component",
    "Name": "productConfig",
    "VlocityDataPackType": "SObject",
    "VlocityRecordSObjectType": "%vlocity_namespace%__Element__c",
    "VlocityRecordSourceKey": "%vlocity_namespace%__Element__c/%vlocity_namespace%__OmniScript__c/VSP/OS02ContractSubscription/French/productConfig"
}