{
    "%vlocity_namespace%__Active__c": true,
    "%vlocity_namespace%__OmniScriptId__c": {
        "Name": "IP05PaymentCBURL",
        "VlocityDataPackType": "VlocityMatchingKeyObject",
        "VlocityMatchingRecordSourceKey": "%vlocity_namespace%__OmniScript__c/VSP/IP05PaymentCBURL/Procedure",
        "VlocityRecordSObjectType": "%vlocity_namespace%__OmniScript__c"
    },
    "%vlocity_namespace%__PropertySet__c": {
        "OrgWideEmailAddress": "",
        "actionMessage": "",
        "attachmentList": "",
        "chainOnStep": false,
        "contentVersionList": "",
        "disOnTplt": false,
        "emailInformation": {
            "bccAddressList": [
            ],
            "ccAddressList": [
            ],
            "emailBody": "",
            "emailSubject": "",
            "setHtmlBody": false,
            "toAddressList": [
            ]
        },
        "emailTemplateInformation": {
            "emailTargetObjectId": "%DREGetPersonContactIP05:personContactId%",
            "emailTemplateName": "ELECTRODEPOTMailPaiementParCB",
            "saveAsActivity": true,
            "whatId": "%policyId%"
        },
        "executionConditionalFormula": "",
        "failOnStepError": true,
        "failureConditionalFormula": "",
        "label": "EmailAction1",
        "show": null,
        "staticDocList": [
        ],
        "useTemplate": true
    },
    "%vlocity_namespace%__ReusableOmniScript__c": false,
    "%vlocity_namespace%__Type__c": "Email Action",
    "Name": "EmailActionCBURLIP05",
    "VlocityDataPackType": "SObject",
    "VlocityRecordSObjectType": "%vlocity_namespace%__Element__c",
    "VlocityRecordSourceKey": "%vlocity_namespace%__Element__c/%vlocity_namespace%__OmniScript__c/VSP/IP05PaymentCBURL/Procedure/EmailActionCBURLIP05"
}