{
    "Body": "File_Formule-TRIPLE-jpg.jpg",
    "BodyLength": 321243,
    "ContentType": "image/jpeg",
    "Description": "",
    "DeveloperName": "CACBAECAAf6f8b59710804ebb9b8b73171726bcc5",
    "IsBodySearchable": false,
    "IsInternalUseOnly": false,
    "IsPublic": true,
    "Keywords": "",
    "Name": "Formule TRIPLE.jpg",
    "Type": "jpg",
    "Url": "",
    "VlocityDataPackType": "SObject",
    "VlocityRecordSObjectType": "Document",
    "VlocityRecordSourceKey": "Document/CACBAECAAf6f8b59710804ebb9b8b73171726bcc5"
}