{
    "Body": "File_Bandeau_formule-jpg.jpg",
    "BodyLength": 9850,
    "ContentType": "image/jpeg",
    "Description": "",
    "DeveloperName": "CACBAEBGA9e168aff767546bfa69defb33bd24c8a",
    "IsBodySearchable": false,
    "IsInternalUseOnly": false,
    "IsPublic": true,
    "Keywords": "",
    "Name": "Bandeau_formule.jpg",
    "Type": "jpg",
    "Url": "",
    "VlocityDataPackType": "SObject",
    "VlocityRecordSObjectType": "Document",
    "VlocityRecordSourceKey": "Document/CACBAEBGA9e168aff767546bfa69defb33bd24c8a"
}