{
    "%vlocity_namespace%__AdditionalInformation__c": "Invoked when ClaimLineItem.Status = \"Payment Pending\" (via Database Triggers invoking a custom setting).",
    "%vlocity_namespace%__CustomJavaScript__c": "ClaimLineItem_Payments_SampleInput.json",
    "%vlocity_namespace%__DisableMetadataCache__c": false,
    "%vlocity_namespace%__ElementTypeToHTMLTemplateList__c": "{\"ElementTypeToHTMLTemplateList\":[]}",
    "%vlocity_namespace%__Element__c": [
        "ClaimLineItem_Payments_Element_PrepareCreateTransaction.json",
        "ClaimLineItem_Payments_Element_CreateTransaction.json",
        "ClaimLineItem_Payments_Element_CheckPaymentCreationMode.json",
        "ClaimLineItem_Payments_Element_CreatePayments.json",
        "ClaimLineItem_Payments_Element_UpdatePaidAmountAndStatus.json"
    ],
    "%vlocity_namespace%__IsLwcEnabled__c": false,
    "%vlocity_namespace%__IsProcedure__c": true,
    "%vlocity_namespace%__IsReusable__c": false,
    "%vlocity_namespace%__IsTest__c": false,
    "%vlocity_namespace%__Language__c": "Procedure",
    "%vlocity_namespace%__OmniProcessType__c": "Integration Procedure",
    "%vlocity_namespace%__ProcedureKey__c": "ClaimLineItem_Payments",
    "%vlocity_namespace%__PropertySet__c": "ClaimLineItem_Payments_PropertySet.json",
    "%vlocity_namespace%__SubType__c": "Payments",
    "%vlocity_namespace%__Type__c": "ClaimLineItem",
    "Name": "ClaimLineItemPostTransactions",
    "VlocityDataPackType": "SObject",
    "VlocityRecordSObjectType": "%vlocity_namespace%__OmniScript__c",
    "VlocityRecordSourceKey": "%vlocity_namespace%__OmniScript__c/ClaimLineItem/Payments/Procedure"
}