[
    {
        "%vlocity_namespace%__FloorPrice__c": "",
        "%vlocity_namespace%__OverageCharge__c": "",
        "%vlocity_namespace%__OverageUOM__c": "",
        "%vlocity_namespace%__RecurringPrice__c": "",
        "%vlocity_namespace%__RecurringUOM__c": "Monthly",
        "IsActive": true,
        "IsArchived": false,
        "Name": "Assurance Electrosûr",
        "Pricebook2.Name": "Standard Price Book",
        "Pricebook2Id": {
            "Name": "Standard Price Book",
            "VlocityDataPackType": "VlocityLookupMatchingKeyObject",
            "VlocityLookupRecordSourceKey": "Pricebook2/Standard Price Book",
            "VlocityRecordSObjectType": "Pricebook2"
        },
        "Product2.%vlocity_namespace%__GlobalKey__c": "9b69399a-ed6f-7f65-1ab9-0a072c9bbb4b",
        "Product2Id": {
            "%vlocity_namespace%__GlobalKey__c": "9b69399a-ed6f-7f65-1ab9-0a072c9bbb4b",
            "VlocityDataPackType": "VlocityMatchingKeyObject",
            "VlocityMatchingRecordSourceKey": "Product2/9b69399a-ed6f-7f65-1ab9-0a072c9bbb4b",
            "VlocityRecordSObjectType": "Product2"
        },
        "ProductCode": "ED_ELECTROSUR",
        "UnitPrice": 1,
        "UseStandardPrice": false,
        "VlocityDataPackType": "SObject",
        "VlocityRecordSObjectType": "PricebookEntry",
        "VlocityRecordSourceKey": "PricebookEntry/Pricebook2/Standard Price Book/Product2/9b69399a-ed6f-7f65-1ab9-0a072c9bbb4b"
    }
]