{
    "%vlocity_namespace%__CalculationMatrixId__c": {
        "Name": "vspCMFormuleWebMobile",
        "VlocityDataPackType": "VlocityMatchingKeyObject",
        "VlocityMatchingRecordSourceKey": "%vlocity_namespace%__CalculationMatrix__c/vspCMFormuleWebMobile",
        "VlocityRecordSObjectType": "%vlocity_namespace%__CalculationMatrix__c"
    },
    "%vlocity_namespace%__CalculationMatrixId__r.Name": "vspCMFormuleWebMobile",
    "%vlocity_namespace%__CalculationMatrixRow__c": "vspCMFormuleWebMobile_Version_Rows.json",
    "%vlocity_namespace%__CurrentStatus__c": "Active",
    "%vlocity_namespace%__EndDateTime__c": "",
    "%vlocity_namespace%__GlobalKey__c": "vspCMFormuleWebMobile V1",
    "%vlocity_namespace%__GroupKeyValue__c": "",
    "%vlocity_namespace%__MatrixRecordType__c": "Standard",
    "%vlocity_namespace%__MatrixUseLongOutput__c": false,
    "%vlocity_namespace%__Priority__c": 1,
    "%vlocity_namespace%__StartDateTime__c": "2021-07-10T11:31:08.000Z",
    "%vlocity_namespace%__SubGroupKeyValue__c": "",
    "%vlocity_namespace%__UseLongOutput__c": false,
    "%vlocity_namespace%__VersionNumber__c": 1,
    "Name": "vspCMFormuleWebMobile V1",
    "VlocityDataPackType": "SObject",
    "VlocityRecordSObjectType": "%vlocity_namespace%__CalculationMatrixVersion__c",
    "VlocityRecordSourceKey": "%vlocity_namespace%__CalculationMatrixVersion__c/1/%vlocity_namespace%__CalculationMatrix__c/vspCMFormuleWebMobile"
}