{
    "%vlocity_namespace%__ActionClassName__c": "",
    "%vlocity_namespace%__CalculationProcedureVersion__c": "vspCPEDMOBCalculTarifEtCom_Version.json",
    "%vlocity_namespace%__Description__c": "",
    "%vlocity_namespace%__GlobalKey__c": "vspCPEDCalculTarifEtCom",
    "%vlocity_namespace%__SubType__c": "",
    "%vlocity_namespace%__Type__c": "",
    "Name": "vspCPEDMOBCalculTarifEtCom",
    "RecordTypeId": {
        "DeveloperName": "Declarative",
        "SobjectType": "%vlocity_namespace%__CalculationProcedure__c",
        "VlocityDataPackType": "VlocityLookupMatchingKeyObject",
        "VlocityLookupRecordSourceKey": "RecordType/%vlocity_namespace%__CalculationProcedure__c/Declarative",
        "VlocityRecordSObjectType": "RecordType"
    },
    "VlocityDataPackType": "SObject",
    "VlocityRecordSObjectType": "%vlocity_namespace%__CalculationProcedure__c",
    "VlocityRecordSourceKey": "%vlocity_namespace%__CalculationProcedure__c/vspCPEDMOBCalculTarifEtCom"
}