{
    "policyJson": {
        "Id": null,
        "accountId": null,
        "additionalFields": {
        },
        "effectiveDate": null,
        "endDate": null,
        "insuredItems": {
            "ED_INS_ITEM_EQUIPMENT": [
                {
                    "additionalFields": {
                    },
                    "instanceKey": null,
                    "isParent": true,
                    "productCode": "ED_INS_ITEM_EQUIPMENT",
                    "productId": "01t1x00000BwovCAAR"
                }
            ]
        },
        "modificationDate": null,
        "productConfigurationDetail:records": "JSONResult Object",
        "term": null
    }
}